[
  {
    "total_img": 295,
    "number_page": 2,
    "title": "Love Live",
    "tag": "Water, Erena Todo, Dolphin, Wink, Black Hair, High Heels, Lipstick, Dessert, Weapon, Nico Yazawa, Sword, Ribbon, Book, Hanayo Koizumi, Umbrella, Shorts, Yoshiko Tsushima, Braid, Dog, Maki Nishikino, Gun, Purple Eyes, Glove, Scarf, Violinist, Orange Dress, Chibi, Smile, Red Hair, Skirt, Blush, Anju Yuuki, Pantyhose, Animal, Emi Nitta, Orange Hair, Cake, Doll, White Dress, Coffee, Umi Sonoda, Valentines Day, Japanese Clothes, Food, Tsubasa Kira, Bed, Motorcycle, Brown Hair, Nozomi Tojo, Pink Hair, Tie, Blue Eyes, Boots, Hat, Halloween, Parasol, Pillow, Yukiho Kosaka, Pancake, Green Eyes, Snow, Underwater, Love Live, Honoka Kousaka, Snowfall, Drink, Twinitails, Long Hair, Riko Sakurauchi, Thigh Highs, Beach, Rain, Anime, Winter, Light, Headdress, Collar, Chika Takami, Purple Hair, Scroll, Yellow Eyes, Pigeon, Alisa Ayase, Red Eyes, Cap, Water Drop, Dark, Cat, Eri Ayase, Fall, Ponytail, Sunflower, Mirror, Ruby Kurosawa, Fork, Cherry Blossom, Fountain, Bird, Sitting, You Watanabe, Twintails, Blonde, Mountain, Phone, bow Clothing, Short Hair, Mandarin, Room, Katana, Necklace, Flower, Love Live Sunshine, Dress, Fruit, Brown Eyes, Rin Hoshizora, Bag, Kotori Minami, Blue Dress, Pink Eyes, School Uniform, Maid, Bride, Sunset, Hanamaru Kunikida, Blue Hair, Instrument, Reindeer, Yukata",
    "description": "Love Live",
    "link_thumb": "https://live.staticflickr.com/65535/48048651403_15341cc2f8_n.jpg",
    "id_album": "1130036465",
    "total_view": 295
  },
  {
    "total_img": 112,
    "number_page": 1,
    "title": "Honoka Kousaka",
    "tag": "Honoka Kousaka,",
    "description": "Honoka Kousaka",
    "link_thumb": "https://live.staticflickr.com/65535/48070067763_e2d97edd97_n.jpg",
    "id_album": "993813938",
    "total_view": 112
  },
  {
    "total_img": 118,
    "number_page": 1,
    "title": "Kotori Minami",
    "tag": "Kotori Minami,",
    "description": "Kotori Minami",
    "link_thumb": "https://live.staticflickr.com/65535/48070067763_e2d97edd97_n.jpg",
    "id_album": "-662341656",
    "total_view": 118
  },
  {
    "total_img": 114,
    "number_page": 1,
    "title": "Umi Sonoda",
    "tag": "Umi Sonoda,",
    "description": "Umi Sonoda",
    "link_thumb": "https://live.staticflickr.com/65535/48070067763_e2d97edd97_n.jpg",
    "id_album": "-1869530914",
    "total_view": 114
  }
]