[
  {
    "total_img": 2585,
    "number_page": 13,
    "title": "Boy",
    "tag": "Boy,",
    "description": "Boy",
    "link_thumb": "https://live.staticflickr.com/65535/51541746745_541d4f2e57_n.jpg",
    "id_album": "-1694302085",
    "total_view": 2226
  },
  {
    "total_img": 24615,
    "number_page": 124,
    "title": "Girl",
    "tag": "Heart, Green Hair, Wind, Wink, Black Hair, Black, Monochrome, Weapon, Blood, Swing, Umbrella, Shorts, Lion, Bikini, Redhead, Space, Hair, Cookie, Glove, Black Dress, Smile, Spring, Sun, Sea, Skirt, Pond, Statue, Thorns, Building, White Dress, Tiger, Earbuds, Japanese Clothes, Alice or Alice, Fish, Yuri, Wolf, Face, Bed, Nature, Original Anime, Motorcycle, Artistic, Blue, Nekomimi, Brown Hair, Pink Hair, Starry Sky, Tie, Blue Eyes, Hoodie, Ghost, Teddy Bear, Kitsune, Fire, Hat, Sunrise, Animal Ears, Parasol, Ice Cream, Futuristic, Green Eyes, Stars, Scythe, Tattoo, Long Hair, Thigh Highs, Beach, Santa, Winter, Kimono, Heterochromia, Camera, Girl, Festival, Cute, Purple Hair, Revolver, Oriental, Birdcage, Vocaloid, Stuffed Animal, Paint, Pigeon, Fox, Glasses, Hytura Artist, Sunflower, Drawing, Santa Hat, Laptop, Light Bulb, Bird, Sitting, Twintails, Blonde, School, Mountain, Bangs, Classroom, Anna Millers, Katana, Pug, Jeans, Pink Eyes, 5 Nenme no Houkago, School Uniform, Sunset, Apple, White, Sleeping, Grey Hair, Lying Down, Blossom, Tears, Sky, Fan Art, Moon, Colorful, Shark, Cartoon, Lipstick, Purple Flower, Skateboard, Schoolgirl, Sword, Ribbon, White Hair, Book, Fangs, Computer, Windmill, Horns, Dog, Dandelion, Gun, Purple Eyes, Jacket, Violinist, Mask, Reflection, Japanese, Aqua Eyes, Red Hair, Sci Fi, Colors, Belt, Blush, Pantyhose, Wheelchair, Kousaka Mayuri, Lantern, Water Lily, Evening, Rose, Wings, Chinese Dress, Leaf, Witch, Guitar, 88 Original Character, Korean, Guitarist, Lily Pad, Grey Eyes, Dancing, Halloween, Boat, Night, Snow, Penguin, Hatsune Miku, Uniform, Grass, Bubble, Rain, Anime, Tree, Woman, Coat, Samurai, Yellow Eyes, Sakura, Boy, Red Eyes, Pink, Cap, Car, Dark, Sad, Cat, Girls  Guns, Fantasy, Fall, Library, Ponytail, Fairy, Natalia Poklonskaya, Cherry Blossom, Butterfly, Ranka Lee, Socks, Resting, Barefoot, Monocle, Phone, bow Clothing, Short Hair, Necklace, Flower, Dress, Cat Girl, Brown Eyes, Magic, Red Dress, Bag, Woman Warrior, Blue Hair, Cloud, Forest, Yukata, Petal, Peace Sign",
    "description": "Girl",
    "link_thumb": "https://live.staticflickr.com/65535/51542199025_2343ce2f5b_n.jpg",
    "id_album": "-316663319",
    "total_view": 24615
  },
  {
    "total_img": 23859,
    "number_page": 120,
    "title": "Girls Cute Cool",
    "tag": "Girls Cute Cool,",
    "description": "Girls Cute Cool",
    "link_thumb": "https://live.staticflickr.com/65535/51542199025_2343ce2f5b_n.jpg",
    "id_album": "-89234980",
    "total_view": 23859
  },
  {
    "total_img": 6163,
    "number_page": 31,
    "title": "Girls Hats Hoodie",
    "tag": "Girls Hats Hoodie,",
    "description": "Girls Hats Hoodie",
    "link_thumb": "https://live.staticflickr.com/65535/49998137463_3c222b8f53_n.jpg",
    "id_album": "1409782213",
    "total_view": 6163
  },
  {
    "total_img": 15136,
    "number_page": 76,
    "title": "Girls Loli",
    "tag": "Girls Loli,",
    "description": "Girls Loli",
    "link_thumb": "https://live.staticflickr.com/65535/51542199025_2343ce2f5b_n.jpg",
    "id_album": "-1584065887",
    "total_view": 15136
  },
  {
    "total_img": 6447,
    "number_page": 33,
    "title": "Girls Sad",
    "tag": "Girls Sad,",
    "description": "Girls Sad",
    "link_thumb": "https://live.staticflickr.com/65535/51540482412_c1e8ea7f3c_n.jpg",
    "id_album": "1650283598",
    "total_view": 6447
  },
  {
    "total_img": 6118,
    "number_page": 31,
    "title": "Sad",
    "tag": "Sad,",
    "description": "Sad",
    "link_thumb": "https://live.staticflickr.com/65535/51540482412_c1e8ea7f3c_n.jpg",
    "id_album": "-1029026589",
    "total_view": 6105
  }
]