[
  {
    "total_img": 23859,
    "number_page": 120,
    "title": "Girls Cute Cool",
    "tag": "Girls Cute Cool,",
    "description": "Girls Cute Cool",
    "link_thumb": "https://live.staticflickr.com/65535/51542199025_2343ce2f5b_n.jpg",
    "id_album": "-89234980",
    "total_view": 23859
  },
  {
    "total_img": 15136,
    "number_page": 76,
    "title": "Girls Loli",
    "tag": "Girls Loli,",
    "description": "Girls Loli",
    "link_thumb": "https://live.staticflickr.com/65535/51542199025_2343ce2f5b_n.jpg",
    "id_album": "-1584065887",
    "total_view": 15136
  },
  {
    "total_img": 1741,
    "number_page": 9,
    "title": "Girls Tie Bows",
    "tag": "Girls Tie Bows,",
    "description": "Girls Tie Bows",
    "link_thumb": "https://live.staticflickr.com/65535/50154717077_0e3e1e0b9f_n.jpg",
    "id_album": "392997562",
    "total_view": 1741
  },
  {
    "total_img": 296,
    "number_page": 2,
    "title": "Girls Water Rain",
    "tag": "Girls Water Rain,",
    "description": "Girls Water Rain",
    "link_thumb": "https://live.staticflickr.com/65535/50152183536_82f938c093_n.jpg",
    "id_album": "621451164",
    "total_view": 296
  }
]