[
  {
    "total_img": 40,
    "number_page": 1,
    "title": "Working",
    "tag": "Mahiru Inami, Aoi Yamada, Moon, Nazuna Takanashi, Yachiyo Todoroki, Working, Popura Taneshima, Starry Sky, Anime, Kyouko Shirafuji, Jun Satou, Maya Matsumoto, Hiroomi Souma, Yukata",
    "description": "Working",
    "link_thumb": "https://live.staticflickr.com/65535/48066052636_3a8044b99f_n.jpg",
    "id_album": "1055075403",
    "total_view": 40
  },
  {
    "total_img": 1083,
    "number_page": 6,
    "title": "Anime",
    "tag": "Anime,",
    "description": "Anime",
    "link_thumb": "https://live.staticflickr.com/65535/48066953706_2771a62522_n.jpg",
    "id_album": "-1920923841",
    "total_view": 1083
  },
  {
    "total_img": 4,
    "number_page": 1,
    "title": "Aoi Yamada",
    "tag": "Aoi Yamada,",
    "description": "Aoi Yamada",
    "link_thumb": "https://live.staticflickr.com/65535/48066125343_7daa009c99_n.jpg",
    "id_album": "-1070566141",
    "total_view": 4
  }
]