[
  {
    "total_img": 125,
    "number_page": 1,
    "title": "Kaguyasama wa Kokurasetai",
    "tag": "Kaguyasama wa Kokurasetai",
    "description": "Kaguyasama wa Kokurasetai",
    "link_thumb": "https://live.staticflickr.com/65535/48046971081_488bcbe1eb_n.jpg",
    "id_album": "2129470565",
    "total_view": 125
  }
]