[
  {
    "total_img": 380,
    "number_page": 2,
    "title": "Bleach 2",
    "tag": "Shinigami, Green Hair, Grimmjow Jaegerjaquez, Moon, Black Hair, Baraggan Louisenbairn, Findorr Calius, Yumi Sugimoto, Byakuya Kuchiki, Ganju Shiba, Nnoitra Gilga, Blood, Weapon, Shinji Hirako, Yammy Llargo, Sajin Komamura, Sword, Szayelaporro Granz, Ribbon, White Hair, Zabimaru Bleach, Isane Kotetsu, Horns, Yoruichi Shihoin, Flame, Hair, Isshin Kurosaki, Earrings, Glove, Mizuiro Kojima, Rojuro Otoribashi, Scarf, Chibi, Uryu Ishida, Smile, Chojiro Sasakibe, Berenice Gabrielli, Toshiro Hitsugaya, Red Hair, Sousuke Aizen, Shusuke Amagai, Kuukaku Shiba, Blush, Cyan SungSun, Noba Bleach, Yhwach Bleach, Aaroniero Arruruerie, Kazui Kurosaki, Tetsuzaemon Iba, Orange Hair, Black  White, Kaien Shiba, Nelliel Tu Odelschwanck, Unohana Retsu, Coffee, Coyote Starrk, Zennosuke Kurumadani, Tier Halibel, BazzB Bleach, Orihime Inoue, Mayuri Kurotsuchi, Mashiro Kuna, Wings, Rangiku Matsumoto, Hiyori Sarugaki, Kaname Tosen, Tail, Monster, Yachiru Kusajishi, Sternritter Bleach, Nemu Kurotsuchi, Ginrei Kuchiki, Yasutora Sado, Suzumebachi Bleach, Blue, Renji Abarai, Tatsuki Arisawa, Headband, Blue Eyes, Ichigo Kurosaki, Hachigen Ushoda, Fire, Grey Eyes, Dance, Sketch, Zangetsu Bleach, Ruka Urushibara, Black Eyes, Pesche Guatiche, Shukuro Tsukishima, Ryuken Ishida, Lisa Yadomaru, Cirucci Sanderwicci, Minimalist, Mayuri Shiina, Kensei Muguruma, Long Hair, Kiyone Kotetsu, Anime, Wabisuke Bleach, Kenpachi Zaraki, Yuzu Kurosaki, Keigo Asano, Kon Bleach, Emilou Apacci, Woman, Jinta Hanakari, Oshiro Sora, Yumichika Ayasegawa, Momo Hinamori, Hisagi Shuhei, Kisuke Urahara, Ulquiorra Cifer, Tatsuya Enomoto, Ikkaku Madarame, Shunsui Kyoraku, Lilynette Gingerback, Lonely, Sode no Shirayuki, Rukia Kuchiki, Ryusei Kenzaki, Sosuke Aizen, Kenpachi Kiganjo, Bleach, Senbonzakura Bleach, Luppi Antenor, Izuru Kira, Boy, Bankai, Wonderweiss Margela, Kugo Ginjo, Bleach 2, Tesra Lundocruz, Dark, Sad, Tobiume Bleach, Hollow Ichigo, Zommari Rureaux, Ponytail, Hanataro Yamada, Kazeshini Bleach, Ichika Abarai, Ururu Tsumugiya, Chizuru Honshou, Kuroudo Bleach, Dondochakka Birstanne, Barragan Luisenbarn, Sado Yasutora, Genryusai Shigekuni Yamamoto, Jugram Haschwalth, Short Hair, Soifon Bleach, Marechiyo Omaeda, Katana, Rudbornn Chelute, Urara Shiraishi, Karin Kurosaki, Flower, Dress, Brown Eyes, Gin Ichimaru, Jushiro Ukitake, Hyorinmaru Bleach, Nanao Ise, Romantic, Sunset, Blue Hair, Nel Tu, Fight, Alone, Love Aikawa",
    "description": "Bleach 2",
    "link_thumb": "https://live.staticflickr.com/65535/40939407283_8a2dd3c770_n.jpg",
    "id_album": "-1790635952",
    "total_view": 380
  },
  {
    "total_img": 92,
    "number_page": 1,
    "title": "Byakuya Kuchiki",
    "tag": "Byakuya Kuchiki,",
    "description": "Byakuya Kuchiki",
    "link_thumb": "https://live.staticflickr.com/65535/47955783298_44b584048e_n.jpg",
    "id_album": "1590143847",
    "total_view": 92
  },
  {
    "total_img": 46,
    "number_page": 1,
    "title": "Gin Ichimaru",
    "tag": "Gin Ichimaru,",
    "description": "Gin Ichimaru",
    "link_thumb": "https://live.staticflickr.com/65535/47856417412_6db19f9acf_n.jpg",
    "id_album": "-1526617002",
    "total_view": 46
  },
  {
    "total_img": 12,
    "number_page": 1,
    "title": "Hanataro Yamada",
    "tag": "Hanataro Yamada,",
    "description": "Hanataro Yamada",
    "link_thumb": "https://live.staticflickr.com/65535/47855467062_1550165326_n.jpg",
    "id_album": "-1444248225",
    "total_view": 12
  },
  {
    "total_img": 15,
    "number_page": 1,
    "title": "Hisagi Shuhei",
    "tag": "Hisagi Shuhei,",
    "description": "Hisagi Shuhei",
    "link_thumb": "https://live.staticflickr.com/65535/47856417412_6db19f9acf_n.jpg",
    "id_album": "412849688",
    "total_view": 15
  },
  {
    "total_img": 23,
    "number_page": 1,
    "title": "Ikkaku Madarame",
    "tag": "Ikkaku Madarame,",
    "description": "Ikkaku Madarame",
    "link_thumb": "https://live.staticflickr.com/65535/47118948594_e245411729_n.jpg",
    "id_album": "1951758432",
    "total_view": 23
  },
  {
    "total_img": 10,
    "number_page": 1,
    "title": "Izuru Kira",
    "tag": "Izuru Kira,",
    "description": "Izuru Kira",
    "link_thumb": "https://live.staticflickr.com/65535/47856417412_6db19f9acf_n.jpg",
    "id_album": "-1264215812",
    "total_view": 10
  },
  {
    "total_img": 19,
    "number_page": 1,
    "title": "Kaname Tosen",
    "tag": "Kaname Tosen,",
    "description": "Kaname Tosen",
    "link_thumb": "https://live.staticflickr.com/65535/46991747625_8243d3d915_n.jpg",
    "id_album": "-1884408928",
    "total_view": 19
  },
  {
    "total_img": 3,
    "number_page": 1,
    "title": "Kuukaku Shiba",
    "tag": "Kuukaku Shiba,",
    "description": "Kuukaku Shiba",
    "link_thumb": "https://live.staticflickr.com/65535/47855467062_1550165326_n.jpg",
    "id_album": "-2093927809",
    "total_view": 3
  },
  {
    "total_img": 79,
    "number_page": 1,
    "title": "Orihime Inoue",
    "tag": "Orihime Inoue,",
    "description": "Orihime Inoue",
    "link_thumb": "https://live.staticflickr.com/65535/47961148023_a0b7ec68ee_n.jpg",
    "id_album": "-1508150147",
    "total_view": 79
  },
  {
    "total_img": 14,
    "number_page": 1,
    "title": "Rangiku Matsumoto",
    "tag": "Rangiku Matsumoto,",
    "description": "Rangiku Matsumoto",
    "link_thumb": "https://live.staticflickr.com/65535/47856417412_6db19f9acf_n.jpg",
    "id_album": "-1469179084",
    "total_view": 14
  },
  {
    "total_img": 93,
    "number_page": 1,
    "title": "Renji Abarai",
    "tag": "Renji Abarai,",
    "description": "Renji Abarai",
    "link_thumb": "https://live.staticflickr.com/65535/47955727468_01a7768d37_n.jpg",
    "id_album": "-1599042240",
    "total_view": 93
  },
  {
    "total_img": 18,
    "number_page": 1,
    "title": "Shunsui Kyoraku",
    "tag": "Shunsui Kyoraku,",
    "description": "Shunsui Kyoraku",
    "link_thumb": "https://live.staticflickr.com/65535/47856417412_6db19f9acf_n.jpg",
    "id_album": "1063932302",
    "total_view": 18
  },
  {
    "total_img": 27,
    "number_page": 1,
    "title": "Soifon Bleach",
    "tag": "Soifon Bleach,",
    "description": "Soifon Bleach",
    "link_thumb": "https://live.staticflickr.com/65535/46991747625_8243d3d915_n.jpg",
    "id_album": "2054132830",
    "total_view": 27
  },
  {
    "total_img": 142,
    "number_page": 1,
    "title": "Toshiro Hitsugaya",
    "tag": "Toshiro Hitsugaya,",
    "description": "Toshiro Hitsugaya",
    "link_thumb": "https://live.staticflickr.com/65535/47955727983_5c4fe137ec_n.jpg",
    "id_album": "-2040459734",
    "total_view": 142
  },
  {
    "total_img": 9,
    "number_page": 1,
    "title": "Unohana Retsu",
    "tag": "Unohana Retsu,",
    "description": "Unohana Retsu",
    "link_thumb": "https://live.staticflickr.com/65535/47856404642_6a8ce9f99c_n.jpg",
    "id_album": "-1341389710",
    "total_view": 9
  },
  {
    "total_img": 48,
    "number_page": 1,
    "title": "Uryu Ishida",
    "tag": "Uryu Ishida,",
    "description": "Uryu Ishida",
    "link_thumb": "https://live.staticflickr.com/65535/47960489851_8f806ab4ca_n.jpg",
    "id_album": "585342595",
    "total_view": 48
  },
  {
    "total_img": 16,
    "number_page": 1,
    "title": "Yachiru Kusajishi",
    "tag": "Yachiru Kusajishi,",
    "description": "Yachiru Kusajishi",
    "link_thumb": "https://live.staticflickr.com/65535/47856417412_6db19f9acf_n.jpg",
    "id_album": "2058135360",
    "total_view": 16
  },
  {
    "total_img": 39,
    "number_page": 1,
    "title": "Yasutora Sado",
    "tag": "Yasutora Sado,",
    "description": "Yasutora Sado",
    "link_thumb": "https://live.staticflickr.com/65535/47908262681_3c185b5837_n.jpg",
    "id_album": "1197153116",
    "total_view": 39
  },
  {
    "total_img": 23,
    "number_page": 1,
    "title": "Yoruichi Shihoin",
    "tag": "Yoruichi Shihoin,",
    "description": "Yoruichi Shihoin",
    "link_thumb": "https://live.staticflickr.com/65535/47856417412_6db19f9acf_n.jpg",
    "id_album": "587251103",
    "total_view": 23
  },
  {
    "total_img": 6,
    "number_page": 1,
    "title": "Yumichika Ayasegawa",
    "tag": "Yumichika Ayasegawa,",
    "description": "Yumichika Ayasegawa",
    "link_thumb": "https://live.staticflickr.com/65535/47855467062_1550165326_n.jpg",
    "id_album": "-938338681",
    "total_view": 6
  }
]