[
  {
    "total_img": 331,
    "number_page": 2,
    "title": "ReZERO Starting Life in Another World",
    "tag": "Sky, Water, Chin ReZERO, Wilhelm van Astrea, Black Hair, Birthday, Crying, Pack ReZERO, Frederica Baumann, Weapon, Schoolgirl, Sword, Fortuna ReZero, Ribbon, White Hair, Bikini, Horns, Braid, Vector, Ram ReZERO, Purple Eyes, Glove, Garfiel Tinsel, Scarf, Reflection, Chibi, Witch Hat, Black Dress, Mild ReZero, Smile, Red Hair, Aqua Eyes, Card, Skirt, Blush, Belt, Rem ReZERO, Bunny Ears, Animal, Subaru Natsuki, Petelgeuse RomaneeConti, Chain, Kan ReZERO, Heitarou Pearlbaton, White Dress, Aldebaran ReZERO, Omega ReZERO, Simple, Julius Juukulius, Otto Suwen, Face, Armchair, Echidna ReZERO, Warrior, Brown Hair, Mushroom, Patrasche ReZERO, Headband, Pink Hair, KON, Hetaro Pearlbaton, Gift, Blue Eyes, Crown, Wedding, Roswaal L Mathers, Emilia ReZERO, Anastasia Hoshin, Grey Eyes, Hat, Priscilla Barielle, Animal Ears, Halloween, Elf, ReZERO Starting Life in Another World, Theresia van Astrea, Lucas ReZero, Night, Snow, Yellow Dress, Pumpkin, Minimalist, Hatsune Miku, Fourier Lugnica, Rom ReZero, Elsa Granhiert, Wedding Dress, Long Hair, Thigh Highs, Felix Argyle, Anime, Dine ReZero, Headdress, Purple Hair, Tea Cup, Tivey Pearlbaton, Vocaloid, Yellow Eyes, Sakura, Boy, Red Eyes, Aqua Hair, Love, Cat, Rem Death Note, Satella ReZero, Twins, Ricardo Welkin, Crystal, Santa Hat, Orange Eyes, Felt ReZERO, Butterfly, Bird, Sitting, Socks, Mimi Pearlbaton, Blonde, Petra Leyte, Rainbow, bow Clothing, Cain ReZero, Crusch Karsten, Short Hair, Hug, White Whale ReZERO, Flower, Dress, Beatrice ReZERO, Reinhard van Astrea, Meina ReZero, Magic, Pink Eyes, Maid, School Uniform, Sunset, Blue Hair, Pointed Ears, Sleeping, Cloud, Blossom, Petal, Tears",
    "description": "ReZERO Starting Life in Another World",
    "link_thumb": "https://live.staticflickr.com/65535/48053093006_c59c3057a8_n.jpg",
    "id_album": "-1989155958",
    "total_view": 331
  },
  {
    "total_img": 959,
    "number_page": 5,
    "title": "Blue Eyes",
    "tag": "Blue Eyes,",
    "description": "Blue Eyes",
    "link_thumb": "https://live.staticflickr.com/65535/48609891276_d6beb9cf73_n.jpg",
    "id_album": "737375568",
    "total_view": 959
  },
  {
    "total_img": 321,
    "number_page": 2,
    "title": "Blue Hair",
    "tag": "Blue Hair,",
    "description": "Blue Hair",
    "link_thumb": "https://live.staticflickr.com/65535/48066963397_8bc256f64f_n.jpg",
    "id_album": "-1193928153",
    "total_view": 321
  },
  {
    "total_img": 22,
    "number_page": 1,
    "title": "Chain",
    "tag": "Chain,",
    "description": "Chain",
    "link_thumb": "https://live.staticflickr.com/65535/48064187561_d6de2ba663_n.jpg",
    "id_album": "-787043502",
    "total_view": 22
  },
  {
    "total_img": 45,
    "number_page": 1,
    "title": "Headdress",
    "tag": "Headdress,",
    "description": "Headdress",
    "link_thumb": "https://live.staticflickr.com/65535/48066945096_efda4835b6_n.jpg",
    "id_album": "-1959662950",
    "total_view": 45
  },
  {
    "total_img": 58,
    "number_page": 1,
    "title": "Maid",
    "tag": "Maid,",
    "description": "Maid",
    "link_thumb": "https://live.staticflickr.com/65535/48065827812_6256f8d70e_n.jpg",
    "id_album": "75778608",
    "total_view": 58
  },
  {
    "total_img": 92,
    "number_page": 1,
    "title": "Ram ReZERO",
    "tag": "Ram ReZERO,",
    "description": "Ram ReZERO",
    "link_thumb": "https://live.staticflickr.com/65535/48053426901_fb7840e35d_n.jpg",
    "id_album": "-501162794",
    "total_view": 92
  },
  {
    "total_img": 516,
    "number_page": 3,
    "title": "Red Eyes",
    "tag": "Red Eyes,",
    "description": "Red Eyes",
    "link_thumb": "https://live.staticflickr.com/65535/48066240896_663ef2e035_n.jpg",
    "id_album": "55205818",
    "total_view": 516
  },
  {
    "total_img": 206,
    "number_page": 2,
    "title": "Rem ReZERO",
    "tag": "Rem ReZERO,",
    "description": "Rem ReZERO",
    "link_thumb": "https://live.staticflickr.com/65535/48053430306_03ce8c267c_n.jpg",
    "id_album": "-769860394",
    "total_view": 206
  },
  {
    "total_img": 900,
    "number_page": 5,
    "title": "Short Hair",
    "tag": "Short Hair,",
    "description": "Short Hair",
    "link_thumb": "https://live.staticflickr.com/65535/48066522393_1c85dd9992_n.jpg",
    "id_album": "1749242000",
    "total_view": 900
  },
  {
    "total_img": 11,
    "number_page": 1,
    "title": "Twins",
    "tag": "Twins,",
    "description": "Twins",
    "link_thumb": "https://live.staticflickr.com/65535/48065975592_a83847ce6c_n.jpg",
    "id_album": "50530432",
    "total_view": 11
  }
]