[
  {
    "link_thumb": "https://live.staticflickr.com/65535/47963148336_62340c654a_n.jpg",
    "id_album": "-535209729",
    "description": "DateALive_735972",
    "title": "DateALive_735972",
    "link_img": "https://live.staticflickr.com/65535/47963148336_c9d413d915_o.jpg",
    "id_image": "DateALive_735972",
    "count_view": 0
  },
  {
    "link_thumb": "https://live.staticflickr.com/65535/47963122163_580270421f_n.jpg",
    "id_album": "-535209729",
    "description": "DateALive_735977",
    "title": "DateALive_735977",
    "link_img": "https://live.staticflickr.com/65535/47963122163_0fbb7b56a9_o.jpg",
    "id_image": "DateALive_735977",
    "count_view": 0
  },
  {
    "link_thumb": "https://live.staticflickr.com/65535/47963177326_0fda88c4a5_n.jpg",
    "id_album": "-535209729",
    "description": "DateALive_800456",
    "title": "DateALive_800456",
    "link_img": "https://live.staticflickr.com/65535/47963177326_a64c50a956_o.jpg",
    "id_image": "DateALive_800456",
    "count_view": 0
  },
  {
    "link_thumb": "https://live.staticflickr.com/65535/47963178181_11bbccfb88_n.jpg",
    "id_album": "-535209729",
    "description": "DateALive_800459",
    "title": "DateALive_800459",
    "link_img": "https://live.staticflickr.com/65535/47963178181_b71e4f3d44_o.jpg",
    "id_image": "DateALive_800459",
    "count_view": 0
  }
]