[
  {
    "total_img": 52,
    "number_page": 1,
    "title": "Women",
    "tag": "Water, Get Backers, Pink Dress, Green Eyes, Snow, Black Hair, Summer, Black, Grass, Long Hair, Rain, Anime, Sword, Kimono, Redhead, Woman, Fighting Spirit, Women, Space, Gun, Cute, Log, Suitcase, Youmu Konpaku, Samurai, Alice Alice in Wonderland, Sea, Pink, Blush, Bunny Ears, Dark, Girls  Guns, Ponytail, Butterfly, Rabbit, Blonde, Wings, Japanese Clothes, Star, Crystal Ball, Yuri, Original Anime, Flower, Warrior, 88 Original Character, Dress, Magic, Pink Hair, KON, 5 Nenme no Houkago, CC Code Geass, Blue Eyes, Apple, Purple, Hourglass, Skull, Hat, Animal Ears",
    "description": "Women",
    "link_thumb": "https://live.staticflickr.com/65535/48066013561_ccdbcf2ae2_n.jpg",
    "id_album": "-1126835654",
    "total_view": 52
  },
  {
    "total_img": 86,
    "number_page": 1,
    "title": "Youmu Konpaku",
    "tag": "Youmu Konpaku,",
    "description": "Youmu Konpaku",
    "link_thumb": "https://live.staticflickr.com/65535/48066147072_dd756e6d31_n.jpg",
    "id_album": "-1040710799",
    "total_view": 86
  }
]