[
  {
    "link_thumb": "https://live.staticflickr.com/65535/51555698604_9323601932_n.jpg",
    "id_album": "-89234980",
    "description": "ANIME_PIC_befb869b091a75508f254d36cab60147,[GirlsCuteCool],[isGirlAnime],[isCuteAnime]",
    "title": "ANIME_PIC_befb869b091a75508f254d36cab60147",
    "link_img": "https://live.staticflickr.com/65535/51555698604_ba459a68c3_o.jpg",
    "id_image": "ANIME_PIC_befb869b091a75508f254d36cab60147",
    "count_view": 0
  },
  {
    "link_thumb": "https://live.staticflickr.com/65535/51554976316_045618b58d_n.jpg",
    "id_album": "-89234980",
    "description": "ANIME_PIC_befbdac316d2664929f7dcc7afa43081,[GirlsCuteCool],[isGirlAnime],[isCuteAnime],[isGirlsHatsHoodieAnime],[isGirlsLoliAnime]",
    "title": "ANIME_PIC_befbdac316d2664929f7dcc7afa43081",
    "link_img": "https://live.staticflickr.com/65535/51554976316_755fd1c49b_o.png",
    "id_image": "ANIME_PIC_befbdac316d2664929f7dcc7afa43081",
    "count_view": 0
  },
  {
    "link_thumb": "https://live.staticflickr.com/65535/51555212408_a511bd49bd_n.jpg",
    "id_album": "-89234980",
    "description": "ANIME_PIC_befd58400fc3b7bd1cf50adf12c9403a,[GirlsCuteCool],[isGirlAnime],[isCuteAnime],[isGirlsHatsHoodieAnime],[isGirlsLoliAnime]",
    "title": "ANIME_PIC_befd58400fc3b7bd1cf50adf12c9403a",
    "link_img": "https://live.staticflickr.com/65535/51555212408_0df896ef0a_o.jpg",
    "id_image": "ANIME_PIC_befd58400fc3b7bd1cf50adf12c9403a",
    "count_view": 0
  },
  {
    "link_thumb": "https://live.staticflickr.com/65535/51554182492_5d53c80640_n.jpg",
    "id_album": "-89234980",
    "description": "ANIME_PIC_befdef62dfa97f324bad6717fb4dd849,[GirlsCuteCool],[isGirlAnime],[isCuteAnime],[isGirlsHatsHoodieAnime]",
    "title": "ANIME_PIC_befdef62dfa97f324bad6717fb4dd849",
    "link_img": "https://live.staticflickr.com/65535/51554182492_bfe8557a55_o.jpg",
    "id_image": "ANIME_PIC_befdef62dfa97f324bad6717fb4dd849",
    "count_view": 0
  },
  {
    "link_thumb": "https://live.staticflickr.com/65535/51554977541_5bfd8323ca_n.jpg",
    "id_album": "-89234980",
    "description": "ANIME_PIC_befe67777e99a850cb7092d8bd2be3cc,[GirlsCuteCool],[isGirlAnime],[isCuteAnime],[isGirlsLoliAnime]",
    "title": "ANIME_PIC_befe67777e99a850cb7092d8bd2be3cc",
    "link_img": "https://live.staticflickr.com/65535/51554977541_6357b690ba_o.jpg",
    "id_image": "ANIME_PIC_befe67777e99a850cb7092d8bd2be3cc",
    "count_view": 0
  },
  {
    "link_thumb": "https://live.staticflickr.com/65535/51554183082_b49fcd74f9_n.jpg",
    "id_album": "-89234980",
    "description": "ANIME_PIC_beffbd77511f43dcd22ba5071fee9479,[GirlsCuteCool],[isGirlAnime],[isCuteAnime],[isGirlsLoliAnime]",
    "title": "ANIME_PIC_beffbd77511f43dcd22ba5071fee9479",
    "link_img": "https://live.staticflickr.com/65535/51554183082_5412c38e1b_o.jpg",
    "id_image": "ANIME_PIC_beffbd77511f43dcd22ba5071fee9479",
    "count_view": 0
  },
  {
    "link_thumb": "https://live.staticflickr.com/65535/51555897885_26ca1c7a94_n.jpg",
    "id_album": "-89234980",
    "description": "ANIME_PIC_bf00dc0abc8a2b55ae3f18523c0ea78e,[GirlsCuteCool],[isGirlAnime],[isCuteAnime],[isGirlsHatsHoodieAnime],[isSadAnimeGirl],[isSadAnime]",
    "title": "ANIME_PIC_bf00dc0abc8a2b55ae3f18523c0ea78e",
    "link_img": "https://live.staticflickr.com/65535/51555897885_123457cbb5_o.png",
    "id_image": "ANIME_PIC_bf00dc0abc8a2b55ae3f18523c0ea78e",
    "count_view": 0
  },
  {
    "link_thumb": "https://live.staticflickr.com/65535/51554978841_4af03c77a0_n.jpg",
    "id_album": "-89234980",
    "description": "ANIME_PIC_bf01f5674d9400906cf01482b5e14f7b,[GirlsCuteCool],[isGirlAnime],[isCuteAnime],[isGirlsLoliAnime],[isSadAnimeGirl],[isSadAnime]",
    "title": "ANIME_PIC_bf01f5674d9400906cf01482b5e14f7b",
    "link_img": "https://live.staticflickr.com/65535/51554978841_c8c2d5c669_o.png",
    "id_image": "ANIME_PIC_bf01f5674d9400906cf01482b5e14f7b",
    "count_view": 0
  },
  {
    "link_thumb": "https://live.staticflickr.com/65535/51555701709_fdba5a6305_n.jpg",
    "id_album": "-89234980",
    "description": "ANIME_PIC_bf0274c5aced4076ea7b14e96c4a4424,[GirlsCuteCool],[isGirlAnime],[isCuteAnime],[isGirlsLoliAnime],[isSadAnimeGirl],[isSadAnime]",
    "title": "ANIME_PIC_bf0274c5aced4076ea7b14e96c4a4424",
    "link_img": "https://live.staticflickr.com/65535/51555701709_a66391d23d_o.jpg",
    "id_image": "ANIME_PIC_bf0274c5aced4076ea7b14e96c4a4424",
    "count_view": 0
  },
  {
    "link_thumb": "https://live.staticflickr.com/65535/51554979406_516043cdcf_n.jpg",
    "id_album": "-89234980",
    "description": "ANIME_PIC_bf076c6e45d88f11130971b660f0f2e5,[GirlsCuteCool],[isGirlAnime],[isCuteAnime],[isGirlEarsNekoAnime],[isGirlsHatsHoodieAnime],[isGirlsHornsAnime],[isGirlsLoliAnime]",
    "title": "ANIME_PIC_bf076c6e45d88f11130971b660f0f2e5",
    "link_img": "https://live.staticflickr.com/65535/51554979406_b412853fe3_o.jpg",
    "id_image": "ANIME_PIC_bf076c6e45d88f11130971b660f0f2e5",
    "count_view": 0
  },
  {
    "link_thumb": "https://live.staticflickr.com/65535/51555702154_e0e1967f03_n.jpg",
    "id_album": "-89234980",
    "description": "ANIME_PIC_bf08e2868e7349b131f47329ce649bc5,[GirlsCuteCool],[isGirlAnime],[isCuteAnime],[isGirlsLoliAnime]",
    "title": "ANIME_PIC_bf08e2868e7349b131f47329ce649bc5",
    "link_img": "https://live.staticflickr.com/65535/51555702154_829b95a3a8_o.png",
    "id_image": "ANIME_PIC_bf08e2868e7349b131f47329ce649bc5",
    "count_view": 0
  },
  {
    "link_thumb": "https://live.staticflickr.com/65535/51554185082_76aeb10065_n.jpg",
    "id_album": "-89234980",
    "description": "ANIME_PIC_bf0abfb4993b33f0befc2bcec770cf06,[GirlsCuteCool],[isGirlAnime],[isCuteAnime],[isGirlsLoliAnime]",
    "title": "ANIME_PIC_bf0abfb4993b33f0befc2bcec770cf06",
    "link_img": "https://live.staticflickr.com/65535/51554185082_decac08972_o.png",
    "id_image": "ANIME_PIC_bf0abfb4993b33f0befc2bcec770cf06",
    "count_view": 0
  },
  {
    "link_thumb": "https://live.staticflickr.com/65535/51554185547_e469206bb7_n.jpg",
    "id_album": "-89234980",
    "description": "ANIME_PIC_bf0be88d76a1b98ffa1b6794f57a1d10,[GirlsCuteCool],[isGirlAnime],[isCuteAnime],[isGirlsLoliAnime]",
    "title": "ANIME_PIC_bf0be88d76a1b98ffa1b6794f57a1d10",
    "link_img": "https://live.staticflickr.com/65535/51554185547_bdae7234c7_o.jpg",
    "id_image": "ANIME_PIC_bf0be88d76a1b98ffa1b6794f57a1d10",
    "count_view": 0
  },
  {
    "link_thumb": "https://live.staticflickr.com/65535/51554185847_5626ce1b4b_n.jpg",
    "id_album": "-89234980",
    "description": "ANIME_PIC_bf0dc4d67d509f35177a477fa2c6d0ed,[GirlsCuteCool],[isGirlAnime],[isCuteAnime],[isGirlsLoliAnime],[isSadAnimeGirl],[isSadAnime]",
    "title": "ANIME_PIC_bf0dc4d67d509f35177a477fa2c6d0ed",
    "link_img": "https://live.staticflickr.com/65535/51554185847_aae40bc3ab_o.png",
    "id_image": "ANIME_PIC_bf0dc4d67d509f35177a477fa2c6d0ed",
    "count_view": 0
  },
  {
    "link_thumb": "https://live.staticflickr.com/65535/51555216498_798e3710a2_n.jpg",
    "id_album": "-89234980",
    "description": "ANIME_PIC_bf116fd38b459a4812bab4af108f6ed8,[GirlsCuteCool],[isGirlAnime],[isCuteAnime],[isGirlEarsNekoAnime],[isGirlsLoliAnime]",
    "title": "ANIME_PIC_bf116fd38b459a4812bab4af108f6ed8",
    "link_img": "https://live.staticflickr.com/65535/51555216498_596d72de37_o.jpg",
    "id_image": "ANIME_PIC_bf116fd38b459a4812bab4af108f6ed8",
    "count_view": 0
  },
  {
    "link_thumb": "https://live.staticflickr.com/65535/51555900895_11c6ce0aa1_n.jpg",
    "id_album": "-89234980",
    "description": "ANIME_PIC_bf15a3d44fe8f92e5fadecfe73dc3bca,[GirlsCuteCool],[isGirlAnime],[isCuteAnime],[isGirlsHatsHoodieAnime]",
    "title": "ANIME_PIC_bf15a3d44fe8f92e5fadecfe73dc3bca",
    "link_img": "https://live.staticflickr.com/65535/51555900895_1a83a7514d_o.png",
    "id_image": "ANIME_PIC_bf15a3d44fe8f92e5fadecfe73dc3bca",
    "count_view": 0
  },
  {
    "link_thumb": "https://live.staticflickr.com/65535/51554186847_f91aaa8780_n.jpg",
    "id_album": "-89234980",
    "description": "ANIME_PIC_bf15a4dc513299c53f9e5e43c6e48653,[GirlsCuteCool],[isGirlAnime],[isCuteAnime],[isGirlsHatsHoodieAnime],[isGirlsLoliAnime]",
    "title": "ANIME_PIC_bf15a4dc513299c53f9e5e43c6e48653",
    "link_img": "https://live.staticflickr.com/65535/51554186847_583b797611_o.png",
    "id_image": "ANIME_PIC_bf15a4dc513299c53f9e5e43c6e48653",
    "count_view": 0
  },
  {
    "link_thumb": "https://live.staticflickr.com/65535/51554982251_fa67a04d0a_n.jpg",
    "id_album": "-89234980",
    "description": "ANIME_PIC_bf15c590cddfd3d464ac5ece1565ca1c,[GirlsCuteCool],[isGirlAnime],[isCuteAnime],[isGirlsLoliAnime]",
    "title": "ANIME_PIC_bf15c590cddfd3d464ac5ece1565ca1c",
    "link_img": "https://live.staticflickr.com/65535/51554982251_fcfb9b662e_o.png",
    "id_image": "ANIME_PIC_bf15c590cddfd3d464ac5ece1565ca1c",
    "count_view": 0
  },
  {
    "link_thumb": "https://live.staticflickr.com/65535/51554982731_f007e77f03_n.jpg",
    "id_album": "-89234980",
    "description": "ANIME_PIC_bf1785ebcb2bd6085fcc7a301ec674dc,[GirlsCuteCool],[isGirlAnime],[isCuteAnime]",
    "title": "ANIME_PIC_bf1785ebcb2bd6085fcc7a301ec674dc",
    "link_img": "https://live.staticflickr.com/65535/51554982731_070be0a584_o.png",
    "id_image": "ANIME_PIC_bf1785ebcb2bd6085fcc7a301ec674dc",
    "count_view": 0
  },
  {
    "link_thumb": "https://live.staticflickr.com/65535/51555705534_6a18082128_n.jpg",
    "id_album": "-89234980",
    "description": "ANIME_PIC_bf197b718df68df9b1a7c22c25594912,[GirlsCuteCool],[isGirlAnime],[isCuteAnime],[isGirlsHatsHoodieAnime]",
    "title": "ANIME_PIC_bf197b718df68df9b1a7c22c25594912",
    "link_img": "https://live.staticflickr.com/65535/51555705534_d0c04fec5f_o.jpg",
    "id_image": "ANIME_PIC_bf197b718df68df9b1a7c22c25594912",
    "count_view": 0
  },
  {
    "link_thumb": "https://live.staticflickr.com/65535/51554983351_2799b4ee13_n.jpg",
    "id_album": "-89234980",
    "description": "ANIME_PIC_bf1c06674c72e9ed71f18f52dd46e2bb,[GirlsCuteCool],[isGirlAnime],[isCuteAnime],[isGirlsHatsHoodieAnime]",
    "title": "ANIME_PIC_bf1c06674c72e9ed71f18f52dd46e2bb",
    "link_img": "https://live.staticflickr.com/65535/51554983351_9823b8bdb6_o.jpg",
    "id_image": "ANIME_PIC_bf1c06674c72e9ed71f18f52dd46e2bb",
    "count_view": 0
  },
  {
    "link_thumb": "https://live.staticflickr.com/65535/51555218783_4b455d8a51_n.jpg",
    "id_album": "-89234980",
    "description": "ANIME_PIC_bf1d08afe0836ef3a07f68a430a66297,[GirlsCuteCool],[isGirlAnime],[isCuteAnime],[isGirlsLoliAnime]",
    "title": "ANIME_PIC_bf1d08afe0836ef3a07f68a430a66297",
    "link_img": "https://live.staticflickr.com/65535/51555218783_b92dd1a113_o.jpg",
    "id_image": "ANIME_PIC_bf1d08afe0836ef3a07f68a430a66297",
    "count_view": 0
  },
  {
    "link_thumb": "https://live.staticflickr.com/65535/51554188927_570d55e4c8_n.jpg",
    "id_album": "-89234980",
    "description": "ANIME_PIC_bf1d88655bc61ce0f6a6c24f4b4d72be,[GirlsCuteCool],[isGirlAnime],[isCuteAnime],[isGirlsLoliAnime]",
    "title": "ANIME_PIC_bf1d88655bc61ce0f6a6c24f4b4d72be",
    "link_img": "https://live.staticflickr.com/65535/51554188927_f86c31d001_o.jpg",
    "id_image": "ANIME_PIC_bf1d88655bc61ce0f6a6c24f4b4d72be",
    "count_view": 0
  },
  {
    "link_thumb": "https://live.staticflickr.com/65535/51554984086_6f30f9bd72_n.jpg",
    "id_album": "-89234980",
    "description": "ANIME_PIC_bf1e06deb8287816c83e6256cea766c0,[GirlsCuteCool],[isGirlAnime],[isCuteAnime],[isGirlsLoliAnime]",
    "title": "ANIME_PIC_bf1e06deb8287816c83e6256cea766c0",
    "link_img": "https://live.staticflickr.com/65535/51554984086_0dc898bbf3_o.jpg",
    "id_image": "ANIME_PIC_bf1e06deb8287816c83e6256cea766c0",
    "count_view": 0
  },
  {
    "link_thumb": "https://live.staticflickr.com/65535/51555707204_2321a11881_n.jpg",
    "id_album": "-89234980",
    "description": "ANIME_PIC_bf22e65b64d3f062cd1989134a225749,[GirlsCuteCool],[isGirlAnime],[isCuteAnime],[isSadAnimeGirl],[isSadAnime]",
    "title": "ANIME_PIC_bf22e65b64d3f062cd1989134a225749",
    "link_img": "https://live.staticflickr.com/65535/51555707204_a4d97bfca4_o.jpg",
    "id_image": "ANIME_PIC_bf22e65b64d3f062cd1989134a225749",
    "count_view": 0
  },
  {
    "link_thumb": "https://live.staticflickr.com/65535/51554189922_67d4ab1882_n.jpg",
    "id_album": "-89234980",
    "description": "ANIME_PIC_bf27a5e2d89f3af9767203a170d5f4e3,[GirlsCuteCool],[isGirlAnime],[isCuteAnime],[isBlackAnime],[isGirlsHatsHoodieAnime],[isGirlsLoliAnime]",
    "title": "ANIME_PIC_bf27a5e2d89f3af9767203a170d5f4e3",
    "link_img": "https://live.staticflickr.com/65535/51554189922_d1d2d86baa_o.jpg",
    "id_image": "ANIME_PIC_bf27a5e2d89f3af9767203a170d5f4e3",
    "count_view": 0
  },
  {
    "link_thumb": "https://live.staticflickr.com/65535/51555904720_340b4b8e8e_n.jpg",
    "id_album": "-89234980",
    "description": "ANIME_PIC_bf2c15457456188cecd409538dcbbbb9,[GirlsCuteCool],[isGirlAnime],[isCuteAnime],[isGirlsLoliAnime]",
    "title": "ANIME_PIC_bf2c15457456188cecd409538dcbbbb9",
    "link_img": "https://live.staticflickr.com/65535/51555904720_4d313be2a8_o.jpg",
    "id_image": "ANIME_PIC_bf2c15457456188cecd409538dcbbbb9",
    "count_view": 0
  },
  {
    "link_thumb": "https://live.staticflickr.com/65535/51555905010_ca461be621_n.jpg",
    "id_album": "-89234980",
    "description": "ANIME_PIC_bf2da34b2f2cf23a5c97f9a20a3bc6df,[GirlsCuteCool],[isGirlAnime],[isCuteAnime],[isGirlsLoliAnime],[isSadAnimeGirl],[isSadAnime]",
    "title": "ANIME_PIC_bf2da34b2f2cf23a5c97f9a20a3bc6df",
    "link_img": "https://live.staticflickr.com/65535/51555905010_d41e9df1a6_o.jpg",
    "id_image": "ANIME_PIC_bf2da34b2f2cf23a5c97f9a20a3bc6df",
    "count_view": 0
  },
  {
    "link_thumb": "https://live.staticflickr.com/65535/51554985741_98807ed622_n.jpg",
    "id_album": "-89234980",
    "description": "ANIME_PIC_bf34ca01b97de552fc498b3b0320f462,[GirlsCuteCool],[isGirlAnime],[isCuteAnime],[isGirlsLoliAnime],[isGirlsSharpCanineToothAnime]",
    "title": "ANIME_PIC_bf34ca01b97de552fc498b3b0320f462",
    "link_img": "https://live.staticflickr.com/65535/51554985741_aef2282520_o.jpg",
    "id_image": "ANIME_PIC_bf34ca01b97de552fc498b3b0320f462",
    "count_view": 0
  },
  {
    "link_thumb": "https://live.staticflickr.com/65535/51555905600_df074efaaa_n.jpg",
    "id_album": "-89234980",
    "description": "ANIME_PIC_bf377e01bfc55601ab4a8674f2ed2f3c,[GirlsCuteCool],[isGirlAnime],[isCuteAnime],[isGirlsLoliAnime]",
    "title": "ANIME_PIC_bf377e01bfc55601ab4a8674f2ed2f3c",
    "link_img": "https://live.staticflickr.com/65535/51555905600_0436900010_o.jpg",
    "id_image": "ANIME_PIC_bf377e01bfc55601ab4a8674f2ed2f3c",
    "count_view": 0
  },
  {
    "link_thumb": "https://live.staticflickr.com/65535/51554191492_51934c3556_n.jpg",
    "id_album": "-89234980",
    "description": "ANIME_PIC_bf41522b12f726310a3718c13f8ad67f,[GirlsCuteCool],[isGirlAnime],[isCuteAnime],[isGirlsLoliAnime]",
    "title": "ANIME_PIC_bf41522b12f726310a3718c13f8ad67f",
    "link_img": "https://live.staticflickr.com/65535/51554191492_0d2b3731fb_o.jpg",
    "id_image": "ANIME_PIC_bf41522b12f726310a3718c13f8ad67f",
    "count_view": 0
  },
  {
    "link_thumb": "https://live.staticflickr.com/65535/51555222198_6ef3fd8a06_n.jpg",
    "id_album": "-89234980",
    "description": "ANIME_PIC_bf4258ee4d15cda3003af438cd6807ae,[GirlsCuteCool],[isGirlAnime],[isCuteAnime],[isGirlsLoliAnime]",
    "title": "ANIME_PIC_bf4258ee4d15cda3003af438cd6807ae",
    "link_img": "https://live.staticflickr.com/65535/51555222198_8c5cf38c2b_o.jpg",
    "id_image": "ANIME_PIC_bf4258ee4d15cda3003af438cd6807ae",
    "count_view": 0
  },
  {
    "link_thumb": "https://live.staticflickr.com/65535/51554986846_a8a947124b_n.jpg",
    "id_album": "-89234980",
    "description": "ANIME_PIC_bf4a52fb8996375a238a58509fc8ec02,[GirlsCuteCool],[isGirlAnime],[isCuteAnime]",
    "title": "ANIME_PIC_bf4a52fb8996375a238a58509fc8ec02",
    "link_img": "https://live.staticflickr.com/65535/51554986846_bb538593df_o.jpg",
    "id_image": "ANIME_PIC_bf4a52fb8996375a238a58509fc8ec02",
    "count_view": 0
  },
  {
    "link_thumb": "https://live.staticflickr.com/65535/51554192337_4c10129591_n.jpg",
    "id_album": "-89234980",
    "description": "ANIME_PIC_bf4ae04af87262641f848195ea5490db,[GirlsCuteCool],[isGirlAnime],[isCuteAnime],[isGirlsHatsHoodieAnime],[isGirlsLoliAnime],[isSadAnimeGirl],[isSadAnime]",
    "title": "ANIME_PIC_bf4ae04af87262641f848195ea5490db",
    "link_img": "https://live.staticflickr.com/65535/51554192337_8a13127091_o.png",
    "id_image": "ANIME_PIC_bf4ae04af87262641f848195ea5490db",
    "count_view": 0
  },
  {
    "link_thumb": "https://live.staticflickr.com/65535/51554192647_3128e847a7_n.jpg",
    "id_album": "-89234980",
    "description": "ANIME_PIC_bf529c155415fde55cc2ce687bc5b291,[GirlsCuteCool],[isGirlAnime],[isCuteAnime],[isGirlEarsNekoAnime],[isGirlsLoliAnime],[isSadAnimeGirl],[isSadAnime]",
    "title": "ANIME_PIC_bf529c155415fde55cc2ce687bc5b291",
    "link_img": "https://live.staticflickr.com/65535/51554192647_8f5706d8f5_o.jpg",
    "id_image": "ANIME_PIC_bf529c155415fde55cc2ce687bc5b291",
    "count_view": 0
  },
  {
    "link_thumb": "https://live.staticflickr.com/65535/51555907290_7ae64e665a_n.jpg",
    "id_album": "-89234980",
    "description": "ANIME_PIC_bf55e235c93ef231a1206cc8f12e4733,[GirlsCuteCool],[isGirlAnime],[isCuteAnime],[isGirlsLoliAnime]",
    "title": "ANIME_PIC_bf55e235c93ef231a1206cc8f12e4733",
    "link_img": "https://live.staticflickr.com/65535/51555907290_ecb6be76a2_o.png",
    "id_image": "ANIME_PIC_bf55e235c93ef231a1206cc8f12e4733",
    "count_view": 0
  },
  {
    "link_thumb": "https://live.staticflickr.com/65535/51555223638_45d825d877_n.jpg",
    "id_album": "-89234980",
    "description": "ANIME_PIC_bf55f66155f78104b297b554121eca59,[GirlsCuteCool],[isGirlAnime],[isCuteAnime],[isGirlsLoliAnime]",
    "title": "ANIME_PIC_bf55f66155f78104b297b554121eca59",
    "link_img": "https://live.staticflickr.com/65535/51555223638_f2c8d25d28_o.png",
    "id_image": "ANIME_PIC_bf55f66155f78104b297b554121eca59",
    "count_view": 0
  },
  {
    "link_thumb": "https://live.staticflickr.com/65535/51554193627_7f03e0c51d_n.jpg",
    "id_album": "-89234980",
    "description": "ANIME_PIC_bf5787b3a33dfea5d1a1a6b5854ef935,[GirlsCuteCool],[isGirlAnime],[isCuteAnime],[isGirlsHatsHoodieAnime]",
    "title": "ANIME_PIC_bf5787b3a33dfea5d1a1a6b5854ef935",
    "link_img": "https://live.staticflickr.com/65535/51554193627_8e3fac5fdc_o.jpg",
    "id_image": "ANIME_PIC_bf5787b3a33dfea5d1a1a6b5854ef935",
    "count_view": 0
  },
  {
    "link_thumb": "https://live.staticflickr.com/65535/51555908290_b8732c2efc_n.jpg",
    "id_album": "-89234980",
    "description": "ANIME_PIC_bf58aab94a0e98fc80ca114aea13f9e4,[GirlsCuteCool],[isGirlAnime],[isCuteAnime],[isGirlEarsNekoAnime],[isGirlsLoliAnime]",
    "title": "ANIME_PIC_bf58aab94a0e98fc80ca114aea13f9e4",
    "link_img": "https://live.staticflickr.com/65535/51555908290_b1f2c09ce2_o.jpg",
    "id_image": "ANIME_PIC_bf58aab94a0e98fc80ca114aea13f9e4",
    "count_view": 0
  },
  {
    "link_thumb": "https://live.staticflickr.com/65535/51554194262_0b393effd6_n.jpg",
    "id_album": "-89234980",
    "description": "ANIME_PIC_bf59995599cb77392014dfd6906ee1df,[GirlsCuteCool],[isGirlAnime],[isCuteAnime],[isGirlsHatsHoodieAnime],[isGirlsLoliAnime]",
    "title": "ANIME_PIC_bf59995599cb77392014dfd6906ee1df",
    "link_img": "https://live.staticflickr.com/65535/51554194262_86bd2df1ea_o.jpg",
    "id_image": "ANIME_PIC_bf59995599cb77392014dfd6906ee1df",
    "count_view": 0
  },
  {
    "link_thumb": "https://live.staticflickr.com/65535/51554194617_ef8fe15eb7_n.jpg",
    "id_album": "-89234980",
    "description": "ANIME_PIC_bf5a49516b5a3f77c007b7c8a4c67e64,[GirlsCuteCool],[isGirlAnime],[isCuteAnime],[isGirlsLoliAnime],[isSadAnimeGirl],[isSadAnime]",
    "title": "ANIME_PIC_bf5a49516b5a3f77c007b7c8a4c67e64",
    "link_img": "https://live.staticflickr.com/65535/51554194617_a0b12a824a_o.jpg",
    "id_image": "ANIME_PIC_bf5a49516b5a3f77c007b7c8a4c67e64",
    "count_view": 0
  },
  {
    "link_thumb": "https://live.staticflickr.com/65535/51555225178_d725378fb7_n.jpg",
    "id_album": "-89234980",
    "description": "ANIME_PIC_bf5a851135f3e2ce23fe228e890ef4eb,[GirlsCuteCool],[isGirlAnime],[isCuteAnime],[isGirlsHatsHoodieAnime]",
    "title": "ANIME_PIC_bf5a851135f3e2ce23fe228e890ef4eb",
    "link_img": "https://live.staticflickr.com/65535/51555225178_d7040f770b_o.jpg",
    "id_image": "ANIME_PIC_bf5a851135f3e2ce23fe228e890ef4eb",
    "count_view": 0
  },
  {
    "link_thumb": "https://live.staticflickr.com/65535/51554195227_1bfa485ced_n.jpg",
    "id_album": "-89234980",
    "description": "ANIME_PIC_bf5bc80dac73cfcbeea202cbda9a5968,[GirlsCuteCool],[isGirlAnime],[isCuteAnime],[isGirlsHatsHoodieAnime]",
    "title": "ANIME_PIC_bf5bc80dac73cfcbeea202cbda9a5968",
    "link_img": "https://live.staticflickr.com/65535/51554195227_12773fb3a7_o.jpg",
    "id_image": "ANIME_PIC_bf5bc80dac73cfcbeea202cbda9a5968",
    "count_view": 0
  },
  {
    "link_thumb": "https://live.staticflickr.com/65535/51555909755_1912ab64b5_n.jpg",
    "id_album": "-89234980",
    "description": "ANIME_PIC_bf5ca6fbc07bd6abb08105773c2aed50,[GirlsCuteCool],[isGirlAnime],[isCuteAnime],[isGirlsLoliAnime]",
    "title": "ANIME_PIC_bf5ca6fbc07bd6abb08105773c2aed50",
    "link_img": "https://live.staticflickr.com/65535/51555909755_bfa719e33e_o.png",
    "id_image": "ANIME_PIC_bf5ca6fbc07bd6abb08105773c2aed50",
    "count_view": 0
  },
  {
    "link_thumb": "https://live.staticflickr.com/65535/51554195772_f0c5d948d7_n.jpg",
    "id_album": "-89234980",
    "description": "ANIME_PIC_bf5eeb22f174c96e58fcb2a0f22a70a3,[GirlsCuteCool],[isGirlAnime],[isCuteAnime],[isGirlsLoliAnime],[isSadAnimeGirl],[isSadAnime]",
    "title": "ANIME_PIC_bf5eeb22f174c96e58fcb2a0f22a70a3",
    "link_img": "https://live.staticflickr.com/65535/51554195772_1d257ac776_o.jpg",
    "id_image": "ANIME_PIC_bf5eeb22f174c96e58fcb2a0f22a70a3",
    "count_view": 0
  },
  {
    "link_thumb": "https://live.staticflickr.com/65535/51554990936_1a29631a94_n.jpg",
    "id_album": "-89234980",
    "description": "ANIME_PIC_bf61189248d5ecc436066ee058a28809,[GirlsCuteCool],[isGirlAnime],[isCuteAnime],[isGirlsLoliAnime],[isSadAnimeGirl],[isSadAnime]",
    "title": "ANIME_PIC_bf61189248d5ecc436066ee058a28809",
    "link_img": "https://live.staticflickr.com/65535/51554990936_45ca7044e2_o.jpg",
    "id_image": "ANIME_PIC_bf61189248d5ecc436066ee058a28809",
    "count_view": 0
  },
  {
    "link_thumb": "https://live.staticflickr.com/65535/51555226543_70d896d537_n.jpg",
    "id_album": "-89234980",
    "description": "ANIME_PIC_bf61d8a201593f01c4bdc6a8f62de577,[GirlsCuteCool],[isGirlAnime],[isCuteAnime],[isGirlsHatsHoodieAnime],[isGirlsLoliAnime]",
    "title": "ANIME_PIC_bf61d8a201593f01c4bdc6a8f62de577",
    "link_img": "https://live.staticflickr.com/65535/51555226543_2e9ddb0e84_o.png",
    "id_image": "ANIME_PIC_bf61d8a201593f01c4bdc6a8f62de577",
    "count_view": 0
  },
  {
    "link_thumb": "https://live.staticflickr.com/65535/51555226913_772eba142b_n.jpg",
    "id_album": "-89234980",
    "description": "ANIME_PIC_bf6759da8a8b5b07d16c604b679ac3e9,[GirlsCuteCool],[isGirlAnime],[isCuteAnime],[isGirlsLoliAnime]",
    "title": "ANIME_PIC_bf6759da8a8b5b07d16c604b679ac3e9",
    "link_img": "https://live.staticflickr.com/65535/51555226913_6dccb6fb24_o.jpg",
    "id_image": "ANIME_PIC_bf6759da8a8b5b07d16c604b679ac3e9",
    "count_view": 0
  },
  {
    "link_thumb": "https://live.staticflickr.com/65535/51555714669_afd4c42a8b_n.jpg",
    "id_album": "-89234980",
    "description": "ANIME_PIC_bf6a2a1126191ab3478bc5223be89a07,[GirlsCuteCool],[isGirlAnime],[isCuteAnime],[isSadAnimeGirl],[isSadAnime]",
    "title": "ANIME_PIC_bf6a2a1126191ab3478bc5223be89a07",
    "link_img": "https://live.staticflickr.com/65535/51555714669_7d41c4a718_o.png",
    "id_image": "ANIME_PIC_bf6a2a1126191ab3478bc5223be89a07",
    "count_view": 0
  },
  {
    "link_thumb": "https://live.staticflickr.com/65535/51555715004_bd292cd5f8_n.jpg",
    "id_album": "-89234980",
    "description": "ANIME_PIC_bf6b112754a2578453dc4e36b43f5c22,[GirlsCuteCool],[isGirlAnime],[isCuteAnime]",
    "title": "ANIME_PIC_bf6b112754a2578453dc4e36b43f5c22",
    "link_img": "https://live.staticflickr.com/65535/51555715004_e54a27db70_o.jpg",
    "id_image": "ANIME_PIC_bf6b112754a2578453dc4e36b43f5c22",
    "count_view": 0
  },
  {
    "link_thumb": "https://live.staticflickr.com/65535/51555227678_603994f640_n.jpg",
    "id_album": "-89234980",
    "description": "ANIME_PIC_bf6eccf6629609d21871c58be9899955,[GirlsCuteCool],[isGirlAnime],[isCuteAnime],[isGirlsLoliAnime],[isSadAnimeGirl],[isSadAnime]",
    "title": "ANIME_PIC_bf6eccf6629609d21871c58be9899955",
    "link_img": "https://live.staticflickr.com/65535/51555227678_8afbda2595_o.jpg",
    "id_image": "ANIME_PIC_bf6eccf6629609d21871c58be9899955",
    "count_view": 0
  },
  {
    "link_thumb": "https://live.staticflickr.com/65535/51555912135_7249ff3fa4_n.jpg",
    "id_album": "-89234980",
    "description": "ANIME_PIC_bf71c766cd8b0fc7a7d7958142e4510f,[GirlsCuteCool],[isGirlAnime],[isCuteAnime]",
    "title": "ANIME_PIC_bf71c766cd8b0fc7a7d7958142e4510f",
    "link_img": "https://live.staticflickr.com/65535/51555912135_e366fc22d8_o.jpg",
    "id_image": "ANIME_PIC_bf71c766cd8b0fc7a7d7958142e4510f",
    "count_view": 0
  },
  {
    "link_thumb": "https://live.staticflickr.com/65535/51554992966_044cfe38a5_n.jpg",
    "id_album": "-89234980",
    "description": "ANIME_PIC_bf72fdd051bd0792480d7e465c4c0546,[GirlsCuteCool],[isGirlAnime],[isCuteAnime],[isGirlsLoliAnime],[isSadAnimeGirl],[isSadAnime]",
    "title": "ANIME_PIC_bf72fdd051bd0792480d7e465c4c0546",
    "link_img": "https://live.staticflickr.com/65535/51554992966_410cd552fa_o.jpg",
    "id_image": "ANIME_PIC_bf72fdd051bd0792480d7e465c4c0546",
    "count_view": 0
  },
  {
    "link_thumb": "https://live.staticflickr.com/65535/51555228413_63c5e8c79c_n.jpg",
    "id_album": "-89234980",
    "description": "ANIME_PIC_bf7433b4de8b02c765094ca35d31bf8e,[GirlsCuteCool],[isGirlAnime],[isCuteAnime],[isGirlsLoliAnime]",
    "title": "ANIME_PIC_bf7433b4de8b02c765094ca35d31bf8e",
    "link_img": "https://live.staticflickr.com/65535/51555228413_eb0c4672ff_o.png",
    "id_image": "ANIME_PIC_bf7433b4de8b02c765094ca35d31bf8e",
    "count_view": 0
  },
  {
    "link_thumb": "https://live.staticflickr.com/65535/51555228788_45e5eaffa7_n.jpg",
    "id_album": "-89234980",
    "description": "ANIME_PIC_bf7a95b2ae76d7bca1bea59ecc4aec5e,[GirlsCuteCool],[isGirlAnime],[isCuteAnime]",
    "title": "ANIME_PIC_bf7a95b2ae76d7bca1bea59ecc4aec5e",
    "link_img": "https://live.staticflickr.com/65535/51555228788_9def293768_o.jpg",
    "id_image": "ANIME_PIC_bf7a95b2ae76d7bca1bea59ecc4aec5e",
    "count_view": 0
  },
  {
    "link_thumb": "https://live.staticflickr.com/65535/51555913405_bcdddfc813_n.jpg",
    "id_album": "-89234980",
    "description": "ANIME_PIC_bf7d3cf90eae3f858ec458be04953c86,[GirlsCuteCool],[isGirlAnime],[isCuteAnime],[isGirlEarsNekoAnime],[isGirlsLoliAnime]",
    "title": "ANIME_PIC_bf7d3cf90eae3f858ec458be04953c86",
    "link_img": "https://live.staticflickr.com/65535/51555913405_53665a6cda_o.jpg",
    "id_image": "ANIME_PIC_bf7d3cf90eae3f858ec458be04953c86",
    "count_view": 0
  },
  {
    "link_thumb": "https://live.staticflickr.com/65535/51554994341_ff1f74a1fc_n.jpg",
    "id_album": "-89234980",
    "description": "ANIME_PIC_bf7f676e3ddfa1984ba6c48f416b4e14,[GirlsCuteCool],[isGirlAnime],[isCuteAnime],[isGirlEarsNekoAnime],[isGirlsLoliAnime]",
    "title": "ANIME_PIC_bf7f676e3ddfa1984ba6c48f416b4e14",
    "link_img": "https://live.staticflickr.com/65535/51554994341_96de45d9d6_o.png",
    "id_image": "ANIME_PIC_bf7f676e3ddfa1984ba6c48f416b4e14",
    "count_view": 0
  },
  {
    "link_thumb": "https://live.staticflickr.com/65535/51555229628_607e350c23_n.jpg",
    "id_album": "-89234980",
    "description": "ANIME_PIC_bf8bc8a78b00b53ca4545e5518c6ec08,[GirlsCuteCool],[isGirlAnime],[isCuteAnime]",
    "title": "ANIME_PIC_bf8bc8a78b00b53ca4545e5518c6ec08",
    "link_img": "https://live.staticflickr.com/65535/51555229628_cd60caa102_o.jpg",
    "id_image": "ANIME_PIC_bf8bc8a78b00b53ca4545e5518c6ec08",
    "count_view": 0
  },
  {
    "link_thumb": "https://live.staticflickr.com/65535/51555229968_d1912b759b_n.jpg",
    "id_album": "-89234980",
    "description": "ANIME_PIC_bf90fc619edc9d602adf6d15b3c3474b,[GirlsCuteCool],[isGirlAnime],[isCuteAnime]",
    "title": "ANIME_PIC_bf90fc619edc9d602adf6d15b3c3474b",
    "link_img": "https://live.staticflickr.com/65535/51555229968_b02fa0bf64_o.jpg",
    "id_image": "ANIME_PIC_bf90fc619edc9d602adf6d15b3c3474b",
    "count_view": 0
  },
  {
    "link_thumb": "https://live.staticflickr.com/65535/51555914860_c802877d81_n.jpg",
    "id_album": "-89234980",
    "description": "ANIME_PIC_bf96510b7adb685d5708e36bca7cebea,[GirlsCuteCool],[isGirlAnime],[isCuteAnime],[isSadAnimeGirl],[isSadAnime]",
    "title": "ANIME_PIC_bf96510b7adb685d5708e36bca7cebea",
    "link_img": "https://live.staticflickr.com/65535/51555914860_b5a3826a5c_o.jpg",
    "id_image": "ANIME_PIC_bf96510b7adb685d5708e36bca7cebea",
    "count_view": 0
  },
  {
    "link_thumb": "https://live.staticflickr.com/65535/51555230493_24929108a6_n.jpg",
    "id_album": "-89234980",
    "description": "ANIME_PIC_bf97d4fe23ff24052b3cdfa33cfb5118,[GirlsCuteCool],[isGirlAnime],[isCuteAnime],[isGirlsHatsHoodieAnime],[isGirlsLoliAnime]",
    "title": "ANIME_PIC_bf97d4fe23ff24052b3cdfa33cfb5118",
    "link_img": "https://live.staticflickr.com/65535/51555230493_743b27392b_o.png",
    "id_image": "ANIME_PIC_bf97d4fe23ff24052b3cdfa33cfb5118",
    "count_view": 0
  },
  {
    "link_thumb": "https://live.staticflickr.com/65535/51554996151_8f6623917a_n.jpg",
    "id_album": "-89234980",
    "description": "ANIME_PIC_bf9ca9ceae3c0e8d23ede52fccacfdc7,[GirlsCuteCool],[isGirlAnime],[isCuteAnime],[isGirlsLoliAnime]",
    "title": "ANIME_PIC_bf9ca9ceae3c0e8d23ede52fccacfdc7",
    "link_img": "https://live.staticflickr.com/65535/51554996151_6222dc0165_o.jpg",
    "id_image": "ANIME_PIC_bf9ca9ceae3c0e8d23ede52fccacfdc7",
    "count_view": 0
  },
  {
    "link_thumb": "https://live.staticflickr.com/65535/51554201522_686ce656b8_n.jpg",
    "id_album": "-89234980",
    "description": "ANIME_PIC_bfa191e8c1f21f3daeb09a1ea8e0b307,[GirlsCuteCool],[isGirlAnime],[isCuteAnime]",
    "title": "ANIME_PIC_bfa191e8c1f21f3daeb09a1ea8e0b307",
    "link_img": "https://live.staticflickr.com/65535/51554201522_cb1d9acda5_o.jpg",
    "id_image": "ANIME_PIC_bfa191e8c1f21f3daeb09a1ea8e0b307",
    "count_view": 0
  },
  {
    "link_thumb": "https://live.staticflickr.com/65535/51554996666_0c97d2c27b_n.jpg",
    "id_album": "-89234980",
    "description": "ANIME_PIC_bfa430e40b72e3b83cf7e4bdbde126d9,[GirlsCuteCool],[isGirlAnime],[isCuteAnime]",
    "title": "ANIME_PIC_bfa430e40b72e3b83cf7e4bdbde126d9",
    "link_img": "https://live.staticflickr.com/65535/51554996666_386e2c7d1a_o.jpg",
    "id_image": "ANIME_PIC_bfa430e40b72e3b83cf7e4bdbde126d9",
    "count_view": 0
  },
  {
    "link_thumb": "https://live.staticflickr.com/65535/51555916500_3a5fafbf28_n.jpg",
    "id_album": "-89234980",
    "description": "ANIME_PIC_bfaa146fe4c09cd8935473a6b839eadb,[GirlsCuteCool],[isGirlAnime],[isCuteAnime]",
    "title": "ANIME_PIC_bfaa146fe4c09cd8935473a6b839eadb",
    "link_img": "https://live.staticflickr.com/65535/51555916500_95e32f2c4e_o.jpg",
    "id_image": "ANIME_PIC_bfaa146fe4c09cd8935473a6b839eadb",
    "count_view": 0
  },
  {
    "link_thumb": "https://live.staticflickr.com/65535/49805166918_518701d08c_n.jpg",
    "id_album": "-89234980",
    "description": "ANIME_PIC_bfb00a9654c09e52087c29c74f385332,[isGirlAnime],[isCuteAnime],[Girls Cute Cool],[GirlsCuteCool]",
    "title": "ANIME_PIC_bfb00a9654c09e52087c29c74f385332",
    "link_img": "https://live.staticflickr.com/65535/49805166918_997afe57a6_o.jpg",
    "id_image": "ANIME_PIC_bfb00a9654c09e52087c29c74f385332",
    "count_view": 0
  },
  {
    "link_thumb": "https://live.staticflickr.com/65535/51555916830_65d8cee271_n.jpg",
    "id_album": "-89234980",
    "description": "ANIME_PIC_bfb0af4d39a75b759a3163c36b976733,[GirlsCuteCool],[isGirlAnime],[isCuteAnime],[isGirlsLoliAnime],[isSadAnimeGirl],[isSadAnime]",
    "title": "ANIME_PIC_bfb0af4d39a75b759a3163c36b976733",
    "link_img": "https://live.staticflickr.com/65535/51555916830_276ee43d94_o.jpg",
    "id_image": "ANIME_PIC_bfb0af4d39a75b759a3163c36b976733",
    "count_view": 0
  },
  {
    "link_thumb": "https://live.staticflickr.com/65535/51554202712_6b0abd58fc_n.jpg",
    "id_album": "-89234980",
    "description": "ANIME_PIC_bfb27c23a9c613289173a039e6fbfb61,[GirlsCuteCool],[isGirlAnime],[isCuteAnime],[isGirlsLoliAnime]",
    "title": "ANIME_PIC_bfb27c23a9c613289173a039e6fbfb61",
    "link_img": "https://live.staticflickr.com/65535/51554202712_f6bea6ebf1_o.jpg",
    "id_image": "ANIME_PIC_bfb27c23a9c613289173a039e6fbfb61",
    "count_view": 0
  },
  {
    "link_thumb": "https://live.staticflickr.com/65535/51555232703_e5273d2756_n.jpg",
    "id_album": "-89234980",
    "description": "ANIME_PIC_bfb7fe6f35fcdd9f71d2da3fb0c1fc3e,[GirlsCuteCool],[isGirlAnime],[isCuteAnime],[isGirlsHatsHoodieAnime]",
    "title": "ANIME_PIC_bfb7fe6f35fcdd9f71d2da3fb0c1fc3e",
    "link_img": "https://live.staticflickr.com/65535/51555232703_f8f4ecd317_o.jpg",
    "id_image": "ANIME_PIC_bfb7fe6f35fcdd9f71d2da3fb0c1fc3e",
    "count_view": 0
  },
  {
    "link_thumb": "https://live.staticflickr.com/65535/51555232928_5584eddd73_n.jpg",
    "id_album": "-89234980",
    "description": "ANIME_PIC_bfbb5d93fe11cd9c465c28a66781d720,[GirlsCuteCool],[isGirlAnime],[isCuteAnime],[isGirlsLoliAnime]",
    "title": "ANIME_PIC_bfbb5d93fe11cd9c465c28a66781d720",
    "link_img": "https://live.staticflickr.com/65535/51555232928_0856f12d09_o.jpg",
    "id_image": "ANIME_PIC_bfbb5d93fe11cd9c465c28a66781d720",
    "count_view": 0
  },
  {
    "link_thumb": "https://live.staticflickr.com/65535/51554203407_02dc8418a3_n.jpg",
    "id_album": "-89234980",
    "description": "ANIME_PIC_bfc26a703094e90f4a5cb487968670c1,[GirlsCuteCool],[isGirlAnime],[isCuteAnime]",
    "title": "ANIME_PIC_bfc26a703094e90f4a5cb487968670c1",
    "link_img": "https://live.staticflickr.com/65535/51554203407_45eea6bd7f_o.jpg",
    "id_image": "ANIME_PIC_bfc26a703094e90f4a5cb487968670c1",
    "count_view": 0
  },
  {
    "link_thumb": "https://live.staticflickr.com/65535/51554203822_4d58b0eba8_n.jpg",
    "id_album": "-89234980",
    "description": "ANIME_PIC_bfc284e92cbc9c6e91ac9ef8a5f5e3b1,[GirlsCuteCool],[isGirlAnime],[isCuteAnime]",
    "title": "ANIME_PIC_bfc284e92cbc9c6e91ac9ef8a5f5e3b1",
    "link_img": "https://live.staticflickr.com/65535/51554203822_9b4137aece_o.jpg",
    "id_image": "ANIME_PIC_bfc284e92cbc9c6e91ac9ef8a5f5e3b1",
    "count_view": 0
  },
  {
    "link_thumb": "https://live.staticflickr.com/65535/51555721884_b0cffb62f2_n.jpg",
    "id_album": "-89234980",
    "description": "ANIME_PIC_bfc5878a6e18dbe93859887461cfe01c,[GirlsCuteCool],[isGirlAnime],[isCuteAnime]",
    "title": "ANIME_PIC_bfc5878a6e18dbe93859887461cfe01c",
    "link_img": "https://live.staticflickr.com/65535/51555721884_fb930865fe_o.jpg",
    "id_image": "ANIME_PIC_bfc5878a6e18dbe93859887461cfe01c",
    "count_view": 0
  },
  {
    "link_thumb": "https://live.staticflickr.com/65535/51555722069_d03c7063de_n.jpg",
    "id_album": "-89234980",
    "description": "ANIME_PIC_bfc8561e89b4ae3d505857bd6c304313,[GirlsCuteCool],[isGirlAnime],[isCuteAnime]",
    "title": "ANIME_PIC_bfc8561e89b4ae3d505857bd6c304313",
    "link_img": "https://live.staticflickr.com/65535/51555722069_9697468f69_o.jpg",
    "id_image": "ANIME_PIC_bfc8561e89b4ae3d505857bd6c304313",
    "count_view": 0
  },
  {
    "link_thumb": "https://live.staticflickr.com/65535/51555918700_93254b7404_n.jpg",
    "id_album": "-89234980",
    "description": "ANIME_PIC_bfc877ec327586d9adbc3e673f9ce805,[GirlsCuteCool],[isGirlAnime],[isCuteAnime],[isGirlsHatsHoodieAnime],[isGirlsLoliAnime]",
    "title": "ANIME_PIC_bfc877ec327586d9adbc3e673f9ce805",
    "link_img": "https://live.staticflickr.com/65535/51555918700_2507883abc_o.jpg",
    "id_image": "ANIME_PIC_bfc877ec327586d9adbc3e673f9ce805",
    "count_view": 0
  },
  {
    "link_thumb": "https://live.staticflickr.com/65535/51554999761_455fe2483d_n.jpg",
    "id_album": "-89234980",
    "description": "ANIME_PIC_bfcac9878aa9590b2b0a77c93f91fbae,[GirlsCuteCool],[isGirlAnime],[isCuteAnime],[isGirlsLoliAnime]",
    "title": "ANIME_PIC_bfcac9878aa9590b2b0a77c93f91fbae",
    "link_img": "https://live.staticflickr.com/65535/51554999761_9134e91ac5_o.jpg",
    "id_image": "ANIME_PIC_bfcac9878aa9590b2b0a77c93f91fbae",
    "count_view": 0
  },
  {
    "link_thumb": "https://live.staticflickr.com/65535/51555000081_8a44c7cbfd_n.jpg",
    "id_album": "-89234980",
    "description": "ANIME_PIC_bfd0e8f0384616e401e5058eb4d5a48c,[GirlsCuteCool],[isGirlAnime],[isCuteAnime],[isGirlsHatsHoodieAnime],[isGirlsLoliAnime]",
    "title": "ANIME_PIC_bfd0e8f0384616e401e5058eb4d5a48c",
    "link_img": "https://live.staticflickr.com/65535/51555000081_68bb941d6b_o.jpg",
    "id_image": "ANIME_PIC_bfd0e8f0384616e401e5058eb4d5a48c",
    "count_view": 0
  },
  {
    "link_thumb": "https://live.staticflickr.com/65535/51555919455_22de95cec3_n.jpg",
    "id_album": "-89234980",
    "description": "ANIME_PIC_bfd2e175ae52b6e99c2ad743360884f5,[GirlsCuteCool],[isGirlAnime],[isCuteAnime],[isGirlsLoliAnime],[isSadAnimeGirl],[isSadAnime]",
    "title": "ANIME_PIC_bfd2e175ae52b6e99c2ad743360884f5",
    "link_img": "https://live.staticflickr.com/65535/51555919455_a5407a4bbb_o.png",
    "id_image": "ANIME_PIC_bfd2e175ae52b6e99c2ad743360884f5",
    "count_view": 0
  },
  {
    "link_thumb": "https://live.staticflickr.com/65535/51555723659_f87e77dbaa_n.jpg",
    "id_album": "-89234980",
    "description": "ANIME_PIC_bfd53d3955c0b814b843b6919598fc43,[GirlsCuteCool],[isGirlAnime],[isCuteAnime],[isGirlsLoliAnime]",
    "title": "ANIME_PIC_bfd53d3955c0b814b843b6919598fc43",
    "link_img": "https://live.staticflickr.com/65535/51555723659_a6c21eb40e_o.jpg",
    "id_image": "ANIME_PIC_bfd53d3955c0b814b843b6919598fc43",
    "count_view": 0
  },
  {
    "link_thumb": "https://live.staticflickr.com/65535/51554206082_32deef6d26_n.jpg",
    "id_album": "-89234980",
    "description": "ANIME_PIC_bfd6c3eb305ef1e35400bf5f7403ef06,[GirlsCuteCool],[isGirlAnime],[isCuteAnime]",
    "title": "ANIME_PIC_bfd6c3eb305ef1e35400bf5f7403ef06",
    "link_img": "https://live.staticflickr.com/65535/51554206082_e609e1cce2_o.png",
    "id_image": "ANIME_PIC_bfd6c3eb305ef1e35400bf5f7403ef06",
    "count_view": 0
  },
  {
    "link_thumb": "https://live.staticflickr.com/65535/51555236173_3bcb5ca21f_n.jpg",
    "id_album": "-89234980",
    "description": "ANIME_PIC_bfd7533ed366ea23a02627f7b37b74cf,[GirlsCuteCool],[isGirlAnime],[isCuteAnime],[isSadAnimeGirl],[isSadAnime]",
    "title": "ANIME_PIC_bfd7533ed366ea23a02627f7b37b74cf",
    "link_img": "https://live.staticflickr.com/65535/51555236173_32a534292b_o.jpg",
    "id_image": "ANIME_PIC_bfd7533ed366ea23a02627f7b37b74cf",
    "count_view": 0
  },
  {
    "link_thumb": "https://live.staticflickr.com/65535/51555001706_e6a469d6d7_n.jpg",
    "id_album": "-89234980",
    "description": "ANIME_PIC_bfd8041a989c0b08f31eb7b8d2d5250a,[GirlsCuteCool],[isGirlAnime],[isCuteAnime],[isGirlsLoliAnime]",
    "title": "ANIME_PIC_bfd8041a989c0b08f31eb7b8d2d5250a",
    "link_img": "https://live.staticflickr.com/65535/51555001706_7da4a15ed6_o.jpg",
    "id_image": "ANIME_PIC_bfd8041a989c0b08f31eb7b8d2d5250a",
    "count_view": 0
  },
  {
    "link_thumb": "https://live.staticflickr.com/65535/51555724899_33a23263a3_n.jpg",
    "id_album": "-89234980",
    "description": "ANIME_PIC_bfda684bbcfe57cfcf0390940f4959cf,[GirlsCuteCool],[isGirlAnime],[isCuteAnime],[isGirlsLoliAnime]",
    "title": "ANIME_PIC_bfda684bbcfe57cfcf0390940f4959cf",
    "link_img": "https://live.staticflickr.com/65535/51555724899_f803b855aa_o.jpg",
    "id_image": "ANIME_PIC_bfda684bbcfe57cfcf0390940f4959cf",
    "count_view": 0
  },
  {
    "link_thumb": "https://live.staticflickr.com/65535/51555725094_19e64c8dac_n.jpg",
    "id_album": "-89234980",
    "description": "ANIME_PIC_bfdccf47f0c0f59e4130e4a7ae70c75f,[GirlsCuteCool],[isGirlAnime],[isCuteAnime],[isGirlsLoliAnime]",
    "title": "ANIME_PIC_bfdccf47f0c0f59e4130e4a7ae70c75f",
    "link_img": "https://live.staticflickr.com/65535/51555725094_8985fb11fa_o.jpg",
    "id_image": "ANIME_PIC_bfdccf47f0c0f59e4130e4a7ae70c75f",
    "count_view": 0
  },
  {
    "link_thumb": "https://live.staticflickr.com/65535/51554207342_52a6db8265_n.jpg",
    "id_album": "-89234980",
    "description": "ANIME_PIC_bfde937a93e087e53085ff3a67f8210e,[GirlsCuteCool],[isGirlAnime],[isCuteAnime],[isGirlEarsNekoAnime],[isGirlsLoliAnime]",
    "title": "ANIME_PIC_bfde937a93e087e53085ff3a67f8210e",
    "link_img": "https://live.staticflickr.com/65535/51554207342_76f5f77d36_o.jpg",
    "id_image": "ANIME_PIC_bfde937a93e087e53085ff3a67f8210e",
    "count_view": 0
  },
  {
    "link_thumb": "https://live.staticflickr.com/65535/51554207597_e42ff987af_n.jpg",
    "id_album": "-89234980",
    "description": "ANIME_PIC_bfe06118dbb8de2631b089f7c7449859,[GirlsCuteCool],[isGirlAnime],[isCuteAnime],[isGirlEarsNekoAnime],[isGirlsLoliAnime]",
    "title": "ANIME_PIC_bfe06118dbb8de2631b089f7c7449859",
    "link_img": "https://live.staticflickr.com/65535/51554207597_ddfa60a778_o.jpg",
    "id_image": "ANIME_PIC_bfe06118dbb8de2631b089f7c7449859",
    "count_view": 0
  },
  {
    "link_thumb": "https://live.staticflickr.com/65535/51555921880_3a5477f075_n.jpg",
    "id_album": "-89234980",
    "description": "ANIME_PIC_bfe26162d36e64a5ff8c9f1dbc1376e4,[GirlsCuteCool],[isGirlAnime],[isCuteAnime],[isGirlEarsNekoAnime],[isGirlsHatsHoodieAnime],[isGirlsLoliAnime]",
    "title": "ANIME_PIC_bfe26162d36e64a5ff8c9f1dbc1376e4",
    "link_img": "https://live.staticflickr.com/65535/51555921880_c236b8eb2f_o.jpg",
    "id_image": "ANIME_PIC_bfe26162d36e64a5ff8c9f1dbc1376e4",
    "count_view": 0
  },
  {
    "link_thumb": "https://live.staticflickr.com/65535/51555237998_5ed3df31e6_n.jpg",
    "id_album": "-89234980",
    "description": "ANIME_PIC_bfe6a6e7dfd5bc3539109031380b99c1,[GirlsCuteCool],[isGirlAnime],[isCuteAnime]",
    "title": "ANIME_PIC_bfe6a6e7dfd5bc3539109031380b99c1",
    "link_img": "https://live.staticflickr.com/65535/51555237998_cf9752ef9c_o.png",
    "id_image": "ANIME_PIC_bfe6a6e7dfd5bc3539109031380b99c1",
    "count_view": 0
  },
  {
    "link_thumb": "https://live.staticflickr.com/65535/51555726674_9037a86d7b_n.jpg",
    "id_album": "-89234980",
    "description": "ANIME_PIC_bfe82eabebebd80c6bbdac2cd5a24256,[GirlsCuteCool],[isGirlAnime],[isCuteAnime],[isGirlsHatsHoodieAnime],[isGirlsLoliAnime]",
    "title": "ANIME_PIC_bfe82eabebebd80c6bbdac2cd5a24256",
    "link_img": "https://live.staticflickr.com/65535/51555726674_de0c4b06e8_o.png",
    "id_image": "ANIME_PIC_bfe82eabebebd80c6bbdac2cd5a24256",
    "count_view": 0
  },
  {
    "link_thumb": "https://live.staticflickr.com/65535/51555238758_03de758f0d_n.jpg",
    "id_album": "-89234980",
    "description": "ANIME_PIC_bfe907ebc52301b3f792d8fab09fc249,[GirlsCuteCool],[isGirlAnime],[isCuteAnime]",
    "title": "ANIME_PIC_bfe907ebc52301b3f792d8fab09fc249",
    "link_img": "https://live.staticflickr.com/65535/51555238758_baaebf26af_o.jpg",
    "id_image": "ANIME_PIC_bfe907ebc52301b3f792d8fab09fc249",
    "count_view": 0
  },
  {
    "link_thumb": "https://live.staticflickr.com/65535/51554209082_1732a8ebd2_n.jpg",
    "id_album": "-89234980",
    "description": "ANIME_PIC_bfed4386147aae530becb22e57f9ce68,[GirlsCuteCool],[isGirlAnime],[isCuteAnime],[isSadAnimeGirl],[isSadAnime]",
    "title": "ANIME_PIC_bfed4386147aae530becb22e57f9ce68",
    "link_img": "https://live.staticflickr.com/65535/51554209082_6e2df6392a_o.jpg",
    "id_image": "ANIME_PIC_bfed4386147aae530becb22e57f9ce68",
    "count_view": 0
  },
  {
    "link_thumb": "https://live.staticflickr.com/65535/51555004496_bffd09c88e_n.jpg",
    "id_album": "-89234980",
    "description": "ANIME_PIC_bfed6a19385df14cfdf3bb930e2a84be,[GirlsCuteCool],[isGirlAnime],[isCuteAnime],[isGirlEarsNekoAnime],[isGirlsLoliAnime],[isSadAnimeGirl],[isSadAnime]",
    "title": "ANIME_PIC_bfed6a19385df14cfdf3bb930e2a84be",
    "link_img": "https://live.staticflickr.com/65535/51555004496_66d2776fab_o.jpg",
    "id_image": "ANIME_PIC_bfed6a19385df14cfdf3bb930e2a84be",
    "count_view": 0
  },
  {
    "link_thumb": "https://live.staticflickr.com/65535/51554209637_81360a7d3d_n.jpg",
    "id_album": "-89234980",
    "description": "ANIME_PIC_bfef7edfc20bd6dc807301faaf731dfd,[GirlsCuteCool],[isGirlAnime],[isCuteAnime],[isGirlsHatsHoodieAnime],[isGirlsLoliAnime]",
    "title": "ANIME_PIC_bfef7edfc20bd6dc807301faaf731dfd",
    "link_img": "https://live.staticflickr.com/65535/51554209637_0e1b0d2976_o.png",
    "id_image": "ANIME_PIC_bfef7edfc20bd6dc807301faaf731dfd",
    "count_view": 0
  },
  {
    "link_thumb": "https://live.staticflickr.com/65535/51555239953_45dcc314ee_n.jpg",
    "id_album": "-89234980",
    "description": "ANIME_PIC_bff0d22310c4ff30ac3dc0034ed548fe,[GirlsCuteCool],[isGirlAnime],[isCuteAnime],[isGirlsHornsAnime],[isGirlsLoliAnime],[isSadAnimeGirl],[isSadAnime]",
    "title": "ANIME_PIC_bff0d22310c4ff30ac3dc0034ed548fe",
    "link_img": "https://live.staticflickr.com/65535/51555239953_fefb75d6cf_o.jpg",
    "id_image": "ANIME_PIC_bff0d22310c4ff30ac3dc0034ed548fe",
    "count_view": 0
  },
  {
    "link_thumb": "https://live.staticflickr.com/65535/51555924245_bc5fc453de_n.jpg",
    "id_album": "-89234980",
    "description": "ANIME_PIC_bff26fc90c8bef98803049cbd6827974,[GirlsCuteCool],[isGirlAnime],[isCuteAnime]",
    "title": "ANIME_PIC_bff26fc90c8bef98803049cbd6827974",
    "link_img": "https://live.staticflickr.com/65535/51555924245_27dc4504d0_o.png",
    "id_image": "ANIME_PIC_bff26fc90c8bef98803049cbd6827974",
    "count_view": 0
  },
  {
    "link_thumb": "https://live.staticflickr.com/65535/51554210522_d7b8f0bdeb_n.jpg",
    "id_album": "-89234980",
    "description": "ANIME_PIC_bff796167936ebc58b8b453bae864052,[GirlsCuteCool],[isGirlAnime],[isCuteAnime],[isGirlsLoliAnime]",
    "title": "ANIME_PIC_bff796167936ebc58b8b453bae864052",
    "link_img": "https://live.staticflickr.com/65535/51554210522_e810732876_o.jpg",
    "id_image": "ANIME_PIC_bff796167936ebc58b8b453bae864052",
    "count_view": 0
  },
  {
    "link_thumb": "https://live.staticflickr.com/65535/51554210777_b3af7aa0b5_n.jpg",
    "id_album": "-89234980",
    "description": "ANIME_PIC_bff924e7ef67bf55846f98e4221880b7,[GirlsCuteCool],[isGirlAnime],[isCuteAnime],[isGirlFaceMasksAnime],[isSadAnimeGirl],[isSadAnime]",
    "title": "ANIME_PIC_bff924e7ef67bf55846f98e4221880b7",
    "link_img": "https://live.staticflickr.com/65535/51554210777_b79edda611_o.jpg",
    "id_image": "ANIME_PIC_bff924e7ef67bf55846f98e4221880b7",
    "count_view": 0
  },
  {
    "link_thumb": "https://live.staticflickr.com/65535/51554211007_3c04dc92a5_n.jpg",
    "id_album": "-89234980",
    "description": "ANIME_PIC_bffe19dd75c35af6060a83f752664178,[GirlsCuteCool],[isGirlAnime],[isCuteAnime],[isGirlsLoliAnime],[isSadAnimeGirl],[isSadAnime]",
    "title": "ANIME_PIC_bffe19dd75c35af6060a83f752664178",
    "link_img": "https://live.staticflickr.com/65535/51554211007_be2ca6c7e2_o.jpg",
    "id_image": "ANIME_PIC_bffe19dd75c35af6060a83f752664178",
    "count_view": 0
  },
  {
    "link_thumb": "https://live.staticflickr.com/65535/51555729764_3183097bde_n.jpg",
    "id_album": "-89234980",
    "description": "ANIME_PIC_bffe7593cf3057869bfd697e904bd662,[GirlsCuteCool],[isGirlAnime],[isCuteAnime],[isGirlsLoliAnime]",
    "title": "ANIME_PIC_bffe7593cf3057869bfd697e904bd662",
    "link_img": "https://live.staticflickr.com/65535/51555729764_3effb531a5_o.jpg",
    "id_image": "ANIME_PIC_bffe7593cf3057869bfd697e904bd662",
    "count_view": 0
  },
  {
    "link_thumb": "https://live.staticflickr.com/65535/51554211467_d607c81747_n.jpg",
    "id_album": "-89234980",
    "description": "ANIME_PIC_c0007ce50b05007ac114d02c3d3a4f8b,[GirlsCuteCool],[isGirlAnime],[isCuteAnime],[isGirlsHatsHoodieAnime],[isGirlsLoliAnime]",
    "title": "ANIME_PIC_c0007ce50b05007ac114d02c3d3a4f8b",
    "link_img": "https://live.staticflickr.com/65535/51554211467_9f5f3bb569_o.jpg",
    "id_image": "ANIME_PIC_c0007ce50b05007ac114d02c3d3a4f8b",
    "count_view": 0
  },
  {
    "link_thumb": "https://live.staticflickr.com/65535/51554211647_5e356940c1_n.jpg",
    "id_album": "-89234980",
    "description": "ANIME_PIC_c001371f51a83cdae59b2f36b8d0f963,[GirlsCuteCool],[isBoyAnime],[isCoupleAnime],[isGirlAnime],[isCuteAnime]",
    "title": "ANIME_PIC_c001371f51a83cdae59b2f36b8d0f963",
    "link_img": "https://live.staticflickr.com/65535/51554211647_c5790d2853_o.jpg",
    "id_image": "ANIME_PIC_c001371f51a83cdae59b2f36b8d0f963",
    "count_view": 0
  },
  {
    "link_thumb": "https://live.staticflickr.com/65535/51554211917_28003cc53f_n.jpg",
    "id_album": "-89234980",
    "description": "ANIME_PIC_c00261c395c79423db04178a92192ef7,[GirlsCuteCool],[isGirlAnime],[isCuteAnime],[isSadAnimeGirl],[isSadAnime]",
    "title": "ANIME_PIC_c00261c395c79423db04178a92192ef7",
    "link_img": "https://live.staticflickr.com/65535/51554211917_eccff2ec8b_o.jpg",
    "id_image": "ANIME_PIC_c00261c395c79423db04178a92192ef7",
    "count_view": 0
  },
  {
    "link_thumb": "https://live.staticflickr.com/65535/51555007366_93bb1c9139_n.jpg",
    "id_album": "-89234980",
    "description": "ANIME_PIC_c004dc93c95aef1928e7669e7d1ca734,[GirlsCuteCool],[isGirlAnime],[isCuteAnime],[isGirlsHatsHoodieAnime]",
    "title": "ANIME_PIC_c004dc93c95aef1928e7669e7d1ca734",
    "link_img": "https://live.staticflickr.com/65535/51555007366_0ede759603_o.jpg",
    "id_image": "ANIME_PIC_c004dc93c95aef1928e7669e7d1ca734",
    "count_view": 0
  },
  {
    "link_thumb": "https://live.staticflickr.com/65535/51555926415_f22b7a3e4d_n.jpg",
    "id_album": "-89234980",
    "description": "ANIME_PIC_c007c3be9cee40f624a876d7616d2cc3,[GirlsCuteCool],[isGirlAnime],[isCuteAnime],[isGirlsLoliAnime]",
    "title": "ANIME_PIC_c007c3be9cee40f624a876d7616d2cc3",
    "link_img": "https://live.staticflickr.com/65535/51555926415_2cb70527be_o.jpg",
    "id_image": "ANIME_PIC_c007c3be9cee40f624a876d7616d2cc3",
    "count_view": 0
  },
  {
    "link_thumb": "https://live.staticflickr.com/65535/51555242543_d9e259039b_n.jpg",
    "id_album": "-89234980",
    "description": "ANIME_PIC_c00ce3a7029f01f63f29ce9fdbe74ee5,[GirlsCuteCool],[isGirlAnime],[isCuteAnime]",
    "title": "ANIME_PIC_c00ce3a7029f01f63f29ce9fdbe74ee5",
    "link_img": "https://live.staticflickr.com/65535/51555242543_51408740fe_o.jpg",
    "id_image": "ANIME_PIC_c00ce3a7029f01f63f29ce9fdbe74ee5",
    "count_view": 0
  },
  {
    "link_thumb": "https://live.staticflickr.com/65535/51555242898_e979d8ee05_n.jpg",
    "id_album": "-89234980",
    "description": "ANIME_PIC_c011b46cb5c52092d30307e3303f7d9c,[GirlsCuteCool],[isGirlAnime],[isCuteAnime],[isGirlsHatsHoodieAnime]",
    "title": "ANIME_PIC_c011b46cb5c52092d30307e3303f7d9c",
    "link_img": "https://live.staticflickr.com/65535/51555242898_654336f3da_o.jpg",
    "id_image": "ANIME_PIC_c011b46cb5c52092d30307e3303f7d9c",
    "count_view": 0
  },
  {
    "link_thumb": "https://live.staticflickr.com/65535/51555243208_892c16d5a5_n.jpg",
    "id_album": "-89234980",
    "description": "ANIME_PIC_c0168f0ac081149a68e5864c045f7bf9,[GirlsCuteCool],[isGirlAnime],[isCuteAnime],[isGirlsLoliAnime]",
    "title": "ANIME_PIC_c0168f0ac081149a68e5864c045f7bf9",
    "link_img": "https://live.staticflickr.com/65535/51555243208_9cc451fd6a_o.png",
    "id_image": "ANIME_PIC_c0168f0ac081149a68e5864c045f7bf9",
    "count_view": 0
  },
  {
    "link_thumb": "https://live.staticflickr.com/65535/51554213887_5368d07446_n.jpg",
    "id_album": "-89234980",
    "description": "ANIME_PIC_c0183c4ea492c3760ca158ac5aba368b,[GirlsCuteCool],[isGirlAnime],[isCuteAnime],[isGirlsLoliAnime]",
    "title": "ANIME_PIC_c0183c4ea492c3760ca158ac5aba368b",
    "link_img": "https://live.staticflickr.com/65535/51554213887_0eda243eac_o.jpg",
    "id_image": "ANIME_PIC_c0183c4ea492c3760ca158ac5aba368b",
    "count_view": 0
  },
  {
    "link_thumb": "https://live.staticflickr.com/65535/51555243993_3eaa15c34a_n.jpg",
    "id_album": "-89234980",
    "description": "ANIME_PIC_c01b7e175e43feadf87de93cab276fc2,[GirlsCuteCool],[isGirlAnime],[isCuteAnime],[isGirlEarsNekoAnime],[isGirlFaceMasksAnime],[isGirlsLoliAnime],[isSadAnimeGirl],[isSadAnime]",
    "title": "ANIME_PIC_c01b7e175e43feadf87de93cab276fc2",
    "link_img": "https://live.staticflickr.com/65535/51555243993_07c2efaf84_o.jpg",
    "id_image": "ANIME_PIC_c01b7e175e43feadf87de93cab276fc2",
    "count_view": 0
  },
  {
    "link_thumb": "https://live.staticflickr.com/65535/51554214397_9ea89994c4_n.jpg",
    "id_album": "-89234980",
    "description": "ANIME_PIC_c01e427bfbe27ec47f23aeecce13ea1d,[GirlsCuteCool],[isGirlAnime],[isCuteAnime]",
    "title": "ANIME_PIC_c01e427bfbe27ec47f23aeecce13ea1d",
    "link_img": "https://live.staticflickr.com/65535/51554214397_bf2ed4ee43_o.jpg",
    "id_image": "ANIME_PIC_c01e427bfbe27ec47f23aeecce13ea1d",
    "count_view": 0
  },
  {
    "link_thumb": "https://live.staticflickr.com/65535/51554214707_0de0cb3792_n.jpg",
    "id_album": "-89234980",
    "description": "ANIME_PIC_c01fc2b30af75b276728fb55b6df417d,[GirlsCuteCool],[isGirlAnime],[isCuteAnime],[isGirlsLoliAnime]",
    "title": "ANIME_PIC_c01fc2b30af75b276728fb55b6df417d",
    "link_img": "https://live.staticflickr.com/65535/51554214707_aa30734df5_o.jpg",
    "id_image": "ANIME_PIC_c01fc2b30af75b276728fb55b6df417d",
    "count_view": 0
  },
  {
    "link_thumb": "https://live.staticflickr.com/65535/51555009986_3c8455eb33_n.jpg",
    "id_album": "-89234980",
    "description": "ANIME_PIC_c025cac83de5cff7143759f32b8294e9,[GirlsCuteCool],[isGirlAnime],[isCuteAnime]",
    "title": "ANIME_PIC_c025cac83de5cff7143759f32b8294e9",
    "link_img": "https://live.staticflickr.com/65535/51555009986_5f4ba75c0c_o.png",
    "id_image": "ANIME_PIC_c025cac83de5cff7143759f32b8294e9",
    "count_view": 0
  },
  {
    "link_thumb": "https://live.staticflickr.com/65535/51555010351_5f93f01109_n.jpg",
    "id_album": "-89234980",
    "description": "ANIME_PIC_c02c4f52ced400b448e7e364f9b96e6f,[GirlsCuteCool],[isGirlAnime],[isCuteAnime],[isGirlsLoliAnime],[isSadAnimeGirl],[isSadAnime]",
    "title": "ANIME_PIC_c02c4f52ced400b448e7e364f9b96e6f",
    "link_img": "https://live.staticflickr.com/65535/51555010351_16e0ecfd53_o.jpg",
    "id_image": "ANIME_PIC_c02c4f52ced400b448e7e364f9b96e6f",
    "count_view": 0
  },
  {
    "link_thumb": "https://live.staticflickr.com/65535/51555929750_30070d690d_n.jpg",
    "id_album": "-89234980",
    "description": "ANIME_PIC_c0398cd36fb2e2ed7a9e5be22f07d10c,[GirlsCuteCool],[isGirlAnime],[isCuteAnime],[isGirlsLoliAnime]",
    "title": "ANIME_PIC_c0398cd36fb2e2ed7a9e5be22f07d10c",
    "link_img": "https://live.staticflickr.com/65535/51555929750_34702bd895_o.jpg",
    "id_image": "ANIME_PIC_c0398cd36fb2e2ed7a9e5be22f07d10c",
    "count_view": 0
  },
  {
    "link_thumb": "https://live.staticflickr.com/65535/51555734309_91dd12701a_n.jpg",
    "id_album": "-89234980",
    "description": "ANIME_PIC_c03cf2c5908ca84f787131c87cfe69c1,[GirlsCuteCool],[isGirlAnime],[isCuteAnime],[isGirlEarsNekoAnime],[isGirlsLoliAnime]",
    "title": "ANIME_PIC_c03cf2c5908ca84f787131c87cfe69c1",
    "link_img": "https://live.staticflickr.com/65535/51555734309_58b13f22f6_o.jpg",
    "id_image": "ANIME_PIC_c03cf2c5908ca84f787131c87cfe69c1",
    "count_view": 0
  },
  {
    "link_thumb": "https://live.staticflickr.com/65535/51555011166_b6a4272e93_n.jpg",
    "id_album": "-89234980",
    "description": "ANIME_PIC_c03e3e48662e708cdaa4d68e571b5e02,[GirlsCuteCool],[isGirlAnime],[isCuteAnime],[isSadAnimeGirl],[isSadAnime]",
    "title": "ANIME_PIC_c03e3e48662e708cdaa4d68e571b5e02",
    "link_img": "https://live.staticflickr.com/65535/51555011166_b71ac0c356_o.jpg",
    "id_image": "ANIME_PIC_c03e3e48662e708cdaa4d68e571b5e02",
    "count_view": 0
  },
  {
    "link_thumb": "https://live.staticflickr.com/65535/51555930645_f1c82fdb75_n.jpg",
    "id_album": "-89234980",
    "description": "ANIME_PIC_c0414d355280d504b115915a8c9cbb64,[GirlsCuteCool],[isGirlAnime],[isCuteAnime],[isGirlsLoliAnime]",
    "title": "ANIME_PIC_c0414d355280d504b115915a8c9cbb64",
    "link_img": "https://live.staticflickr.com/65535/51555930645_c39190e772_o.jpg",
    "id_image": "ANIME_PIC_c0414d355280d504b115915a8c9cbb64",
    "count_view": 0
  },
  {
    "link_thumb": "https://live.staticflickr.com/65535/51555246753_9b0e611630_n.jpg",
    "id_album": "-89234980",
    "description": "ANIME_PIC_c0417f0a9347f98c986515a9cc298ec8,[GirlsCuteCool],[isGirlAnime],[isCuteAnime]",
    "title": "ANIME_PIC_c0417f0a9347f98c986515a9cc298ec8",
    "link_img": "https://live.staticflickr.com/65535/51555246753_164d983418_o.png",
    "id_image": "ANIME_PIC_c0417f0a9347f98c986515a9cc298ec8",
    "count_view": 0
  },
  {
    "link_thumb": "https://live.staticflickr.com/65535/51555735439_2d872646ed_n.jpg",
    "id_album": "-89234980",
    "description": "ANIME_PIC_c04409053d4ae41bfbc3796c99800589,[GirlsCuteCool],[isGirlAnime],[isCuteAnime],[isGirlEarsNekoAnime],[isGirlsLoliAnime]",
    "title": "ANIME_PIC_c04409053d4ae41bfbc3796c99800589",
    "link_img": "https://live.staticflickr.com/65535/51555735439_0810b5eb07_o.png",
    "id_image": "ANIME_PIC_c04409053d4ae41bfbc3796c99800589",
    "count_view": 0
  },
  {
    "link_thumb": "https://live.staticflickr.com/65535/51555012736_fea18d71f7_n.jpg",
    "id_album": "-89234980",
    "description": "ANIME_PIC_c04683586b97fd2568538b7635df12bd,[GirlsCuteCool],[isGirlAnime],[isCuteAnime],[isGirlsLoliAnime]",
    "title": "ANIME_PIC_c04683586b97fd2568538b7635df12bd",
    "link_img": "https://live.staticflickr.com/65535/51555012736_742edb24fc_o.jpg",
    "id_image": "ANIME_PIC_c04683586b97fd2568538b7635df12bd",
    "count_view": 0
  },
  {
    "link_thumb": "https://live.staticflickr.com/65535/51555736199_2b8690c926_n.jpg",
    "id_album": "-89234980",
    "description": "ANIME_PIC_c0475b345339057e19b7b8fb49d5dd66,[GirlsCuteCool],[isGirlAnime],[isCuteAnime],[isGirlFaceMasksAnime],[isSadAnimeGirl],[isSadAnime]",
    "title": "ANIME_PIC_c0475b345339057e19b7b8fb49d5dd66",
    "link_img": "https://live.staticflickr.com/65535/51555736199_af82c47a1f_o.png",
    "id_image": "ANIME_PIC_c0475b345339057e19b7b8fb49d5dd66",
    "count_view": 0
  },
  {
    "link_thumb": "https://live.staticflickr.com/65535/51555736674_a84e361788_n.jpg",
    "id_album": "-89234980",
    "description": "ANIME_PIC_c048676affc0d3426dc6ac157e7777c6,[GirlsCuteCool],[isGirlAnime],[isCuteAnime],[isGirlsHatsHoodieAnime]",
    "title": "ANIME_PIC_c048676affc0d3426dc6ac157e7777c6",
    "link_img": "https://live.staticflickr.com/65535/51555736674_5b859cb1e6_o.jpg",
    "id_image": "ANIME_PIC_c048676affc0d3426dc6ac157e7777c6",
    "count_view": 0
  },
  {
    "link_thumb": "https://live.staticflickr.com/65535/51554218792_8b15384563_n.jpg",
    "id_album": "-89234980",
    "description": "ANIME_PIC_c0489a31a98bfb8c932e99e7f3c87967,[GirlsCuteCool],[isGirlAnime],[isCuteAnime],[isGirlsLoliAnime]",
    "title": "ANIME_PIC_c0489a31a98bfb8c932e99e7f3c87967",
    "link_img": "https://live.staticflickr.com/65535/51554218792_984a67a525_o.jpg",
    "id_image": "ANIME_PIC_c0489a31a98bfb8c932e99e7f3c87967",
    "count_view": 0
  },
  {
    "link_thumb": "https://live.staticflickr.com/65535/51555249023_f7b9b20114_n.jpg",
    "id_album": "-89234980",
    "description": "ANIME_PIC_c04ca4b2252b6f2ee6484845a55726df,[GirlsCuteCool],[isGirlAnime],[isCuteAnime],[isGirlsLoliAnime]",
    "title": "ANIME_PIC_c04ca4b2252b6f2ee6484845a55726df",
    "link_img": "https://live.staticflickr.com/65535/51555249023_b953cd25c0_o.jpg",
    "id_image": "ANIME_PIC_c04ca4b2252b6f2ee6484845a55726df",
    "count_view": 0
  },
  {
    "link_thumb": "https://live.staticflickr.com/65535/51555737469_35b8416c2f_n.jpg",
    "id_album": "-89234980",
    "description": "ANIME_PIC_c04fd7fcd24bbe8595c05f59cdda2155,[GirlsCuteCool],[isGirlAnime],[isCuteAnime],[isGirlsHatsHoodieAnime]",
    "title": "ANIME_PIC_c04fd7fcd24bbe8595c05f59cdda2155",
    "link_img": "https://live.staticflickr.com/65535/51555737469_888862b3f4_o.jpg",
    "id_image": "ANIME_PIC_c04fd7fcd24bbe8595c05f59cdda2155",
    "count_view": 0
  },
  {
    "link_thumb": "https://live.staticflickr.com/65535/51555737664_600f320ba2_n.jpg",
    "id_album": "-89234980",
    "description": "ANIME_PIC_c04fd8f3143b108f1a6f2085b2f5464a,[GirlsCuteCool],[isGirlAnime],[isCuteAnime],[isGirlEarsNekoAnime],[isGirlsHornsAnime],[isGirlsLoliAnime]",
    "title": "ANIME_PIC_c04fd8f3143b108f1a6f2085b2f5464a",
    "link_img": "https://live.staticflickr.com/65535/51555737664_28c3313db6_o.jpg",
    "id_image": "ANIME_PIC_c04fd8f3143b108f1a6f2085b2f5464a",
    "count_view": 0
  },
  {
    "link_thumb": "https://live.staticflickr.com/65535/51555933815_6783c16349_n.jpg",
    "id_album": "-89234980",
    "description": "ANIME_PIC_c05045ab5ce5526d1e007540abafe4c7,[GirlsCuteCool],[isGirlAnime],[isCuteAnime],[isGirlsHornsAnime],[isGirlsLoliAnime]",
    "title": "ANIME_PIC_c05045ab5ce5526d1e007540abafe4c7",
    "link_img": "https://live.staticflickr.com/65535/51555933815_58621959ce_o.png",
    "id_image": "ANIME_PIC_c05045ab5ce5526d1e007540abafe4c7",
    "count_view": 0
  },
  {
    "link_thumb": "https://live.staticflickr.com/65535/51554220417_4b131d1086_n.jpg",
    "id_album": "-89234980",
    "description": "ANIME_PIC_c052c7efd767f656298fea8da220d4a0,[GirlsCuteCool],[isGirlAnime],[isCuteAnime],[isGirlsLoliAnime]",
    "title": "ANIME_PIC_c052c7efd767f656298fea8da220d4a0",
    "link_img": "https://live.staticflickr.com/65535/51554220417_6fe0f664dd_o.jpg",
    "id_image": "ANIME_PIC_c052c7efd767f656298fea8da220d4a0",
    "count_view": 0
  },
  {
    "link_thumb": "https://live.staticflickr.com/65535/51554220612_c8ff49a50e_n.jpg",
    "id_album": "-89234980",
    "description": "ANIME_PIC_c0570b708126d7530e57c0b89aae2198,[GirlsCuteCool],[isGirlAnime],[isCuteAnime],[isGirlsHatsHoodieAnime]",
    "title": "ANIME_PIC_c0570b708126d7530e57c0b89aae2198",
    "link_img": "https://live.staticflickr.com/65535/51554220612_aa98b2663a_o.jpg",
    "id_image": "ANIME_PIC_c0570b708126d7530e57c0b89aae2198",
    "count_view": 0
  },
  {
    "link_thumb": "https://live.staticflickr.com/65535/51555738819_694ef750f7_n.jpg",
    "id_album": "-89234980",
    "description": "ANIME_PIC_c05fd8622431b696f3d99065504c67cc,[GirlsCuteCool],[isGirlAnime],[isCuteAnime],[isSadAnimeGirl],[isSadAnime]",
    "title": "ANIME_PIC_c05fd8622431b696f3d99065504c67cc",
    "link_img": "https://live.staticflickr.com/65535/51555738819_ac06616d3a_o.jpg",
    "id_image": "ANIME_PIC_c05fd8622431b696f3d99065504c67cc",
    "count_view": 0
  },
  {
    "link_thumb": "https://live.staticflickr.com/65535/51555015791_242bb9630c_n.jpg",
    "id_album": "-89234980",
    "description": "ANIME_PIC_c062b5f2600dacb57f14f38a53f9e1e7,[GirlsCuteCool],[isGirlAnime],[isCuteAnime],[isGirlsLoliAnime],[isSadAnimeGirl],[isSadAnime]",
    "title": "ANIME_PIC_c062b5f2600dacb57f14f38a53f9e1e7",
    "link_img": "https://live.staticflickr.com/65535/51555015791_e55e8440c3_o.png",
    "id_image": "ANIME_PIC_c062b5f2600dacb57f14f38a53f9e1e7",
    "count_view": 0
  },
  {
    "link_thumb": "https://live.staticflickr.com/65535/51554221357_52e660ec5c_n.jpg",
    "id_album": "-89234980",
    "description": "ANIME_PIC_c065167ebe0c4a60bedca85bcb4cb20d,[GirlsCuteCool],[isGirlAnime],[isCuteAnime],[isGirlsLoliAnime]",
    "title": "ANIME_PIC_c065167ebe0c4a60bedca85bcb4cb20d",
    "link_img": "https://live.staticflickr.com/65535/51554221357_50941846f2_o.jpg",
    "id_image": "ANIME_PIC_c065167ebe0c4a60bedca85bcb4cb20d",
    "count_view": 0
  },
  {
    "link_thumb": "https://live.staticflickr.com/65535/51554221607_d827d86c51_n.jpg",
    "id_album": "-89234980",
    "description": "ANIME_PIC_c065909632a06911c28ef867bdd38495,[GirlsCuteCool],[isGirlAnime],[isCuteAnime]",
    "title": "ANIME_PIC_c065909632a06911c28ef867bdd38495",
    "link_img": "https://live.staticflickr.com/65535/51554221607_4681d8958a_o.png",
    "id_image": "ANIME_PIC_c065909632a06911c28ef867bdd38495",
    "count_view": 0
  },
  {
    "link_thumb": "https://live.staticflickr.com/65535/51555739894_6e6a8b5fb4_n.jpg",
    "id_album": "-89234980",
    "description": "ANIME_PIC_c06d1e3c5b015b9e2804661fc43ecfb8,[GirlsCuteCool],[isGirlAnime],[isCuteAnime],[isGirlsLoliAnime]",
    "title": "ANIME_PIC_c06d1e3c5b015b9e2804661fc43ecfb8",
    "link_img": "https://live.staticflickr.com/65535/51555739894_f9d69ca668_o.jpg",
    "id_image": "ANIME_PIC_c06d1e3c5b015b9e2804661fc43ecfb8",
    "count_view": 0
  },
  {
    "link_thumb": "https://live.staticflickr.com/65535/51555016881_f1ede6613f_n.jpg",
    "id_album": "-89234980",
    "description": "ANIME_PIC_c0754e8bb2e6d2e37cd68011b2e647e5,[GirlsCuteCool],[isGirlAnime],[isCuteAnime],[isSadAnimeGirl],[isSadAnime]",
    "title": "ANIME_PIC_c0754e8bb2e6d2e37cd68011b2e647e5",
    "link_img": "https://live.staticflickr.com/65535/51555016881_0b356b15e7_o.jpg",
    "id_image": "ANIME_PIC_c0754e8bb2e6d2e37cd68011b2e647e5",
    "count_view": 0
  },
  {
    "link_thumb": "https://live.staticflickr.com/65535/51555740534_0e549356af_n.jpg",
    "id_album": "-89234980",
    "description": "ANIME_PIC_c076f561247535ee7963b0152157d6e2,[GirlsCuteCool],[isGirlAnime],[isCuteAnime],[isGirlsLoliAnime],[isSadAnimeGirl],[isSadAnime]",
    "title": "ANIME_PIC_c076f561247535ee7963b0152157d6e2",
    "link_img": "https://live.staticflickr.com/65535/51555740534_99bbc1ecff_o.jpg",
    "id_image": "ANIME_PIC_c076f561247535ee7963b0152157d6e2",
    "count_view": 0
  },
  {
    "link_thumb": "https://live.staticflickr.com/65535/51555936720_843508d226_n.jpg",
    "id_album": "-89234980",
    "description": "ANIME_PIC_c077d010ce6b57433a5ae366a092ec44,[GirlsCuteCool],[isGirlAnime],[isCuteAnime],[isGirlsLoliAnime]",
    "title": "ANIME_PIC_c077d010ce6b57433a5ae366a092ec44",
    "link_img": "https://live.staticflickr.com/65535/51555936720_41ed18c690_o.jpg",
    "id_image": "ANIME_PIC_c077d010ce6b57433a5ae366a092ec44",
    "count_view": 0
  },
  {
    "link_thumb": "https://live.staticflickr.com/65535/51555937040_8d573d6031_n.jpg",
    "id_album": "-89234980",
    "description": "ANIME_PIC_c07c20c62e78e423486cef469da19504,[GirlsCuteCool],[isGirlAnime],[isCuteAnime],[isGirlEarsNekoAnime],[isGirlsLoliAnime],[isSadAnimeGirl],[isSadAnime]",
    "title": "ANIME_PIC_c07c20c62e78e423486cef469da19504",
    "link_img": "https://live.staticflickr.com/65535/51555937040_4595bb7620_o.jpg",
    "id_image": "ANIME_PIC_c07c20c62e78e423486cef469da19504",
    "count_view": 0
  },
  {
    "link_thumb": "https://live.staticflickr.com/65535/51555253478_1b2daf96e8_n.jpg",
    "id_album": "-89234980",
    "description": "ANIME_PIC_c07dde28deda60cd8f9b7c3d829279b0,[GirlsCuteCool],[isGirlAnime],[isCuteAnime],[isGirlsLoliAnime]",
    "title": "ANIME_PIC_c07dde28deda60cd8f9b7c3d829279b0",
    "link_img": "https://live.staticflickr.com/65535/51555253478_7ae0998588_o.jpg",
    "id_image": "ANIME_PIC_c07dde28deda60cd8f9b7c3d829279b0",
    "count_view": 0
  },
  {
    "link_thumb": "https://live.staticflickr.com/65535/51554223597_796a2fd632_n.jpg",
    "id_album": "-89234980",
    "description": "ANIME_PIC_c07de90068c9a0d8e331ef48ec6dc845,[GirlsCuteCool],[isGirlAnime],[isCuteAnime],[isGirlsLoliAnime]",
    "title": "ANIME_PIC_c07de90068c9a0d8e331ef48ec6dc845",
    "link_img": "https://live.staticflickr.com/65535/51554223597_cb86d0d2fc_o.jpg",
    "id_image": "ANIME_PIC_c07de90068c9a0d8e331ef48ec6dc845",
    "count_view": 0
  },
  {
    "link_thumb": "https://live.staticflickr.com/65535/51555018631_6ee9886144_n.jpg",
    "id_album": "-89234980",
    "description": "ANIME_PIC_c07e8cf4e1fc9792c8ac1381ac2084fc,[GirlsCuteCool],[isGirlAnime],[isCuteAnime],[isGirlsHornsAnime],[isGirlsLoliAnime]",
    "title": "ANIME_PIC_c07e8cf4e1fc9792c8ac1381ac2084fc",
    "link_img": "https://live.staticflickr.com/65535/51555018631_bcce6f3caf_o.jpg",
    "id_image": "ANIME_PIC_c07e8cf4e1fc9792c8ac1381ac2084fc",
    "count_view": 0
  },
  {
    "link_thumb": "https://live.staticflickr.com/65535/51555254298_6c919a5953_n.jpg",
    "id_album": "-89234980",
    "description": "ANIME_PIC_c081f030be986e7e60299282388c0eae,[GirlsCuteCool],[isGirlAnime],[isCuteAnime],[isGirlsLoliAnime],[isSadAnimeGirl],[isSadAnime]",
    "title": "ANIME_PIC_c081f030be986e7e60299282388c0eae",
    "link_img": "https://live.staticflickr.com/65535/51555254298_8c0de1e9e8_o.jpg",
    "id_image": "ANIME_PIC_c081f030be986e7e60299282388c0eae",
    "count_view": 0
  },
  {
    "link_thumb": "https://live.staticflickr.com/65535/51554224387_f3dc7cd39e_n.jpg",
    "id_album": "-89234980",
    "description": "ANIME_PIC_c086328590aacc3ac2502bb8989f31fc,[GirlsCuteCool],[isGirlAnime],[isCuteAnime],[isSadAnimeGirl],[isSadAnime]",
    "title": "ANIME_PIC_c086328590aacc3ac2502bb8989f31fc",
    "link_img": "https://live.staticflickr.com/65535/51554224387_fd70d204ec_o.jpg",
    "id_image": "ANIME_PIC_c086328590aacc3ac2502bb8989f31fc",
    "count_view": 0
  },
  {
    "link_thumb": "https://live.staticflickr.com/65535/51555742804_c029b151e1_n.jpg",
    "id_album": "-89234980",
    "description": "ANIME_PIC_c08784186dde38a7e4a4b23cf6737db5,[GirlsCuteCool],[isGirlAnime],[isCuteAnime],[isGirlsHatsHoodieAnime]",
    "title": "ANIME_PIC_c08784186dde38a7e4a4b23cf6737db5",
    "link_img": "https://live.staticflickr.com/65535/51555742804_336fd71d0f_o.jpg",
    "id_image": "ANIME_PIC_c08784186dde38a7e4a4b23cf6737db5",
    "count_view": 0
  },
  {
    "link_thumb": "https://live.staticflickr.com/65535/51555939065_8c1f99094a_n.jpg",
    "id_album": "-89234980",
    "description": "ANIME_PIC_c090d43532d95248fc5ddc3bab7f5d5d,[GirlsCuteCool],[isGirlAnime],[isCuteAnime],[isGirlsLoliAnime]",
    "title": "ANIME_PIC_c090d43532d95248fc5ddc3bab7f5d5d",
    "link_img": "https://live.staticflickr.com/65535/51555939065_141210e2b4_o.png",
    "id_image": "ANIME_PIC_c090d43532d95248fc5ddc3bab7f5d5d",
    "count_view": 0
  },
  {
    "link_thumb": "https://live.staticflickr.com/65535/51555939540_8505095329_n.jpg",
    "id_album": "-89234980",
    "description": "ANIME_PIC_c094e9975dd316293066ae4a2b5c156d,[GirlsCuteCool],[isGirlAnime],[isCuteAnime],[isGirlsHornsAnime],[isGirlsLoliAnime]",
    "title": "ANIME_PIC_c094e9975dd316293066ae4a2b5c156d",
    "link_img": "https://live.staticflickr.com/65535/51555939540_a7a11666bc_o.jpg",
    "id_image": "ANIME_PIC_c094e9975dd316293066ae4a2b5c156d",
    "count_view": 0
  },
  {
    "link_thumb": "https://live.staticflickr.com/65535/51554225812_490caa94eb_n.jpg",
    "id_album": "-89234980",
    "description": "ANIME_PIC_c0980aec11b8e1939e11c0dfad65f5be,[GirlsCuteCool],[isGirlAnime],[isCuteAnime],[isSadAnimeGirl],[isSadAnime]",
    "title": "ANIME_PIC_c0980aec11b8e1939e11c0dfad65f5be",
    "link_img": "https://live.staticflickr.com/65535/51554225812_f8947b7ebe_o.jpg",
    "id_image": "ANIME_PIC_c0980aec11b8e1939e11c0dfad65f5be",
    "count_view": 0
  },
  {
    "link_thumb": "https://live.staticflickr.com/65535/51555940160_b35df7c378_n.jpg",
    "id_album": "-89234980",
    "description": "ANIME_PIC_c099d0790f4d8dad23046b1cf6359df7,[GirlsCuteCool],[isGirlAnime],[isCuteAnime]",
    "title": "ANIME_PIC_c099d0790f4d8dad23046b1cf6359df7",
    "link_img": "https://live.staticflickr.com/65535/51555940160_ab751784c9_o.jpg",
    "id_image": "ANIME_PIC_c099d0790f4d8dad23046b1cf6359df7",
    "count_view": 0
  },
  {
    "link_thumb": "https://live.staticflickr.com/65535/51554226387_a62d575b1b_n.jpg",
    "id_album": "-89234980",
    "description": "ANIME_PIC_c09d184d425a554be30e30e80539c1a6,[GirlsCuteCool],[isGirlAnime],[isCuteAnime]",
    "title": "ANIME_PIC_c09d184d425a554be30e30e80539c1a6",
    "link_img": "https://live.staticflickr.com/65535/51554226387_901aa47e97_o.png",
    "id_image": "ANIME_PIC_c09d184d425a554be30e30e80539c1a6",
    "count_view": 0
  },
  {
    "link_thumb": "https://live.staticflickr.com/65535/51555257158_becc53678a_n.jpg",
    "id_album": "-89234980",
    "description": "ANIME_PIC_c09d644d023af91ebc5e1fe7c7d900b1,[GirlsCuteCool],[isGirlAnime],[isCuteAnime],[isGirlsLoliAnime]",
    "title": "ANIME_PIC_c09d644d023af91ebc5e1fe7c7d900b1",
    "link_img": "https://live.staticflickr.com/65535/51555257158_512286d652_o.jpg",
    "id_image": "ANIME_PIC_c09d644d023af91ebc5e1fe7c7d900b1",
    "count_view": 0
  },
  {
    "link_thumb": "https://live.staticflickr.com/65535/51555257428_7886c1c5ca_n.jpg",
    "id_album": "-89234980",
    "description": "ANIME_PIC_c0a2941b2114fa1bbca5140a73a1d928,[GirlsCuteCool],[isGirlAnime],[isCuteAnime],[isGirlsLoliAnime]",
    "title": "ANIME_PIC_c0a2941b2114fa1bbca5140a73a1d928",
    "link_img": "https://live.staticflickr.com/65535/51555257428_ef660ee474_o.png",
    "id_image": "ANIME_PIC_c0a2941b2114fa1bbca5140a73a1d928",
    "count_view": 0
  },
  {
    "link_thumb": "https://live.staticflickr.com/65535/51555941680_b5ccef6d3c_n.jpg",
    "id_album": "-89234980",
    "description": "ANIME_PIC_c0a685da7d0f4d64f5512cdf79b719c8,[GirlsCuteCool],[isBoyAnime],[isGirlAnime],[isCuteAnime]",
    "title": "ANIME_PIC_c0a685da7d0f4d64f5512cdf79b719c8",
    "link_img": "https://live.staticflickr.com/65535/51555941680_4f010cdc85_o.jpg",
    "id_image": "ANIME_PIC_c0a685da7d0f4d64f5512cdf79b719c8",
    "count_view": 0
  },
  {
    "link_thumb": "https://live.staticflickr.com/65535/51555746154_804f4e1649_n.jpg",
    "id_album": "-89234980",
    "description": "ANIME_PIC_c0a6cceb1e4d9a7e9ea45de4e0ac6b20,[GirlsCuteCool],[isGirlAnime],[isCuteAnime]",
    "title": "ANIME_PIC_c0a6cceb1e4d9a7e9ea45de4e0ac6b20",
    "link_img": "https://live.staticflickr.com/65535/51555746154_511603dd57_o.jpg",
    "id_image": "ANIME_PIC_c0a6cceb1e4d9a7e9ea45de4e0ac6b20",
    "count_view": 0
  },
  {
    "link_thumb": "https://live.staticflickr.com/65535/51555746469_0da2f5096f_n.jpg",
    "id_album": "-89234980",
    "description": "ANIME_PIC_c0ad21f341b5fbf87a9ba517a40432cf,[GirlsCuteCool],[isGirlAnime],[isCuteAnime],[isGirlsLoliAnime]",
    "title": "ANIME_PIC_c0ad21f341b5fbf87a9ba517a40432cf",
    "link_img": "https://live.staticflickr.com/65535/51555746469_d6b3402601_o.jpg",
    "id_image": "ANIME_PIC_c0ad21f341b5fbf87a9ba517a40432cf",
    "count_view": 0
  },
  {
    "link_thumb": "https://live.staticflickr.com/65535/51555258968_ffd9083c89_n.jpg",
    "id_album": "-89234980",
    "description": "ANIME_PIC_c0af252c6ede8240d74d907dd5b4fe4f,[GirlsCuteCool],[isBoyAnime],[isGirlAnime],[isCuteAnime],[isSadAnimeGirl],[isSadAnime]",
    "title": "ANIME_PIC_c0af252c6ede8240d74d907dd5b4fe4f",
    "link_img": "https://live.staticflickr.com/65535/51555258968_39baa3cd52_o.jpg",
    "id_image": "ANIME_PIC_c0af252c6ede8240d74d907dd5b4fe4f",
    "count_view": 0
  },
  {
    "link_thumb": "https://live.staticflickr.com/65535/51555943015_f5442a8ee6_n.jpg",
    "id_album": "-89234980",
    "description": "ANIME_PIC_c0b08ed7ef4a6dc2fd5d2c2b56e697a8,[GirlsCuteCool],[isGirlAnime],[isCuteAnime]",
    "title": "ANIME_PIC_c0b08ed7ef4a6dc2fd5d2c2b56e697a8",
    "link_img": "https://live.staticflickr.com/65535/51555943015_e7f774c7ea_o.jpg",
    "id_image": "ANIME_PIC_c0b08ed7ef4a6dc2fd5d2c2b56e697a8",
    "count_view": 0
  },
  {
    "link_thumb": "https://live.staticflickr.com/65535/51555943275_177a6245e4_n.jpg",
    "id_album": "-89234980",
    "description": "ANIME_PIC_c0b114792915582d3175dd7cdfe0a2ba,[GirlsCuteCool],[isBoyAnime],[isGirlAnime],[isCuteAnime]",
    "title": "ANIME_PIC_c0b114792915582d3175dd7cdfe0a2ba",
    "link_img": "https://live.staticflickr.com/65535/51555943275_7f0f3e2e4d_o.jpg",
    "id_image": "ANIME_PIC_c0b114792915582d3175dd7cdfe0a2ba",
    "count_view": 0
  },
  {
    "link_thumb": "https://live.staticflickr.com/65535/51555747574_d5dca65b8d_n.jpg",
    "id_album": "-89234980",
    "description": "ANIME_PIC_c0b4250988d8638216adedf2faae1365,[GirlsCuteCool],[isGirlAnime],[isCuteAnime],[isGirlsHatsHoodieAnime]",
    "title": "ANIME_PIC_c0b4250988d8638216adedf2faae1365",
    "link_img": "https://live.staticflickr.com/65535/51555747574_6e14f9dbdc_o.png",
    "id_image": "ANIME_PIC_c0b4250988d8638216adedf2faae1365",
    "count_view": 0
  },
  {
    "link_thumb": "https://live.staticflickr.com/65535/51555024721_5c31fe0254_n.jpg",
    "id_album": "-89234980",
    "description": "ANIME_PIC_c0b71131f8d31b112c56e13e5a59c2b0,[GirlsCuteCool],[isGirlAnime],[isCuteAnime]",
    "title": "ANIME_PIC_c0b71131f8d31b112c56e13e5a59c2b0",
    "link_img": "https://live.staticflickr.com/65535/51555024721_086071a2db_o.png",
    "id_image": "ANIME_PIC_c0b71131f8d31b112c56e13e5a59c2b0",
    "count_view": 0
  },
  {
    "link_thumb": "https://live.staticflickr.com/65535/51555944225_235fd1d17a_n.jpg",
    "id_album": "-89234980",
    "description": "ANIME_PIC_c0b8d401fa364ccb67dbb5f493224735,[GirlsCuteCool],[isGirlAnime],[isCuteAnime],[isGirlsLoliAnime],[isSadAnimeGirl],[isSadAnime]",
    "title": "ANIME_PIC_c0b8d401fa364ccb67dbb5f493224735",
    "link_img": "https://live.staticflickr.com/65535/51555944225_42c40f839e_o.jpg",
    "id_image": "ANIME_PIC_c0b8d401fa364ccb67dbb5f493224735",
    "count_view": 0
  },
  {
    "link_thumb": "https://live.staticflickr.com/65535/51555748589_3726616398_n.jpg",
    "id_album": "-89234980",
    "description": "ANIME_PIC_c0bdc37a3e60f2cbd6bc6c3ec659aad7,[GirlsCuteCool],[isGirlAnime],[isCuteAnime]",
    "title": "ANIME_PIC_c0bdc37a3e60f2cbd6bc6c3ec659aad7",
    "link_img": "https://live.staticflickr.com/65535/51555748589_31cb4d54c7_o.jpg",
    "id_image": "ANIME_PIC_c0bdc37a3e60f2cbd6bc6c3ec659aad7",
    "count_view": 0
  },
  {
    "link_thumb": "https://live.staticflickr.com/65535/51555748904_af459809b7_n.jpg",
    "id_album": "-89234980",
    "description": "ANIME_PIC_c0c1255dc447b7edba4a7fdb51a4a927,[GirlsCuteCool],[isGirlAnime],[isCuteAnime],[isGirlsLoliAnime],[isSadAnimeGirl],[isSadAnime]",
    "title": "ANIME_PIC_c0c1255dc447b7edba4a7fdb51a4a927",
    "link_img": "https://live.staticflickr.com/65535/51555748904_d4b37d0f49_o.jpg",
    "id_image": "ANIME_PIC_c0c1255dc447b7edba4a7fdb51a4a927",
    "count_view": 0
  },
  {
    "link_thumb": "https://live.staticflickr.com/65535/51555261353_e3eb6cdeed_n.jpg",
    "id_album": "-89234980",
    "description": "ANIME_PIC_c0c1f34094b8d6b315854d4ea2daae5e,[GirlsCuteCool],[isGirlAnime],[isCuteAnime],[isGirlsLoliAnime]",
    "title": "ANIME_PIC_c0c1f34094b8d6b315854d4ea2daae5e",
    "link_img": "https://live.staticflickr.com/65535/51555261353_bb4ef69bd6_o.jpg",
    "id_image": "ANIME_PIC_c0c1f34094b8d6b315854d4ea2daae5e",
    "count_view": 0
  },
  {
    "link_thumb": "https://live.staticflickr.com/65535/51554231867_73a6e03ae5_n.jpg",
    "id_album": "-89234980",
    "description": "ANIME_PIC_c0c931b2e4f361d4911218b96ce0c365,[GirlsCuteCool],[isGirlAnime],[isCuteAnime],[isGirlEarsNekoAnime],[isGirlsLoliAnime]",
    "title": "ANIME_PIC_c0c931b2e4f361d4911218b96ce0c365",
    "link_img": "https://live.staticflickr.com/65535/51554231867_11e8671987_o.jpg",
    "id_image": "ANIME_PIC_c0c931b2e4f361d4911218b96ce0c365",
    "count_view": 0
  },
  {
    "link_thumb": "https://live.staticflickr.com/65535/51555262048_2f3694aa75_n.jpg",
    "id_album": "-89234980",
    "description": "ANIME_PIC_c0cacaf4a71583af0ec8539bd5303f39,[GirlsCuteCool],[isGirlAnime],[isCuteAnime],[isGirlsLoliAnime],[isSadAnimeGirl],[isSadAnime]",
    "title": "ANIME_PIC_c0cacaf4a71583af0ec8539bd5303f39",
    "link_img": "https://live.staticflickr.com/65535/51555262048_39643de48f_o.jpg",
    "id_image": "ANIME_PIC_c0cacaf4a71583af0ec8539bd5303f39",
    "count_view": 0
  },
  {
    "link_thumb": "https://live.staticflickr.com/65535/51554232447_20fc855909_n.jpg",
    "id_album": "-89234980",
    "description": "ANIME_PIC_c0cc72448576796d5f2a3fa335701073,[GirlsCuteCool],[isGirlAnime],[isCuteAnime],[isSadAnimeGirl],[isSadAnime]",
    "title": "ANIME_PIC_c0cc72448576796d5f2a3fa335701073",
    "link_img": "https://live.staticflickr.com/65535/51554232447_1b5b4e947d_o.png",
    "id_image": "ANIME_PIC_c0cc72448576796d5f2a3fa335701073",
    "count_view": 0
  },
  {
    "link_thumb": "https://live.staticflickr.com/65535/51555262748_c545383f0d_n.jpg",
    "id_album": "-89234980",
    "description": "ANIME_PIC_c0ccacbce52cf091a33af6935aad4c62,[GirlsCuteCool],[isGirlAnime],[isCuteAnime],[isGirlsLoliAnime],[isSadAnimeGirl],[isSadAnime]",
    "title": "ANIME_PIC_c0ccacbce52cf091a33af6935aad4c62",
    "link_img": "https://live.staticflickr.com/65535/51555262748_644c723bbf_o.png",
    "id_image": "ANIME_PIC_c0ccacbce52cf091a33af6935aad4c62",
    "count_view": 0
  },
  {
    "link_thumb": "https://live.staticflickr.com/65535/51554233312_2bc079f827_n.jpg",
    "id_album": "-89234980",
    "description": "ANIME_PIC_c0ccfc22afa207f9a632e50f1730cd4e,[GirlsCuteCool],[isGirlAnime],[isCuteAnime],[isGirlEarsNekoAnime],[isGirlsLoliAnime],[isGirlsSharpCanineToothAnime]",
    "title": "ANIME_PIC_c0ccfc22afa207f9a632e50f1730cd4e",
    "link_img": "https://live.staticflickr.com/65535/51554233312_174629e16f_o.jpg",
    "id_image": "ANIME_PIC_c0ccfc22afa207f9a632e50f1730cd4e",
    "count_view": 0
  },
  {
    "link_thumb": "https://live.staticflickr.com/65535/51555027831_7d656031f2_n.jpg",
    "id_album": "-89234980",
    "description": "ANIME_PIC_c0cec1baa9c37a054460bc18d7e6288f,[GirlsCuteCool],[isGirlAnime],[isCuteAnime],[isGirlsLoliAnime]",
    "title": "ANIME_PIC_c0cec1baa9c37a054460bc18d7e6288f",
    "link_img": "https://live.staticflickr.com/65535/51555027831_54cfcc9b66_o.jpg",
    "id_image": "ANIME_PIC_c0cec1baa9c37a054460bc18d7e6288f",
    "count_view": 0
  },
  {
    "link_thumb": "https://live.staticflickr.com/65535/51554233852_5deb036f6b_n.jpg",
    "id_album": "-89234980",
    "description": "ANIME_PIC_c0d0df8f3d5922f95dd6616df9591435,[GirlsCuteCool],[isGirlAnime],[isCuteAnime],[isGirlsLoliAnime],[isSceneryArts]",
    "title": "ANIME_PIC_c0d0df8f3d5922f95dd6616df9591435",
    "link_img": "https://live.staticflickr.com/65535/51554233852_edf048cff8_o.jpg",
    "id_image": "ANIME_PIC_c0d0df8f3d5922f95dd6616df9591435",
    "count_view": 0
  },
  {
    "link_thumb": "https://live.staticflickr.com/65535/51555264013_8ddf6c1f9a_n.jpg",
    "id_album": "-89234980",
    "description": "ANIME_PIC_c0d31ff792ab0d7a9255242b094b89f7,[GirlsCuteCool],[isGirlAnime],[isCuteAnime],[isGirlsLoliAnime]",
    "title": "ANIME_PIC_c0d31ff792ab0d7a9255242b094b89f7",
    "link_img": "https://live.staticflickr.com/65535/51555264013_55c5252f4e_o.jpg",
    "id_image": "ANIME_PIC_c0d31ff792ab0d7a9255242b094b89f7",
    "count_view": 0
  },
  {
    "link_thumb": "https://live.staticflickr.com/65535/51554234597_3e912b3b78_n.jpg",
    "id_album": "-89234980",
    "description": "ANIME_PIC_c0d7248ee3e5bf85b6b165a134196fc1,[GirlsCuteCool],[isGirlAnime],[isCuteAnime],[isGirlsLoliAnime],[isSadAnimeGirl],[isSadAnime]",
    "title": "ANIME_PIC_c0d7248ee3e5bf85b6b165a134196fc1",
    "link_img": "https://live.staticflickr.com/65535/51554234597_b3588db1b1_o.jpg",
    "id_image": "ANIME_PIC_c0d7248ee3e5bf85b6b165a134196fc1",
    "count_view": 0
  },
  {
    "link_thumb": "https://live.staticflickr.com/65535/51555752529_39e9472d34_n.jpg",
    "id_album": "-89234980",
    "description": "ANIME_PIC_c0d82cad97238d2c84af57ee3ec10b53,[GirlsCuteCool],[isGirlAnime],[isCuteAnime],[isGirlsLoliAnime],[isSadAnimeGirl],[isSadAnime]",
    "title": "ANIME_PIC_c0d82cad97238d2c84af57ee3ec10b53",
    "link_img": "https://live.staticflickr.com/65535/51555752529_38f557edd1_o.png",
    "id_image": "ANIME_PIC_c0d82cad97238d2c84af57ee3ec10b53",
    "count_view": 0
  },
  {
    "link_thumb": "https://live.staticflickr.com/65535/51555265303_a01138355b_n.jpg",
    "id_album": "-89234980",
    "description": "ANIME_PIC_c0d99d726f9ccf494e90e86ea4186035,[GirlsCuteCool],[isGirlAnime],[isCuteAnime],[isGirlsLoliAnime],[isGirlsSharpCanineToothAnime]",
    "title": "ANIME_PIC_c0d99d726f9ccf494e90e86ea4186035",
    "link_img": "https://live.staticflickr.com/65535/51555265303_4968c04d2b_o.jpg",
    "id_image": "ANIME_PIC_c0d99d726f9ccf494e90e86ea4186035",
    "count_view": 0
  },
  {
    "link_thumb": "https://live.staticflickr.com/65535/51555265648_f5dfee652f_n.jpg",
    "id_album": "-89234980",
    "description": "ANIME_PIC_c0d9eb72968a373d02edc95965daa1f6,[GirlsCuteCool],[isGirlAnime],[isCuteAnime],[isGirlsLoliAnime],[isSadAnimeGirl],[isSadAnime]",
    "title": "ANIME_PIC_c0d9eb72968a373d02edc95965daa1f6",
    "link_img": "https://live.staticflickr.com/65535/51555265648_af90340786_o.jpg",
    "id_image": "ANIME_PIC_c0d9eb72968a373d02edc95965daa1f6",
    "count_view": 0
  },
  {
    "link_thumb": "https://live.staticflickr.com/65535/51555265973_4bcc64a590_n.jpg",
    "id_album": "-89234980",
    "description": "ANIME_PIC_c0dd018e469db91495ec21f3f79d8bfe,[GirlsCuteCool],[isGirlAnime],[isCuteAnime],[isGirlsHatsHoodieAnime],[isGirlsLoliAnime]",
    "title": "ANIME_PIC_c0dd018e469db91495ec21f3f79d8bfe",
    "link_img": "https://live.staticflickr.com/65535/51555265973_333ed613ae_o.jpg",
    "id_image": "ANIME_PIC_c0dd018e469db91495ec21f3f79d8bfe",
    "count_view": 0
  },
  {
    "link_thumb": "https://live.staticflickr.com/65535/51555266383_614201541c_n.jpg",
    "id_album": "-89234980",
    "description": "ANIME_PIC_c0de8775cd561354cd610d8932ec7813,[GirlsCuteCool],[isGirlAnime],[isCuteAnime],[isGirlsHatsHoodieAnime],[isGirlsLoliAnime]",
    "title": "ANIME_PIC_c0de8775cd561354cd610d8932ec7813",
    "link_img": "https://live.staticflickr.com/65535/51555266383_48f2785117_o.png",
    "id_image": "ANIME_PIC_c0de8775cd561354cd610d8932ec7813",
    "count_view": 0
  },
  {
    "link_thumb": "https://live.staticflickr.com/65535/51554236767_52a9f58987_n.jpg",
    "id_album": "-89234980",
    "description": "ANIME_PIC_c0e2557ed1526063e5993219dbd821a6,[GirlsCuteCool],[isGirlAnime],[isCuteAnime],[isGirlsHatsHoodieAnime],[isGirlsLoliAnime]",
    "title": "ANIME_PIC_c0e2557ed1526063e5993219dbd821a6",
    "link_img": "https://live.staticflickr.com/65535/51554236767_730cf708a0_o.jpg",
    "id_image": "ANIME_PIC_c0e2557ed1526063e5993219dbd821a6",
    "count_view": 0
  },
  {
    "link_thumb": "https://live.staticflickr.com/65535/51555031361_998d74b383_n.jpg",
    "id_album": "-89234980",
    "description": "ANIME_PIC_c0e341035785404f53c03f8e87d690d6,[GirlsCuteCool],[isGirlAnime],[isCuteAnime],[isGirlsHatsHoodieAnime],[isGirlsLoliAnime]",
    "title": "ANIME_PIC_c0e341035785404f53c03f8e87d690d6",
    "link_img": "https://live.staticflickr.com/65535/51555031361_db60f12e53_o.png",
    "id_image": "ANIME_PIC_c0e341035785404f53c03f8e87d690d6",
    "count_view": 0
  },
  {
    "link_thumb": "https://live.staticflickr.com/65535/51555031936_1cc2b26792_n.jpg",
    "id_album": "-89234980",
    "description": "ANIME_PIC_c0e72f945b3d15f52c45c445709543cf,[GirlsCuteCool],[isGirlAnime],[isCuteAnime]",
    "title": "ANIME_PIC_c0e72f945b3d15f52c45c445709543cf",
    "link_img": "https://live.staticflickr.com/65535/51555031936_9e999a4a58_o.png",
    "id_image": "ANIME_PIC_c0e72f945b3d15f52c45c445709543cf",
    "count_view": 0
  },
  {
    "link_thumb": "https://live.staticflickr.com/65535/51554238367_a91e8a6e91_n.jpg",
    "id_album": "-89234980",
    "description": "ANIME_PIC_c0e73c8b5a751ebe0a3d6a6b128b9633,[GirlsCuteCool],[isGirlAnime],[isCuteAnime],[isGirlsHatsHoodieAnime],[isGirlsLoliAnime]",
    "title": "ANIME_PIC_c0e73c8b5a751ebe0a3d6a6b128b9633",
    "link_img": "https://live.staticflickr.com/65535/51554238367_7560bdbe66_o.png",
    "id_image": "ANIME_PIC_c0e73c8b5a751ebe0a3d6a6b128b9633",
    "count_view": 0
  },
  {
    "link_thumb": "https://live.staticflickr.com/65535/51555756524_784e976552_n.jpg",
    "id_album": "-89234980",
    "description": "ANIME_PIC_c0e94cc0d71013778b7f6b54a7fad087,[GirlsCuteCool],[isGirlAnime],[isCuteAnime],[isSceneryArts]",
    "title": "ANIME_PIC_c0e94cc0d71013778b7f6b54a7fad087",
    "link_img": "https://live.staticflickr.com/65535/51555756524_3f95928fc4_o.png",
    "id_image": "ANIME_PIC_c0e94cc0d71013778b7f6b54a7fad087",
    "count_view": 0
  },
  {
    "link_thumb": "https://live.staticflickr.com/65535/51555757214_25e20c42fa_n.jpg",
    "id_album": "-89234980",
    "description": "ANIME_PIC_c0eaa3f33b7cb56bc7190fa4097798e9,[GirlsCuteCool],[isBoyAnime],[isCoupleAnime],[isGirlAnime],[isCuteAnime]",
    "title": "ANIME_PIC_c0eaa3f33b7cb56bc7190fa4097798e9",
    "link_img": "https://live.staticflickr.com/65535/51555757214_764b281512_o.png",
    "id_image": "ANIME_PIC_c0eaa3f33b7cb56bc7190fa4097798e9",
    "count_view": 0
  },
  {
    "link_thumb": "https://live.staticflickr.com/65535/51555269913_f5341ff01d_n.jpg",
    "id_album": "-89234980",
    "description": "ANIME_PIC_c0eb9193b0d99e39c3fb50d915dab934,[GirlsCuteCool],[isGirlAnime],[isCuteAnime],[isGirlsLoliAnime],[isSadAnimeGirl],[isSadAnime]",
    "title": "ANIME_PIC_c0eb9193b0d99e39c3fb50d915dab934",
    "link_img": "https://live.staticflickr.com/65535/51555269913_30e6088d02_o.jpg",
    "id_image": "ANIME_PIC_c0eb9193b0d99e39c3fb50d915dab934",
    "count_view": 0
  },
  {
    "link_thumb": "https://live.staticflickr.com/65535/51555953865_e58be66b56_n.jpg",
    "id_album": "-89234980",
    "description": "ANIME_PIC_c0ebb69c7a858c8d060225b8a7742fde,[GirlsCuteCool],[isGirlAnime],[isCuteAnime]",
    "title": "ANIME_PIC_c0ebb69c7a858c8d060225b8a7742fde",
    "link_img": "https://live.staticflickr.com/65535/51555953865_b99481ff18_o.jpg",
    "id_image": "ANIME_PIC_c0ebb69c7a858c8d060225b8a7742fde",
    "count_view": 0
  },
  {
    "link_thumb": "https://live.staticflickr.com/65535/51555034706_eb5dd6e6e4_n.jpg",
    "id_album": "-89234980",
    "description": "ANIME_PIC_c0ed117011b9c61a1e4a3b65e58f0d1c,[GirlsCuteCool],[isGirlAnime],[isCuteAnime]",
    "title": "ANIME_PIC_c0ed117011b9c61a1e4a3b65e58f0d1c",
    "link_img": "https://live.staticflickr.com/65535/51555034706_db28b3ca1b_o.jpg",
    "id_image": "ANIME_PIC_c0ed117011b9c61a1e4a3b65e58f0d1c",
    "count_view": 0
  },
  {
    "link_thumb": "https://live.staticflickr.com/65535/51555034986_5a73a73aa4_n.jpg",
    "id_album": "-89234980",
    "description": "ANIME_PIC_c0f1de8eb07382db66185749b94b24ef,[GirlsCuteCool],[isGirlAnime],[isCuteAnime],[isGirlsLoliAnime]",
    "title": "ANIME_PIC_c0f1de8eb07382db66185749b94b24ef",
    "link_img": "https://live.staticflickr.com/65535/51555034986_90bdcfd01f_o.jpg",
    "id_image": "ANIME_PIC_c0f1de8eb07382db66185749b94b24ef",
    "count_view": 0
  },
  {
    "link_thumb": "https://live.staticflickr.com/65535/51555954750_8822a443a1_n.jpg",
    "id_album": "-89234980",
    "description": "ANIME_PIC_c0f208b113d508d54e25d6531b9e84df,[GirlsCuteCool],[isGirlAnime],[isCuteAnime],[isGirlsLoliAnime],[isSadAnimeGirl],[isSadAnime]",
    "title": "ANIME_PIC_c0f208b113d508d54e25d6531b9e84df",
    "link_img": "https://live.staticflickr.com/65535/51555954750_0a72690fe6_o.jpg",
    "id_image": "ANIME_PIC_c0f208b113d508d54e25d6531b9e84df",
    "count_view": 0
  },
  {
    "link_thumb": "https://live.staticflickr.com/65535/51555955050_2ff900d9c5_n.jpg",
    "id_album": "-89234980",
    "description": "ANIME_PIC_c0f88845b8b4f7a1d613a9bf75fd27b9,[GirlsCuteCool],[isGirlAnime],[isCuteAnime],[isGirlsLoliAnime],[isSadAnimeGirl],[isSadAnime]",
    "title": "ANIME_PIC_c0f88845b8b4f7a1d613a9bf75fd27b9",
    "link_img": "https://live.staticflickr.com/65535/51555955050_c60e937603_o.jpg",
    "id_image": "ANIME_PIC_c0f88845b8b4f7a1d613a9bf75fd27b9",
    "count_view": 0
  },
  {
    "link_thumb": "https://live.staticflickr.com/65535/51554241847_fd9e5de18f_n.jpg",
    "id_album": "-89234980",
    "description": "ANIME_PIC_c0fd2e90b4afff0a11463f3336361d69,[GirlsCuteCool],[isGirlAnime],[isCuteAnime],[isGirlsLoliAnime]",
    "title": "ANIME_PIC_c0fd2e90b4afff0a11463f3336361d69",
    "link_img": "https://live.staticflickr.com/65535/51554241847_8ab318433f_o.jpg",
    "id_image": "ANIME_PIC_c0fd2e90b4afff0a11463f3336361d69",
    "count_view": 0
  },
  {
    "link_thumb": "https://live.staticflickr.com/65535/51554242117_fa9c4f31dd_n.jpg",
    "id_album": "-89234980",
    "description": "ANIME_PIC_c0ff85ed757caac284ab14454ad71309,[GirlsCuteCool],[isGirlAnime],[isCuteAnime],[isSadAnimeGirl],[isSadAnime]",
    "title": "ANIME_PIC_c0ff85ed757caac284ab14454ad71309",
    "link_img": "https://live.staticflickr.com/65535/51554242117_426af35935_o.jpg",
    "id_image": "ANIME_PIC_c0ff85ed757caac284ab14454ad71309",
    "count_view": 0
  },
  {
    "link_thumb": "https://live.staticflickr.com/65535/51554242467_d12a526ede_n.jpg",
    "id_album": "-89234980",
    "description": "ANIME_PIC_c10042942cf3f38d873f314ee819929a,[GirlsCuteCool],[isGirlAnime],[isCuteAnime],[isBlackAnime],[isGirlsLoliAnime]",
    "title": "ANIME_PIC_c10042942cf3f38d873f314ee819929a",
    "link_img": "https://live.staticflickr.com/65535/51554242467_a095d2db8b_o.jpg",
    "id_image": "ANIME_PIC_c10042942cf3f38d873f314ee819929a",
    "count_view": 0
  },
  {
    "link_thumb": "https://live.staticflickr.com/65535/51555036701_a4614aa192_n.jpg",
    "id_album": "-89234980",
    "description": "ANIME_PIC_c100a3970d6a1a4621d2d1c070c04f40,[GirlsCuteCool],[isGirlAnime],[isCuteAnime]",
    "title": "ANIME_PIC_c100a3970d6a1a4621d2d1c070c04f40",
    "link_img": "https://live.staticflickr.com/65535/51555036701_fa1d8f5846_o.jpg",
    "id_image": "ANIME_PIC_c100a3970d6a1a4621d2d1c070c04f40",
    "count_view": 0
  },
  {
    "link_thumb": "https://live.staticflickr.com/65535/51555956415_411df157a0_n.jpg",
    "id_album": "-89234980",
    "description": "ANIME_PIC_c105f41ee0bbf661407bbd1e17d15686,[GirlsCuteCool],[isGirlAnime],[isCuteAnime],[isGirlsHatsHoodieAnime],[isGirlsLoliAnime]",
    "title": "ANIME_PIC_c105f41ee0bbf661407bbd1e17d15686",
    "link_img": "https://live.staticflickr.com/65535/51555956415_a988720f85_o.jpg",
    "id_image": "ANIME_PIC_c105f41ee0bbf661407bbd1e17d15686",
    "count_view": 0
  },
  {
    "link_thumb": "https://live.staticflickr.com/65535/51554243137_f04f4d9a08_n.jpg",
    "id_album": "-89234980",
    "description": "ANIME_PIC_c10799bee072d6a5d571d7f507bbfc0d,[GirlsCuteCool],[isGirlAnime],[isCuteAnime],[isGirlsHatsHoodieAnime]",
    "title": "ANIME_PIC_c10799bee072d6a5d571d7f507bbfc0d",
    "link_img": "https://live.staticflickr.com/65535/51554243137_481454ab41_o.png",
    "id_image": "ANIME_PIC_c10799bee072d6a5d571d7f507bbfc0d",
    "count_view": 0
  },
  {
    "link_thumb": "https://live.staticflickr.com/65535/51555037686_ee8321db36_n.jpg",
    "id_album": "-89234980",
    "description": "ANIME_PIC_c1087450a31f54dba35ba0a9edd03d11,[GirlsCuteCool],[isGirlAnime],[isCuteAnime],[isSadAnimeGirl],[isSadAnime]",
    "title": "ANIME_PIC_c1087450a31f54dba35ba0a9edd03d11",
    "link_img": "https://live.staticflickr.com/65535/51555037686_be046a1e5b_o.png",
    "id_image": "ANIME_PIC_c1087450a31f54dba35ba0a9edd03d11",
    "count_view": 0
  },
  {
    "link_thumb": "https://live.staticflickr.com/65535/51555273758_22b180dccc_n.jpg",
    "id_album": "-89234980",
    "description": "ANIME_PIC_c10d291b0ff3ea4cc466e660f8d01214,[GirlsCuteCool],[isBoyAnime],[isCoupleAnime],[isGirlAnime],[isCuteAnime]",
    "title": "ANIME_PIC_c10d291b0ff3ea4cc466e660f8d01214",
    "link_img": "https://live.staticflickr.com/65535/51555273758_433e0d9f38_o.jpg",
    "id_image": "ANIME_PIC_c10d291b0ff3ea4cc466e660f8d01214",
    "count_view": 0
  },
  {
    "link_thumb": "https://live.staticflickr.com/65535/51555038366_a6074e077c_n.jpg",
    "id_album": "-89234980",
    "description": "ANIME_PIC_c10edca83fb46533d413c9d27b1113b7,[GirlsCuteCool],[isGirlAnime],[isCuteAnime],[isGirlsLoliAnime]",
    "title": "ANIME_PIC_c10edca83fb46533d413c9d27b1113b7",
    "link_img": "https://live.staticflickr.com/65535/51555038366_3e2ed15bb6_o.jpg",
    "id_image": "ANIME_PIC_c10edca83fb46533d413c9d27b1113b7",
    "count_view": 0
  },
  {
    "link_thumb": "https://live.staticflickr.com/65535/51554244497_6b0b1146b6_n.jpg",
    "id_album": "-89234980",
    "description": "ANIME_PIC_c117b67856a5644ca5fdea14c6c2eb7b,[GirlsCuteCool],[isGirlAnime],[isCuteAnime],[isGirlsLoliAnime]",
    "title": "ANIME_PIC_c117b67856a5644ca5fdea14c6c2eb7b",
    "link_img": "https://live.staticflickr.com/65535/51554244497_a68bdf3424_o.jpg",
    "id_image": "ANIME_PIC_c117b67856a5644ca5fdea14c6c2eb7b",
    "count_view": 0
  },
  {
    "link_thumb": "https://live.staticflickr.com/65535/51554244967_9e65e7b591_n.jpg",
    "id_album": "-89234980",
    "description": "ANIME_PIC_c11a45e4b7e66bbc57b834d2ce4a9c02,[GirlsCuteCool],[isGirlAnime],[isCuteAnime],[isGirlsLoliAnime]",
    "title": "ANIME_PIC_c11a45e4b7e66bbc57b834d2ce4a9c02",
    "link_img": "https://live.staticflickr.com/65535/51554244967_1f2baec439_o.jpg",
    "id_image": "ANIME_PIC_c11a45e4b7e66bbc57b834d2ce4a9c02",
    "count_view": 0
  }
]