[
  {
    "link_thumb": "https://live.staticflickr.com/65535/48060991703_2643e5ef48_n.jpg",
    "id_album": "555668899",
    "description": "Touhou_397145",
    "title": "Touhou_397145",
    "link_img": "https://live.staticflickr.com/65535/48060991703_ea97f1f201_o.jpg",
    "id_image": "Touhou_397145",
    "count_view": 0
  },
  {
    "link_thumb": "https://live.staticflickr.com/65535/48061071683_15fb75f414_n.jpg",
    "id_album": "555668899",
    "description": "Touhou_557789",
    "title": "Touhou_557789",
    "link_img": "https://live.staticflickr.com/65535/48061071683_19bd5e013a_o.jpg",
    "id_image": "Touhou_557789",
    "count_view": 0
  },
  {
    "link_thumb": "https://live.staticflickr.com/65535/48062248112_a1059ed2cb_n.jpg",
    "id_album": "555668899",
    "description": "Touhou_770323",
    "title": "Touhou_770323",
    "link_img": "https://live.staticflickr.com/65535/48062248112_6451c8ed34_o.jpg",
    "id_image": "Touhou_770323",
    "count_view": 0
  },
  {
    "link_thumb": "https://live.staticflickr.com/65535/48062374656_47b813805f_n.jpg",
    "id_album": "555668899",
    "description": "Touhou_813622",
    "title": "Touhou_813622",
    "link_img": "https://live.staticflickr.com/65535/48062374656_fbde524004_o.jpg",
    "id_image": "Touhou_813622",
    "count_view": 0
  },
  {
    "link_thumb": "https://live.staticflickr.com/65535/48062474947_e92c029962_n.jpg",
    "id_album": "555668899",
    "description": "Touhou_813822",
    "title": "Touhou_813822",
    "link_img": "https://live.staticflickr.com/65535/48062474947_f6cc1fb89a_o.jpg",
    "id_image": "Touhou_813822",
    "count_view": 0
  },
  {
    "link_thumb": "https://live.staticflickr.com/65535/48062446948_70a1dd83e9_n.jpg",
    "id_album": "555668899",
    "description": "Touhou_825843",
    "title": "Touhou_825843",
    "link_img": "https://live.staticflickr.com/65535/48062446948_6bf27b4383_o.jpg",
    "id_image": "Touhou_825843",
    "count_view": 0
  },
  {
    "link_thumb": "https://live.staticflickr.com/65535/48062508328_0e318d5478_n.jpg",
    "id_album": "555668899",
    "description": "Touhou_846028",
    "title": "Touhou_846028",
    "link_img": "https://live.staticflickr.com/65535/48062508328_abbe4243e7_o.jpg",
    "id_image": "Touhou_846028",
    "count_view": 0
  },
  {
    "link_thumb": "https://live.staticflickr.com/65535/48062621617_1a53d3765e_n.jpg",
    "id_album": "555668899",
    "description": "Touhou_866106",
    "title": "Touhou_866106",
    "link_img": "https://live.staticflickr.com/65535/48062621617_a421e4ee5c_o.jpg",
    "id_image": "Touhou_866106",
    "count_view": 0
  },
  {
    "link_thumb": "https://live.staticflickr.com/65535/48062697592_278bac7b25_n.jpg",
    "id_album": "555668899",
    "description": "Touhou_905813",
    "title": "Touhou_905813",
    "link_img": "https://live.staticflickr.com/65535/48062697592_bda196e023_o.jpg",
    "id_image": "Touhou_905813",
    "count_view": 0
  }
]