[
  {
    "link_thumb": "https://live.staticflickr.com/65535/48065971186_d9cd254360_n.jpg",
    "id_album": "350824612",
    "description": "WilloWisp_776336",
    "title": "WilloWisp_776336",
    "link_img": "https://live.staticflickr.com/65535/48065971186_548355873f_o.jpg",
    "id_image": "WilloWisp_776336",
    "count_view": 0
  },
  {
    "link_thumb": "https://live.staticflickr.com/65535/48066023048_24b81a19ac_n.jpg",
    "id_album": "350824612",
    "description": "WilloWisp_776343",
    "title": "WilloWisp_776343",
    "link_img": "https://live.staticflickr.com/65535/48066023048_3df2922ae3_o.jpg",
    "id_image": "WilloWisp_776343",
    "count_view": 0
  },
  {
    "link_thumb": "https://live.staticflickr.com/65535/48066025973_dcd6aa9493_n.jpg",
    "id_album": "350824612",
    "description": "WilloWisp_776364",
    "title": "WilloWisp_776364",
    "link_img": "https://live.staticflickr.com/65535/48066025973_1bc5f11884_o.jpg",
    "id_image": "WilloWisp_776364",
    "count_view": 0
  },
  {
    "link_thumb": "https://live.staticflickr.com/65535/48066081682_ea08f82a52_n.jpg",
    "id_album": "350824612",
    "description": "WilloWisp_776367",
    "title": "WilloWisp_776367",
    "link_img": "https://live.staticflickr.com/65535/48066081682_402ecabe28_o.jpg",
    "id_image": "WilloWisp_776367",
    "count_view": 0
  }
]