[
  {
    "total_img": 140,
    "number_page": 1,
    "title": "Sakura Saber",
    "tag": "Sakura Saber",
    "description": "Sakura Saber",
    "link_thumb": "https://live.staticflickr.com/65535/48054787471_0ff79b6844_n.jpg",
    "id_album": "-712779443",
    "total_view": 140
  }
]