[
  {
    "link_thumb": "https://live.staticflickr.com/65535/47962957167_bacb8ca033_n.jpg",
    "id_album": "770961812",
    "description": "DarlingintheFranXX_917910",
    "title": "DarlingintheFranXX_917910",
    "link_img": "https://live.staticflickr.com/65535/47962957167_1308cb1e52_o.jpg",
    "id_image": "DarlingintheFranXX_917910",
    "count_view": 0
  },
  {
    "link_thumb": "https://live.staticflickr.com/65535/47999881287_c1fd83bb8b_n.jpg",
    "id_album": "770961812",
    "description": "Hyouka_555557",
    "title": "Hyouka_555557",
    "link_img": "https://live.staticflickr.com/65535/47999881287_d33efff23e_o.jpg",
    "id_image": "Hyouka_555557",
    "count_view": 0
  },
  {
    "link_thumb": "https://live.staticflickr.com/65535/48074886111_bd4af1d6ce_n.jpg",
    "id_album": "770961812",
    "description": "Original_245082",
    "title": "Original_245082",
    "link_img": "https://live.staticflickr.com/65535/48074886111_e538f7c277_o.jpg",
    "id_image": "Original_245082",
    "count_view": 0
  },
  {
    "link_thumb": "https://live.staticflickr.com/65535/48075333162_fcee012609_n.jpg",
    "id_album": "770961812",
    "description": "Original_555130",
    "title": "Original_555130",
    "link_img": "https://live.staticflickr.com/65535/48075333162_4fff162f9b_o.jpg",
    "id_image": "Original_555130",
    "count_view": 0
  },
  {
    "link_thumb": "https://live.staticflickr.com/65535/48077429797_4cf5373d00_n.jpg",
    "id_album": "770961812",
    "description": "Original_788584",
    "title": "Original_788584",
    "link_img": "https://live.staticflickr.com/65535/48077429797_1c0de889bd_o.jpg",
    "id_image": "Original_788584",
    "count_view": 0
  },
  {
    "link_thumb": "https://live.staticflickr.com/65535/48092005241_11d3cb475f_n.jpg",
    "id_album": "770961812",
    "description": "Original_895995",
    "title": "Original_895995",
    "link_img": "https://live.staticflickr.com/65535/48092005241_bcc5b9a2b0_o.jpg",
    "id_image": "Original_895995",
    "count_view": 0
  },
  {
    "link_thumb": "https://live.staticflickr.com/65535/48092317591_8eb4ae87c1_n.jpg",
    "id_album": "770961812",
    "description": "Original_912077",
    "title": "Original_912077",
    "link_img": "https://live.staticflickr.com/65535/48092317591_612c78d54e_o.jpg",
    "id_image": "Original_912077",
    "count_view": 0
  },
  {
    "link_thumb": "https://live.staticflickr.com/65535/48092482581_38fed5204f_n.jpg",
    "id_album": "770961812",
    "description": "Original_917350",
    "title": "Original_917350",
    "link_img": "https://live.staticflickr.com/65535/48092482581_5ef5b497e6_o.jpg",
    "id_image": "Original_917350",
    "count_view": 0
  },
  {
    "link_thumb": "https://live.staticflickr.com/65535/48092522836_84d28848bf_n.jpg",
    "id_album": "770961812",
    "description": "Original_919274",
    "title": "Original_919274",
    "link_img": "https://live.staticflickr.com/65535/48092522836_d82e8ebaff_o.jpg",
    "id_image": "Original_919274",
    "count_view": 0
  },
  {
    "link_thumb": "https://live.staticflickr.com/65535/48092615168_0c63a5a1d4_n.jpg",
    "id_album": "770961812",
    "description": "Original_921892",
    "title": "Original_921892",
    "link_img": "https://live.staticflickr.com/65535/48092615168_5981ce80e6_o.jpg",
    "id_image": "Original_921892",
    "count_view": 0
  },
  {
    "link_thumb": "https://live.staticflickr.com/65535/48058423412_7df4706e0b_n.jpg",
    "id_album": "770961812",
    "description": "SuperSonico_303993",
    "title": "SuperSonico_303993",
    "link_img": "https://live.staticflickr.com/65535/48058423412_3462ef3d06_o.jpg",
    "id_image": "SuperSonico_303993",
    "count_view": 0
  },
  {
    "link_thumb": "https://live.staticflickr.com/65535/48061101561_42533bfac6_n.jpg",
    "id_album": "770961812",
    "description": "Touhou_672901",
    "title": "Touhou_672901",
    "link_img": "https://live.staticflickr.com/65535/48061101561_e20bd7a54c_o.jpg",
    "id_image": "Touhou_672901",
    "count_view": 0
  },
  {
    "link_thumb": "https://live.staticflickr.com/65535/48061362157_490d3c1bf9_n.jpg",
    "id_album": "770961812",
    "description": "Touhou_73773",
    "title": "Touhou_73773",
    "link_img": "https://live.staticflickr.com/65535/48061362157_d17ddb6bed_o.jpg",
    "id_image": "Touhou_73773",
    "count_view": 0
  }
]