[
  {
    "total_img": 10,
    "number_page": 1,
    "title": "RyuuseiKiseki Shooting Probe",
    "tag": "Twink RyuuseiKiseki, Yamanouchi Momo, Tsukuba Himawari, Itokawa Hayato, Mouri Sakura, Itokawa Asuka, RyuuseiKiseki Shooting Probe",
    "description": "RyuuseiKiseki Shooting Probe",
    "link_thumb": "https://live.staticflickr.com/65535/48054733542_747fa705e2_n.jpg",
    "id_album": "2067759357",
    "total_view": 10
  },
  {
    "total_img": 4,
    "number_page": 1,
    "title": "Tsukuba Himawari",
    "tag": "Tsukuba Himawari,",
    "description": "Tsukuba Himawari",
    "link_thumb": "https://live.staticflickr.com/65535/48054737842_b7009de888_n.jpg",
    "id_album": "-1483210054",
    "total_view": 4
  }
]