[
  {
    "link_thumb": "https://live.staticflickr.com/65535/47841669412_4626c824ef_n.jpg",
    "id_album": "-664831049",
    "description": "AssassinationClassroom_518856",
    "title": "AssassinationClassroom_518856",
    "link_img": "https://live.staticflickr.com/65535/47841669412_5d3202c89c_o.jpg",
    "id_image": "AssassinationClassroom_518856",
    "count_view": 0
  },
  {
    "link_thumb": "https://live.staticflickr.com/65535/47841670622_24cdec3b47_n.jpg",
    "id_album": "-664831049",
    "description": "AssassinationClassroom_518857",
    "title": "AssassinationClassroom_518857",
    "link_img": "https://live.staticflickr.com/65535/47841670622_437df5438f_o.jpg",
    "id_image": "AssassinationClassroom_518857",
    "count_view": 0
  },
  {
    "link_thumb": "https://live.staticflickr.com/65535/47893759671_91a695618f_n.jpg",
    "id_album": "-664831049",
    "description": "AssassinationClassroom_602656",
    "title": "AssassinationClassroom_602656",
    "link_img": "https://live.staticflickr.com/65535/47893759671_211d7ff701_o.jpg",
    "id_image": "AssassinationClassroom_602656",
    "count_view": 0
  },
  {
    "link_thumb": "https://live.staticflickr.com/65535/47104450254_3a9b7b776e_n.jpg",
    "id_album": "-664831049",
    "description": "AssassinationClassroom_602658",
    "title": "AssassinationClassroom_602658",
    "link_img": "https://live.staticflickr.com/65535/47104450254_d371980858_o.jpg",
    "id_image": "AssassinationClassroom_602658",
    "count_view": 0
  },
  {
    "link_thumb": "https://live.staticflickr.com/65535/40927358153_f6e595d0b4_n.jpg",
    "id_album": "-664831049",
    "description": "AssassinationClassroom_602659",
    "title": "AssassinationClassroom_602659",
    "link_img": "https://live.staticflickr.com/65535/40927358153_1f9acc8f56_o.jpg",
    "id_image": "AssassinationClassroom_602659",
    "count_view": 0
  },
  {
    "link_thumb": "https://live.staticflickr.com/65535/47893765121_8dbb8e342b_n.jpg",
    "id_album": "-664831049",
    "description": "AssassinationClassroom_605582",
    "title": "AssassinationClassroom_605582",
    "link_img": "https://live.staticflickr.com/65535/47893765121_a2498fd67e_o.jpg",
    "id_image": "AssassinationClassroom_605582",
    "count_view": 0
  },
  {
    "link_thumb": "https://live.staticflickr.com/65535/40927361783_be2197fe60_n.jpg",
    "id_album": "-664831049",
    "description": "AssassinationClassroom_605584",
    "title": "AssassinationClassroom_605584",
    "link_img": "https://live.staticflickr.com/65535/40927361783_c9acc0fd5b_o.jpg",
    "id_image": "AssassinationClassroom_605584",
    "count_view": 0
  },
  {
    "link_thumb": "https://live.staticflickr.com/65535/47841682692_c228b647da_n.jpg",
    "id_album": "-664831049",
    "description": "AssassinationClassroom_605585",
    "title": "AssassinationClassroom_605585",
    "link_img": "https://live.staticflickr.com/65535/47841682692_b0c902887f_o.jpg",
    "id_image": "AssassinationClassroom_605585",
    "count_view": 0
  },
  {
    "link_thumb": "https://live.staticflickr.com/65535/40927365693_1aace34d3f_n.jpg",
    "id_album": "-664831049",
    "description": "AssassinationClassroom_610229",
    "title": "AssassinationClassroom_610229",
    "link_img": "https://live.staticflickr.com/65535/40927365693_1e477f3f36_o.jpg",
    "id_image": "AssassinationClassroom_610229",
    "count_view": 0
  },
  {
    "link_thumb": "https://live.staticflickr.com/65535/47893772421_227105565f_n.jpg",
    "id_album": "-664831049",
    "description": "AssassinationClassroom_610231",
    "title": "AssassinationClassroom_610231",
    "link_img": "https://live.staticflickr.com/65535/47893772421_51a192c7f5_o.jpg",
    "id_image": "AssassinationClassroom_610231",
    "count_view": 0
  },
  {
    "link_thumb": "https://live.staticflickr.com/65535/46977667165_945f5ddf50_n.jpg",
    "id_album": "-664831049",
    "description": "AssassinationClassroom_653546",
    "title": "AssassinationClassroom_653546",
    "link_img": "https://live.staticflickr.com/65535/46977667165_f8fba24431_o.jpg",
    "id_image": "AssassinationClassroom_653546",
    "count_view": 0
  },
  {
    "link_thumb": "https://live.staticflickr.com/65535/40927382013_8ed1289457_n.jpg",
    "id_album": "-664831049",
    "description": "AssassinationClassroom_677963",
    "title": "AssassinationClassroom_677963",
    "link_img": "https://live.staticflickr.com/65535/40927382013_1a34cb9fd7_o.jpg",
    "id_image": "AssassinationClassroom_677963",
    "count_view": 0
  },
  {
    "link_thumb": "https://live.staticflickr.com/65535/47893782131_cc163d5714_n.jpg",
    "id_album": "-664831049",
    "description": "AssassinationClassroom_677964",
    "title": "AssassinationClassroom_677964",
    "link_img": "https://live.staticflickr.com/65535/47893782131_30a406d8e2_o.jpg",
    "id_image": "AssassinationClassroom_677964",
    "count_view": 0
  },
  {
    "link_thumb": "https://live.staticflickr.com/65535/47104478844_378f71294b_n.jpg",
    "id_album": "-664831049",
    "description": "AssassinationClassroom_704254",
    "title": "AssassinationClassroom_704254",
    "link_img": "https://live.staticflickr.com/65535/47104478844_08bac120c5_o.jpg",
    "id_image": "AssassinationClassroom_704254",
    "count_view": 0
  },
  {
    "link_thumb": "https://live.staticflickr.com/65535/40927388813_80f7b65586_n.jpg",
    "id_album": "-664831049",
    "description": "AssassinationClassroom_704255",
    "title": "AssassinationClassroom_704255",
    "link_img": "https://live.staticflickr.com/65535/40927388813_cdb5c72284_o.jpg",
    "id_image": "AssassinationClassroom_704255",
    "count_view": 0
  },
  {
    "link_thumb": "https://live.staticflickr.com/65535/46977675315_5745d6385c_n.jpg",
    "id_album": "-664831049",
    "description": "AssassinationClassroom_710644",
    "title": "AssassinationClassroom_710644",
    "link_img": "https://live.staticflickr.com/65535/46977675315_50cd3062b8_o.jpg",
    "id_image": "AssassinationClassroom_710644",
    "count_view": 0
  },
  {
    "link_thumb": "https://live.staticflickr.com/65535/47841703932_46e84eea3d_n.jpg",
    "id_album": "-664831049",
    "description": "AssassinationClassroom_718826",
    "title": "AssassinationClassroom_718826",
    "link_img": "https://live.staticflickr.com/65535/47841703932_841ef86984_o.jpg",
    "id_image": "AssassinationClassroom_718826",
    "count_view": 0
  },
  {
    "link_thumb": "https://live.staticflickr.com/65535/47104481034_ef71ba0b5c_n.jpg",
    "id_album": "-664831049",
    "description": "AssassinationClassroom_718827",
    "title": "AssassinationClassroom_718827",
    "link_img": "https://live.staticflickr.com/65535/47104481034_6753e1ebe5_o.jpg",
    "id_image": "AssassinationClassroom_718827",
    "count_view": 0
  },
  {
    "link_thumb": "https://live.staticflickr.com/65535/47104482364_35f6001b15_n.jpg",
    "id_album": "-664831049",
    "description": "AssassinationClassroom_718829",
    "title": "AssassinationClassroom_718829",
    "link_img": "https://live.staticflickr.com/65535/47104482364_8e77027090_o.jpg",
    "id_image": "AssassinationClassroom_718829",
    "count_view": 0
  },
  {
    "link_thumb": "https://live.staticflickr.com/65535/47104482984_3c8132c6e1_n.jpg",
    "id_album": "-664831049",
    "description": "AssassinationClassroom_718830",
    "title": "AssassinationClassroom_718830",
    "link_img": "https://live.staticflickr.com/65535/47104482984_a55059c980_o.jpg",
    "id_image": "AssassinationClassroom_718830",
    "count_view": 0
  },
  {
    "link_thumb": "https://live.staticflickr.com/65535/40927394483_baa49fc726_n.jpg",
    "id_album": "-664831049",
    "description": "AssassinationClassroom_718831",
    "title": "AssassinationClassroom_718831",
    "link_img": "https://live.staticflickr.com/65535/40927394483_c422fd60b0_o.jpg",
    "id_image": "AssassinationClassroom_718831",
    "count_view": 0
  },
  {
    "link_thumb": "https://live.staticflickr.com/65535/47893789071_d0f0ef7ee0_n.jpg",
    "id_album": "-664831049",
    "description": "AssassinationClassroom_718832",
    "title": "AssassinationClassroom_718832",
    "link_img": "https://live.staticflickr.com/65535/47893789071_30d5548dcf_o.jpg",
    "id_image": "AssassinationClassroom_718832",
    "count_view": 0
  },
  {
    "link_thumb": "https://live.staticflickr.com/65535/40927395703_a49360d67f_n.jpg",
    "id_album": "-664831049",
    "description": "AssassinationClassroom_745563",
    "title": "AssassinationClassroom_745563",
    "link_img": "https://live.staticflickr.com/65535/40927395703_6a485d65db_o.jpg",
    "id_image": "AssassinationClassroom_745563",
    "count_view": 0
  },
  {
    "link_thumb": "https://live.staticflickr.com/65535/46977680365_f58bcb87ce_n.jpg",
    "id_album": "-664831049",
    "description": "AssassinationClassroom_748353",
    "title": "AssassinationClassroom_748353",
    "link_img": "https://live.staticflickr.com/65535/46977680365_0834e67e3f_o.jpg",
    "id_image": "AssassinationClassroom_748353",
    "count_view": 0
  },
  {
    "link_thumb": "https://live.staticflickr.com/65535/47893790211_d9339b8ac9_n.jpg",
    "id_album": "-664831049",
    "description": "AssassinationClassroom_748355",
    "title": "AssassinationClassroom_748355",
    "link_img": "https://live.staticflickr.com/65535/47893790211_04267992a9_o.jpg",
    "id_image": "AssassinationClassroom_748355",
    "count_view": 0
  },
  {
    "link_thumb": "https://live.staticflickr.com/65535/47104490624_6856db6f52_n.jpg",
    "id_album": "-664831049",
    "description": "AssassinationClassroom_748367",
    "title": "AssassinationClassroom_748367",
    "link_img": "https://live.staticflickr.com/65535/47104490624_d3514f4b44_o.jpg",
    "id_image": "AssassinationClassroom_748367",
    "count_view": 0
  },
  {
    "link_thumb": "https://live.staticflickr.com/65535/47841722942_ef98de5844_n.jpg",
    "id_album": "-664831049",
    "description": "AssassinationClassroom_932741",
    "title": "AssassinationClassroom_932741",
    "link_img": "https://live.staticflickr.com/65535/47841722942_b37944c671_o.jpg",
    "id_image": "AssassinationClassroom_932741",
    "count_view": 0
  },
  {
    "link_thumb": "https://live.staticflickr.com/65535/47960627578_ff24e97fbe_n.jpg",
    "id_album": "-664831049",
    "description": "Crossover_809412",
    "title": "Crossover_809412",
    "link_img": "https://live.staticflickr.com/65535/47960627578_bbd16eb914_o.jpg",
    "id_image": "Crossover_809412",
    "count_view": 0
  }
]