[
  {
    "link_thumb": "https://live.staticflickr.com/65535/40923428583_e558733e43_n.jpg",
    "id_album": "-324575175",
    "description": "AChannel_228331",
    "title": "AChannel_228331",
    "link_img": "https://live.staticflickr.com/65535/40923428583_1d37b7840b_o.jpg",
    "id_image": "AChannel_228331",
    "count_view": 0
  },
  {
    "link_thumb": "https://live.staticflickr.com/65535/47889761171_de49a855af_n.jpg",
    "id_album": "-324575175",
    "description": "AChannel_228332",
    "title": "AChannel_228332",
    "link_img": "https://live.staticflickr.com/65535/47889761171_691bb3047b_o.jpg",
    "id_image": "AChannel_228332",
    "count_view": 0
  },
  {
    "link_thumb": "https://live.staticflickr.com/65535/47889763091_29fa715466_n.jpg",
    "id_album": "-324575175",
    "description": "AChannel_392344",
    "title": "AChannel_392344",
    "link_img": "https://live.staticflickr.com/65535/47889763091_07af455ae5_o.jpg",
    "id_image": "AChannel_392344",
    "count_view": 0
  },
  {
    "link_thumb": "https://live.staticflickr.com/65535/46973673865_965549e215_n.jpg",
    "id_album": "-324575175",
    "description": "AChannel_728140",
    "title": "AChannel_728140",
    "link_img": "https://live.staticflickr.com/65535/46973673865_85e471b10e_o.jpg",
    "id_image": "AChannel_728140",
    "count_view": 0
  },
  {
    "link_thumb": "https://live.staticflickr.com/65535/47889769411_76413e32c9_n.jpg",
    "id_album": "-324575175",
    "description": "AChannel_728625",
    "title": "AChannel_728625",
    "link_img": "https://live.staticflickr.com/65535/47889769411_864cc1865c_o.jpg",
    "id_image": "AChannel_728625",
    "count_view": 0
  },
  {
    "link_thumb": "https://live.staticflickr.com/65535/47889772731_3d070a4673_n.jpg",
    "id_album": "-324575175",
    "description": "AChannel_728629",
    "title": "AChannel_728629",
    "link_img": "https://live.staticflickr.com/65535/47889772731_70d475be4d_o.jpg",
    "id_image": "AChannel_728629",
    "count_view": 0
  },
  {
    "link_thumb": "https://live.staticflickr.com/65535/47100489804_555ba465d1_n.jpg",
    "id_album": "-324575175",
    "description": "AChannel_728632",
    "title": "AChannel_728632",
    "link_img": "https://live.staticflickr.com/65535/47100489804_dbd3216f48_o.jpg",
    "id_image": "AChannel_728632",
    "count_view": 0
  },
  {
    "link_thumb": "https://live.staticflickr.com/65535/46973685635_9f90abe75d_n.jpg",
    "id_album": "-324575175",
    "description": "AChannel_728640",
    "title": "AChannel_728640",
    "link_img": "https://live.staticflickr.com/65535/46973685635_f5b84accd4_o.jpg",
    "id_image": "AChannel_728640",
    "count_view": 0
  },
  {
    "link_thumb": "https://live.staticflickr.com/65535/40923443233_a83ca23116_n.jpg",
    "id_album": "-324575175",
    "description": "AChannel_728643",
    "title": "AChannel_728643",
    "link_img": "https://live.staticflickr.com/65535/40923443233_b869df4f9a_o.jpg",
    "id_image": "AChannel_728643",
    "count_view": 0
  },
  {
    "link_thumb": "https://live.staticflickr.com/65535/40923446343_607b91420b_n.jpg",
    "id_album": "-324575175",
    "description": "AChannel_728646",
    "title": "AChannel_728646",
    "link_img": "https://live.staticflickr.com/65535/40923446343_3232200451_o.jpg",
    "id_image": "AChannel_728646",
    "count_view": 0
  },
  {
    "link_thumb": "https://live.staticflickr.com/65535/40923449373_5f2b998091_n.jpg",
    "id_album": "-324575175",
    "description": "AChannel_728649",
    "title": "AChannel_728649",
    "link_img": "https://live.staticflickr.com/65535/40923449373_82475e6070_o.jpg",
    "id_image": "AChannel_728649",
    "count_view": 0
  },
  {
    "link_thumb": "https://live.staticflickr.com/65535/46973692715_9d969a1fd5_n.jpg",
    "id_album": "-324575175",
    "description": "AChannel_728653",
    "title": "AChannel_728653",
    "link_img": "https://live.staticflickr.com/65535/46973692715_dc12696645_o.jpg",
    "id_image": "AChannel_728653",
    "count_view": 0
  },
  {
    "link_thumb": "https://live.staticflickr.com/65535/49208673918_5e0d52b7a0_n.jpg",
    "id_album": "-324575175",
    "description": "AChannel_728655_1",
    "title": "AChannel_728655_1",
    "link_img": "https://live.staticflickr.com/65535/49208673918_53cb31d49e_o.jpg",
    "id_image": "AChannel_728655_1",
    "count_view": 0
  },
  {
    "link_thumb": "https://live.staticflickr.com/65535/47100508414_3b81c1b9e6_n.jpg",
    "id_album": "-324575175",
    "description": "AChannel_728658",
    "title": "AChannel_728658",
    "link_img": "https://live.staticflickr.com/65535/47100508414_a7d8bbfb6d_o.jpg",
    "id_image": "AChannel_728658",
    "count_view": 0
  }
]