[
  {
    "link_thumb": "https://live.staticflickr.com/65535/48053098686_8059bb25ff_n.jpg",
    "id_album": "-1819372277",
    "description": "ReZEROStartingLifeinAnotherWorld_699770",
    "title": "ReZEROStartingLifeinAnotherWorld_699770",
    "link_img": "https://live.staticflickr.com/65535/48053098686_a61bcc7b50_o.jpg",
    "id_image": "ReZEROStartingLifeinAnotherWorld_699770",
    "count_view": 0
  },
  {
    "link_thumb": "https://live.staticflickr.com/65535/48053147861_517064bfe0_n.jpg",
    "id_album": "-1819372277",
    "description": "ReZEROStartingLifeinAnotherWorld_721604",
    "title": "ReZEROStartingLifeinAnotherWorld_721604",
    "link_img": "https://live.staticflickr.com/65535/48053147861_59320a2090_o.jpg",
    "id_image": "ReZEROStartingLifeinAnotherWorld_721604",
    "count_view": 0
  },
  {
    "link_thumb": "https://live.staticflickr.com/65535/48053196553_725ff27dcc_n.jpg",
    "id_album": "-1819372277",
    "description": "ReZEROStartingLifeinAnotherWorld_724058",
    "title": "ReZEROStartingLifeinAnotherWorld_724058",
    "link_img": "https://live.staticflickr.com/65535/48053196553_65bdcb908b_o.jpg",
    "id_image": "ReZEROStartingLifeinAnotherWorld_724058",
    "count_view": 0
  },
  {
    "link_thumb": "https://live.staticflickr.com/65535/48053206873_05e39a5743_n.jpg",
    "id_album": "-1819372277",
    "description": "ReZEROStartingLifeinAnotherWorld_729212",
    "title": "ReZEROStartingLifeinAnotherWorld_729212",
    "link_img": "https://live.staticflickr.com/65535/48053206873_2854e7ca25_o.jpg",
    "id_image": "ReZEROStartingLifeinAnotherWorld_729212",
    "count_view": 0
  },
  {
    "link_thumb": "https://live.staticflickr.com/65535/48053256417_1606735fd8_n.jpg",
    "id_album": "-1819372277",
    "description": "ReZEROStartingLifeinAnotherWorld_729544",
    "title": "ReZEROStartingLifeinAnotherWorld_729544",
    "link_img": "https://live.staticflickr.com/65535/48053256417_6258ec8999_o.jpg",
    "id_image": "ReZEROStartingLifeinAnotherWorld_729544",
    "count_view": 0
  },
  {
    "link_thumb": "https://live.staticflickr.com/65535/48053228281_ea9564da78_n.jpg",
    "id_album": "-1819372277",
    "description": "ReZEROStartingLifeinAnotherWorld_739141",
    "title": "ReZEROStartingLifeinAnotherWorld_739141",
    "link_img": "https://live.staticflickr.com/65535/48053228281_8c72fc6c7b_o.jpg",
    "id_image": "ReZEROStartingLifeinAnotherWorld_739141",
    "count_view": 0
  },
  {
    "link_thumb": "https://live.staticflickr.com/65535/48053228876_2ef6564a46_n.jpg",
    "id_album": "-1819372277",
    "description": "ReZEROStartingLifeinAnotherWorld_739397",
    "title": "ReZEROStartingLifeinAnotherWorld_739397",
    "link_img": "https://live.staticflickr.com/65535/48053228876_a086d59f48_o.jpg",
    "id_image": "ReZEROStartingLifeinAnotherWorld_739397",
    "count_view": 0
  },
  {
    "link_thumb": "https://live.staticflickr.com/65535/48053229416_b254f7f13b_n.jpg",
    "id_album": "-1819372277",
    "description": "ReZEROStartingLifeinAnotherWorld_739418",
    "title": "ReZEROStartingLifeinAnotherWorld_739418",
    "link_img": "https://live.staticflickr.com/65535/48053229416_2aa0b2aef8_o.jpg",
    "id_image": "ReZEROStartingLifeinAnotherWorld_739418",
    "count_view": 0
  },
  {
    "link_thumb": "https://live.staticflickr.com/65535/48053363373_41fb6b181c_n.jpg",
    "id_album": "-1819372277",
    "description": "ReZEROStartingLifeinAnotherWorld_794001",
    "title": "ReZEROStartingLifeinAnotherWorld_794001",
    "link_img": "https://live.staticflickr.com/65535/48053363373_0a2effa6ff_o.jpg",
    "id_image": "ReZEROStartingLifeinAnotherWorld_794001",
    "count_view": 0
  },
  {
    "link_thumb": "https://live.staticflickr.com/65535/48053391881_0449d9beb8_n.jpg",
    "id_album": "-1819372277",
    "description": "ReZEROStartingLifeinAnotherWorld_890789",
    "title": "ReZEROStartingLifeinAnotherWorld_890789",
    "link_img": "https://live.staticflickr.com/65535/48053391881_50bb37d149_o.jpg",
    "id_image": "ReZEROStartingLifeinAnotherWorld_890789",
    "count_view": 0
  }
]