[
  {
    "link_thumb": "https://live.staticflickr.com/65535/51565709756_0a1ac97a84_n.jpg",
    "id_album": "1650283598",
    "description": "ANIME_PIC_bc1c96fd5b33c0867d067f3e1f82d9d3,[GirlsSad],[isGirlAnime],[isSadAnimeGirl],[isSadAnime]",
    "title": "ANIME_PIC_bc1c96fd5b33c0867d067f3e1f82d9d3",
    "link_img": "https://live.staticflickr.com/65535/51565709756_64ed67ca20_o.png",
    "id_image": "ANIME_PIC_bc1c96fd5b33c0867d067f3e1f82d9d3",
    "count_view": 0
  },
  {
    "link_thumb": "https://live.staticflickr.com/65535/51565710296_c01caa83c0_n.jpg",
    "id_album": "1650283598",
    "description": "ANIME_PIC_bc29176a4171969d20d97911d32e23cd,[GirlsSad],[isGirlAnime],[isCuteAnime],[isGirlsHatsHoodieAnime],[isGirlsLoliAnime],[isSadAnimeGirl],[isSadAnime]",
    "title": "ANIME_PIC_bc29176a4171969d20d97911d32e23cd",
    "link_img": "https://live.staticflickr.com/65535/51565710296_aafe9cbf67_o.jpg",
    "id_image": "ANIME_PIC_bc29176a4171969d20d97911d32e23cd",
    "count_view": 0
  },
  {
    "link_thumb": "https://live.staticflickr.com/65535/51566401344_a5b5119e95_n.jpg",
    "id_album": "1650283598",
    "description": "ANIME_PIC_bc5954520567b5f3cb37283d2b3be94a,[GirlsSad],[isGirlAnime],[isCuteAnime],[isGirlsHatsHoodieAnime],[isGirlsLoliAnime],[isSadAnimeGirl],[isSadAnime]",
    "title": "ANIME_PIC_bc5954520567b5f3cb37283d2b3be94a",
    "link_img": "https://live.staticflickr.com/65535/51566401344_2e527ecc72_o.jpg",
    "id_image": "ANIME_PIC_bc5954520567b5f3cb37283d2b3be94a",
    "count_view": 0
  },
  {
    "link_thumb": "https://live.staticflickr.com/65535/51564920432_8f5ac4bf69_n.jpg",
    "id_album": "1650283598",
    "description": "ANIME_PIC_bc5a2172303b3c508538e1a56ad04a07,[GirlsSad],[isGirlAnime],[isCuteAnime],[isSadAnimeGirl],[isSadAnime]",
    "title": "ANIME_PIC_bc5a2172303b3c508538e1a56ad04a07",
    "link_img": "https://live.staticflickr.com/65535/51564920432_4837ac6e24_o.jpg",
    "id_image": "ANIME_PIC_bc5a2172303b3c508538e1a56ad04a07",
    "count_view": 0
  },
  {
    "link_thumb": "https://live.staticflickr.com/65535/51566649375_4dcef54a88_n.jpg",
    "id_album": "1650283598",
    "description": "ANIME_PIC_bc6cd1c75cb78f518df19ba0b7280829,[GirlsSad],[isGirlAnime],[isCuteAnime],[isGirlsLoliAnime],[isSadAnimeGirl],[isSadAnime]",
    "title": "ANIME_PIC_bc6cd1c75cb78f518df19ba0b7280829",
    "link_img": "https://live.staticflickr.com/65535/51566649375_3316e54c75_o.png",
    "id_image": "ANIME_PIC_bc6cd1c75cb78f518df19ba0b7280829",
    "count_view": 0
  },
  {
    "link_thumb": "https://live.staticflickr.com/65535/51565712296_dda3bb2bae_n.jpg",
    "id_album": "1650283598",
    "description": "ANIME_PIC_bc72c230ddd10efa389f9eec3e832539,[GirlsSad],[isGirlAnime],[isCuteAnime],[isGirlsLoliAnime],[isSadAnimeGirl],[isSadAnime]",
    "title": "ANIME_PIC_bc72c230ddd10efa389f9eec3e832539",
    "link_img": "https://live.staticflickr.com/65535/51565712296_fcb2507aa4_o.png",
    "id_image": "ANIME_PIC_bc72c230ddd10efa389f9eec3e832539",
    "count_view": 0
  },
  {
    "link_thumb": "https://live.staticflickr.com/65535/51566650510_590645aa96_n.jpg",
    "id_album": "1650283598",
    "description": "ANIME_PIC_bc75a3dfae09967d7d084e62b073bd46,[GirlsSad],[isGirlAnime],[isCuteAnime],[isSadAnimeGirl],[isSadAnime]",
    "title": "ANIME_PIC_bc75a3dfae09967d7d084e62b073bd46",
    "link_img": "https://live.staticflickr.com/65535/51566650510_a2339a358e_o.png",
    "id_image": "ANIME_PIC_bc75a3dfae09967d7d084e62b073bd46",
    "count_view": 0
  },
  {
    "link_thumb": "https://live.staticflickr.com/65535/51565959038_88d1dd0068_n.jpg",
    "id_album": "1650283598",
    "description": "ANIME_PIC_bc76cc148feff7c220a2184375918ac1,[GirlsSad],[isGirlAnime],[isCuteAnime],[isGirlsHatsHoodieAnime],[isGirlsLoliAnime],[isSadAnimeGirl],[isSadAnime]",
    "title": "ANIME_PIC_bc76cc148feff7c220a2184375918ac1",
    "link_img": "https://live.staticflickr.com/65535/51565959038_d863c7ec99_o.jpg",
    "id_image": "ANIME_PIC_bc76cc148feff7c220a2184375918ac1",
    "count_view": 0
  },
  {
    "link_thumb": "https://live.staticflickr.com/65535/51565713576_88184ecb6d_n.jpg",
    "id_album": "1650283598",
    "description": "ANIME_PIC_bc79a52bbac5759e149ab9120c3e6bd7,[GirlsSad],[isGirlAnime],[isSadAnimeGirl],[isSadAnime]",
    "title": "ANIME_PIC_bc79a52bbac5759e149ab9120c3e6bd7",
    "link_img": "https://live.staticflickr.com/65535/51565713576_fe8fb48e0f_o.jpg",
    "id_image": "ANIME_PIC_bc79a52bbac5759e149ab9120c3e6bd7",
    "count_view": 0
  },
  {
    "link_thumb": "https://live.staticflickr.com/65535/51565959783_5a369c048c_n.jpg",
    "id_album": "1650283598",
    "description": "ANIME_PIC_bc7a4acbef28993de25f8f2ba99906ea,[GirlsSad],[isGirlAnime],[isCuteAnime],[isGirlsLoliAnime],[isSadAnimeGirl],[isSadAnime]",
    "title": "ANIME_PIC_bc7a4acbef28993de25f8f2ba99906ea",
    "link_img": "https://live.staticflickr.com/65535/51565959783_36528c38e1_o.jpg",
    "id_image": "ANIME_PIC_bc7a4acbef28993de25f8f2ba99906ea",
    "count_view": 0
  },
  {
    "link_thumb": "https://live.staticflickr.com/65535/51565714211_4089705f55_n.jpg",
    "id_album": "1650283598",
    "description": "ANIME_PIC_bc8f9ef0409be8917f2afc0e4e935d49,[GirlsSad],[isGirlAnime],[isCuteAnime],[isSadAnimeGirl],[isSadAnime]",
    "title": "ANIME_PIC_bc8f9ef0409be8917f2afc0e4e935d49",
    "link_img": "https://live.staticflickr.com/65535/51565714211_367c9c8c68_o.png",
    "id_image": "ANIME_PIC_bc8f9ef0409be8917f2afc0e4e935d49",
    "count_view": 0
  },
  {
    "link_thumb": "https://live.staticflickr.com/65535/51566405529_1a45841dd6_n.jpg",
    "id_album": "1650283598",
    "description": "ANIME_PIC_bc99d3f14418021aa3d390a546801ab0,[GirlsSad],[isGirlAnime],[isCuteAnime],[isSadAnimeGirl],[isSadAnime]",
    "title": "ANIME_PIC_bc99d3f14418021aa3d390a546801ab0",
    "link_img": "https://live.staticflickr.com/65535/51566405529_692ee6e090_o.png",
    "id_image": "ANIME_PIC_bc99d3f14418021aa3d390a546801ab0",
    "count_view": 0
  },
  {
    "link_thumb": "https://live.staticflickr.com/65535/51566406084_bcda87ba40_n.jpg",
    "id_album": "1650283598",
    "description": "ANIME_PIC_bc9d65c4400c9f2e6bdd5caae0877af2,[GirlsSad],[isGirlAnime],[isCuteAnime],[isGirlsLoliAnime],[isSadAnimeGirl],[isSadAnime]",
    "title": "ANIME_PIC_bc9d65c4400c9f2e6bdd5caae0877af2",
    "link_img": "https://live.staticflickr.com/65535/51566406084_e394c1e96a_o.jpg",
    "id_image": "ANIME_PIC_bc9d65c4400c9f2e6bdd5caae0877af2",
    "count_view": 0
  },
  {
    "link_thumb": "https://live.staticflickr.com/65535/51564925007_9558573b8f_n.jpg",
    "id_album": "1650283598",
    "description": "ANIME_PIC_bca47aa71cff49c3bb8cdfca12026f4a,[GirlsSad],[isGirlAnime],[isCuteAnime],[isGirlsHatsHoodieAnime],[isGirlsLoliAnime],[isSadAnimeGirl],[isSadAnime]",
    "title": "ANIME_PIC_bca47aa71cff49c3bb8cdfca12026f4a",
    "link_img": "https://live.staticflickr.com/65535/51564925007_3aecfca3da_o.jpg",
    "id_image": "ANIME_PIC_bca47aa71cff49c3bb8cdfca12026f4a",
    "count_view": 0
  },
  {
    "link_thumb": "https://live.staticflickr.com/65535/51564925357_2dcc3d9275_n.jpg",
    "id_album": "1650283598",
    "description": "ANIME_PIC_bcaecd2fd0d7c369dafbf948daf8fea7,[GirlsSad],[isGirlAnime],[isCuteAnime],[isGirlsLoliAnime],[isSadAnimeGirl],[isSadAnime]",
    "title": "ANIME_PIC_bcaecd2fd0d7c369dafbf948daf8fea7",
    "link_img": "https://live.staticflickr.com/65535/51564925357_496112125b_o.png",
    "id_image": "ANIME_PIC_bcaecd2fd0d7c369dafbf948daf8fea7",
    "count_view": 0
  },
  {
    "link_thumb": "https://live.staticflickr.com/65535/51566654005_4713f71207_n.jpg",
    "id_album": "1650283598",
    "description": "ANIME_PIC_bcb8883f011faa89f3100ad46f6cda0a,[GirlsSad],[isGirlAnime],[isCuteAnime],[isGirlEarsNekoAnime],[isGirlsLoliAnime],[isSadAnimeGirl],[isSadAnime]",
    "title": "ANIME_PIC_bcb8883f011faa89f3100ad46f6cda0a",
    "link_img": "https://live.staticflickr.com/65535/51566654005_92a9fb6ceb_o.png",
    "id_image": "ANIME_PIC_bcb8883f011faa89f3100ad46f6cda0a",
    "count_view": 0
  },
  {
    "link_thumb": "https://live.staticflickr.com/65535/49799329091_a186318758_n.jpg",
    "id_album": "1650283598",
    "description": "ANIME_PIC_bcc57ced6bdf31ae96c14091e6d7e77c,[isGirlAnime],[isSadAnime],[isSadAnimeGirl],[isCuteAnime],[Girls Sad],[GirlsSad]",
    "title": "ANIME_PIC_bcc57ced6bdf31ae96c14091e6d7e77c",
    "link_img": "https://live.staticflickr.com/65535/49799329091_2e0df380aa_o.jpg",
    "id_image": "ANIME_PIC_bcc57ced6bdf31ae96c14091e6d7e77c",
    "count_view": 0
  },
  {
    "link_thumb": "https://live.staticflickr.com/65535/51566654480_5743dd7ed4_n.jpg",
    "id_album": "1650283598",
    "description": "ANIME_PIC_bccd7c321aef063033f2049987425959,[GirlsSad],[isGirlAnime],[isCuteAnime],[isSadAnimeGirl],[isSadAnime]",
    "title": "ANIME_PIC_bccd7c321aef063033f2049987425959",
    "link_img": "https://live.staticflickr.com/65535/51566654480_807b893c68_o.jpg",
    "id_image": "ANIME_PIC_bccd7c321aef063033f2049987425959",
    "count_view": 0
  },
  {
    "link_thumb": "https://live.staticflickr.com/65535/51564926542_2bd2f7eeed_n.jpg",
    "id_album": "1650283598",
    "description": "ANIME_PIC_bcd743dafbfd82b4f93fb3865bde48cd,[GirlsSad],[isGirlAnime],[isCuteAnime],[isGirlsHatsHoodieAnime],[isGirlsLoliAnime],[isSadAnimeGirl],[isSadAnime]",
    "title": "ANIME_PIC_bcd743dafbfd82b4f93fb3865bde48cd",
    "link_img": "https://live.staticflickr.com/65535/51564926542_3998c19632_o.jpg",
    "id_image": "ANIME_PIC_bcd743dafbfd82b4f93fb3865bde48cd",
    "count_view": 0
  },
  {
    "link_thumb": "https://live.staticflickr.com/65535/51566407959_66e20bda1a_n.jpg",
    "id_album": "1650283598",
    "description": "ANIME_PIC_bcf4192803ae5032454206ec107af18b,[GirlsSad],[isGirlAnime],[isCuteAnime],[isSadAnimeGirl],[isSadAnime]",
    "title": "ANIME_PIC_bcf4192803ae5032454206ec107af18b",
    "link_img": "https://live.staticflickr.com/65535/51566407959_e75dfb09f3_o.png",
    "id_image": "ANIME_PIC_bcf4192803ae5032454206ec107af18b",
    "count_view": 0
  },
  {
    "link_thumb": "https://live.staticflickr.com/65535/51565963618_b99843779c_n.jpg",
    "id_album": "1650283598",
    "description": "ANIME_PIC_bcfa8f894ac778b750800131085bdddd,[GirlsSad],[isGirlAnime],[isCuteAnime],[isGirlsLoliAnime],[isSadAnimeGirl],[isSadAnime]",
    "title": "ANIME_PIC_bcfa8f894ac778b750800131085bdddd",
    "link_img": "https://live.staticflickr.com/65535/51565963618_513f609277_o.jpg",
    "id_image": "ANIME_PIC_bcfa8f894ac778b750800131085bdddd",
    "count_view": 0
  },
  {
    "link_thumb": "https://live.staticflickr.com/65535/51565718051_7d173d45d5_n.jpg",
    "id_album": "1650283598",
    "description": "ANIME_PIC_bd0061869fee4efeb80d8666e80f4fd1,[GirlsSad],[isGirlAnime],[isCuteAnime],[isGirlsLoliAnime],[isSadAnimeGirl],[isSadAnime]",
    "title": "ANIME_PIC_bd0061869fee4efeb80d8666e80f4fd1",
    "link_img": "https://live.staticflickr.com/65535/51565718051_1b4daa778d_o.png",
    "id_image": "ANIME_PIC_bd0061869fee4efeb80d8666e80f4fd1",
    "count_view": 0
  },
  {
    "link_thumb": "https://live.staticflickr.com/65535/51566409054_4603581dcc_n.jpg",
    "id_album": "1650283598",
    "description": "ANIME_PIC_bd0a9c9823173597efbbf316e7d89048,[GirlsSad],[isGirlAnime],[isCuteAnime],[isSadAnimeGirl],[isSadAnime]",
    "title": "ANIME_PIC_bd0a9c9823173597efbbf316e7d89048",
    "link_img": "https://live.staticflickr.com/65535/51566409054_c59fc6a6a1_o.jpg",
    "id_image": "ANIME_PIC_bd0a9c9823173597efbbf316e7d89048",
    "count_view": 0
  },
  {
    "link_thumb": "https://live.staticflickr.com/65535/51564928252_41bb03682d_n.jpg",
    "id_album": "1650283598",
    "description": "ANIME_PIC_bd118beb65c610fef0e5df4c10410617,[GirlsSad],[isGirlAnime],[isCuteAnime],[isSadAnimeGirl],[isSadAnime]",
    "title": "ANIME_PIC_bd118beb65c610fef0e5df4c10410617",
    "link_img": "https://live.staticflickr.com/65535/51564928252_79b2cf16b8_o.png",
    "id_image": "ANIME_PIC_bd118beb65c610fef0e5df4c10410617",
    "count_view": 0
  },
  {
    "link_thumb": "https://live.staticflickr.com/65535/51565719261_869fb4f40e_n.jpg",
    "id_album": "1650283598",
    "description": "ANIME_PIC_bd14ee04dcb3a47b4e06609dfec655e3,[GirlsSad],[isGirlAnime],[isCuteAnime],[isSadAnimeGirl],[isSadAnime]",
    "title": "ANIME_PIC_bd14ee04dcb3a47b4e06609dfec655e3",
    "link_img": "https://live.staticflickr.com/65535/51565719261_9d93bdc83a_o.jpg",
    "id_image": "ANIME_PIC_bd14ee04dcb3a47b4e06609dfec655e3",
    "count_view": 0
  },
  {
    "link_thumb": "https://live.staticflickr.com/65535/51565965653_80dc9f9ef6_n.jpg",
    "id_album": "1650283598",
    "description": "ANIME_PIC_bd22f06878a788e750197a9e31a3769a,[GirlsSad],[isGirlAnime],[isBlackAnime],[isSadAnimeGirl],[isSadAnime]",
    "title": "ANIME_PIC_bd22f06878a788e750197a9e31a3769a",
    "link_img": "https://live.staticflickr.com/65535/51565965653_f62fa6c3e1_o.jpg",
    "id_image": "ANIME_PIC_bd22f06878a788e750197a9e31a3769a",
    "count_view": 0
  },
  {
    "link_thumb": "https://live.staticflickr.com/65535/51565965898_6632683e95_n.jpg",
    "id_album": "1650283598",
    "description": "ANIME_PIC_bd31799cc49f4b20fff456a84a5ec71b,[GirlsSad],[isGirlAnime],[isCuteAnime],[isGirlsLoliAnime],[isSadAnimeGirl],[isSadAnime]",
    "title": "ANIME_PIC_bd31799cc49f4b20fff456a84a5ec71b",
    "link_img": "https://live.staticflickr.com/65535/51565965898_615614c028_o.png",
    "id_image": "ANIME_PIC_bd31799cc49f4b20fff456a84a5ec71b",
    "count_view": 0
  },
  {
    "link_thumb": "https://live.staticflickr.com/65535/51565966318_a7be751c7b_n.jpg",
    "id_album": "1650283598",
    "description": "ANIME_PIC_bd35aa8ff8b1e9a5655074473b0c49a3,[GirlsSad],[isGirlAnime],[isSadAnimeGirl],[isSadAnime]",
    "title": "ANIME_PIC_bd35aa8ff8b1e9a5655074473b0c49a3",
    "link_img": "https://live.staticflickr.com/65535/51565966318_2934022a3a_o.jpg",
    "id_image": "ANIME_PIC_bd35aa8ff8b1e9a5655074473b0c49a3",
    "count_view": 0
  },
  {
    "link_thumb": "https://live.staticflickr.com/65535/51564930172_570e75cd95_n.jpg",
    "id_album": "1650283598",
    "description": "ANIME_PIC_bd49aaf6926eab7cfa865b8fff86c4d4,[GirlsSad],[isGirlAnime],[isCuteAnime],[isGirlsHatsHoodieAnime],[isGirlsLoliAnime],[isSadAnimeGirl],[isSadAnime]",
    "title": "ANIME_PIC_bd49aaf6926eab7cfa865b8fff86c4d4",
    "link_img": "https://live.staticflickr.com/65535/51564930172_7793ea375d_o.jpg",
    "id_image": "ANIME_PIC_bd49aaf6926eab7cfa865b8fff86c4d4",
    "count_view": 0
  },
  {
    "link_thumb": "https://live.staticflickr.com/65535/51565966733_9ab376952e_n.jpg",
    "id_album": "1650283598",
    "description": "ANIME_PIC_bd5a584da0938aa738a3ff4be6af02fd,[GirlsSad],[isGirlAnime],[isCuteAnime],[isGirlsLoliAnime],[isSadAnimeGirl],[isSadAnime]",
    "title": "ANIME_PIC_bd5a584da0938aa738a3ff4be6af02fd",
    "link_img": "https://live.staticflickr.com/65535/51565966733_4323fb823f_o.png",
    "id_image": "ANIME_PIC_bd5a584da0938aa738a3ff4be6af02fd",
    "count_view": 0
  },
  {
    "link_thumb": "https://live.staticflickr.com/65535/51566411894_0d40c2c84f_n.jpg",
    "id_album": "1650283598",
    "description": "ANIME_PIC_bd5dac74826e6cc898cbfedd2dd6a620,[GirlsSad],[isGirlAnime],[isCuteAnime],[isGirlEarsNekoAnime],[isGirlFaceMasksAnime],[isGirlsLoliAnime],[isSadAnimeGirl],[isSadAnime]",
    "title": "ANIME_PIC_bd5dac74826e6cc898cbfedd2dd6a620",
    "link_img": "https://live.staticflickr.com/65535/51566411894_37e2a2e343_o.jpg",
    "id_image": "ANIME_PIC_bd5dac74826e6cc898cbfedd2dd6a620",
    "count_view": 0
  },
  {
    "link_thumb": "https://live.staticflickr.com/65535/51565721316_ddb41dfcae_n.jpg",
    "id_album": "1650283598",
    "description": "ANIME_PIC_bd6dc1d31e09e9b13dd1c2086ea6d135,[GirlsSad],[isGirlAnime],[isCuteAnime],[isSadAnimeGirl],[isSadAnime]",
    "title": "ANIME_PIC_bd6dc1d31e09e9b13dd1c2086ea6d135",
    "link_img": "https://live.staticflickr.com/65535/51565721316_f768e365f7_o.png",
    "id_image": "ANIME_PIC_bd6dc1d31e09e9b13dd1c2086ea6d135",
    "count_view": 0
  },
  {
    "link_thumb": "https://live.staticflickr.com/65535/51566412699_ae6fd1d0d6_n.jpg",
    "id_album": "1650283598",
    "description": "ANIME_PIC_bd6e2748cfe821638c45b4af76f77c13,[GirlsSad],[isGirlAnime],[isCuteAnime],[isSadAnimeGirl],[isSadAnime]",
    "title": "ANIME_PIC_bd6e2748cfe821638c45b4af76f77c13",
    "link_img": "https://live.staticflickr.com/65535/51566412699_823711b225_o.jpg",
    "id_image": "ANIME_PIC_bd6e2748cfe821638c45b4af76f77c13",
    "count_view": 0
  },
  {
    "link_thumb": "https://live.staticflickr.com/65535/51566660175_97a54d7654_n.jpg",
    "id_album": "1650283598",
    "description": "ANIME_PIC_bd6e71d10a0918ac3ececb9f5535f4b7,[GirlsSad],[isGirlAnime],[isCuteAnime],[isSadAnimeGirl],[isSadAnime]",
    "title": "ANIME_PIC_bd6e71d10a0918ac3ececb9f5535f4b7",
    "link_img": "https://live.staticflickr.com/65535/51566660175_0f03f5833a_o.png",
    "id_image": "ANIME_PIC_bd6e71d10a0918ac3ececb9f5535f4b7",
    "count_view": 0
  },
  {
    "link_thumb": "https://live.staticflickr.com/65535/51564932337_39ef6b551a_n.jpg",
    "id_album": "1650283598",
    "description": "ANIME_PIC_bd87bd10eb0dcc8a126014fe54a05f8d,[GirlsSad],[isGirlAnime],[isCuteAnime],[isSadAnimeGirl],[isSadAnime]",
    "title": "ANIME_PIC_bd87bd10eb0dcc8a126014fe54a05f8d",
    "link_img": "https://live.staticflickr.com/65535/51564932337_a192eafb95_o.jpg",
    "id_image": "ANIME_PIC_bd87bd10eb0dcc8a126014fe54a05f8d",
    "count_view": 0
  },
  {
    "link_thumb": "https://live.staticflickr.com/65535/51565968748_f41d78303a_n.jpg",
    "id_album": "1650283598",
    "description": "ANIME_PIC_bda3d4c5bf846e0512368aa381cfbbaf,[GirlsSad],[isGirlAnime],[isCuteAnime],[isGirlsLoliAnime],[isSadAnimeGirl],[isSadAnime]",
    "title": "ANIME_PIC_bda3d4c5bf846e0512368aa381cfbbaf",
    "link_img": "https://live.staticflickr.com/65535/51565968748_7f4feb3231_o.jpg",
    "id_image": "ANIME_PIC_bda3d4c5bf846e0512368aa381cfbbaf",
    "count_view": 0
  },
  {
    "link_thumb": "https://live.staticflickr.com/65535/51566661025_6e12b0ac2f_n.jpg",
    "id_album": "1650283598",
    "description": "ANIME_PIC_bda5f228f7558e397beb4d4739593b4f,[GirlsSad],[isGirlAnime],[isCuteAnime],[isGirlsHatsHoodieAnime],[isGirlsLoliAnime],[isSadAnimeGirl],[isSadAnime]",
    "title": "ANIME_PIC_bda5f228f7558e397beb4d4739593b4f",
    "link_img": "https://live.staticflickr.com/65535/51566661025_5c5ec1e623_o.png",
    "id_image": "ANIME_PIC_bda5f228f7558e397beb4d4739593b4f",
    "count_view": 0
  },
  {
    "link_thumb": "https://live.staticflickr.com/65535/51566414399_22206eacf0_n.jpg",
    "id_album": "1650283598",
    "description": "ANIME_PIC_bdae74fe4d09ff98dc8347c2dad77c80,[GirlsSad],[isGirlAnime],[isCuteAnime],[isSadAnimeGirl],[isSadAnime]",
    "title": "ANIME_PIC_bdae74fe4d09ff98dc8347c2dad77c80",
    "link_img": "https://live.staticflickr.com/65535/51566414399_beb06d284e_o.jpg",
    "id_image": "ANIME_PIC_bdae74fe4d09ff98dc8347c2dad77c80",
    "count_view": 0
  },
  {
    "link_thumb": "https://live.staticflickr.com/65535/51565723706_793855bd7b_n.jpg",
    "id_album": "1650283598",
    "description": "ANIME_PIC_bdb3db82eb6c8786a36086d4a5b2bde1,[GirlsSad],[isGirlAnime],[isCuteAnime],[isGirlEarsNekoAnime],[isGirlsLoliAnime],[isSadAnimeGirl],[isSadAnime]",
    "title": "ANIME_PIC_bdb3db82eb6c8786a36086d4a5b2bde1",
    "link_img": "https://live.staticflickr.com/65535/51565723706_58789616e8_o.jpg",
    "id_image": "ANIME_PIC_bdb3db82eb6c8786a36086d4a5b2bde1",
    "count_view": 0
  },
  {
    "link_thumb": "https://live.staticflickr.com/65535/51564933797_382d92c0a9_n.jpg",
    "id_album": "1650283598",
    "description": "ANIME_PIC_bdb80cf85a9a0784c53358ea66f93bb2,[GirlsSad],[isGirlAnime],[isCuteAnime],[isGirlEarsNekoAnime],[isSadAnimeGirl],[isSadAnime]",
    "title": "ANIME_PIC_bdb80cf85a9a0784c53358ea66f93bb2",
    "link_img": "https://live.staticflickr.com/65535/51564933797_65def75fb0_o.png",
    "id_image": "ANIME_PIC_bdb80cf85a9a0784c53358ea66f93bb2",
    "count_view": 0
  },
  {
    "link_thumb": "https://live.staticflickr.com/65535/51565724371_1e1a482ef7_n.jpg",
    "id_album": "1650283598",
    "description": "ANIME_PIC_bdb9ba4dbaa9fc6a29011045af30a568,[GirlsSad],[isGirlAnime],[isCuteAnime],[isSadAnimeGirl],[isSadAnime]",
    "title": "ANIME_PIC_bdb9ba4dbaa9fc6a29011045af30a568",
    "link_img": "https://live.staticflickr.com/65535/51565724371_3cd39964f5_o.png",
    "id_image": "ANIME_PIC_bdb9ba4dbaa9fc6a29011045af30a568",
    "count_view": 0
  },
  {
    "link_thumb": "https://live.staticflickr.com/65535/51564934587_dd030763ff_n.jpg",
    "id_album": "1650283598",
    "description": "ANIME_PIC_bdbc1bb9cbff5cfa385ec9a0fd58f4c4,[GirlsSad],[isGirlAnime],[isCuteAnime],[isGirlsHatsHoodieAnime],[isSadAnimeGirl],[isSadAnime]",
    "title": "ANIME_PIC_bdbc1bb9cbff5cfa385ec9a0fd58f4c4",
    "link_img": "https://live.staticflickr.com/65535/51564934587_9eb37548d1_o.jpg",
    "id_image": "ANIME_PIC_bdbc1bb9cbff5cfa385ec9a0fd58f4c4",
    "count_view": 0
  },
  {
    "link_thumb": "https://live.staticflickr.com/65535/51565971278_e0fd5bf237_n.jpg",
    "id_album": "1650283598",
    "description": "ANIME_PIC_bdbcd3f493ab2d66596de67eb73f49f4,[GirlsSad],[isGirlAnime],[isCuteAnime],[isGirlsHatsHoodieAnime],[isGirlsLoliAnime],[isSadAnimeGirl],[isSadAnime]",
    "title": "ANIME_PIC_bdbcd3f493ab2d66596de67eb73f49f4",
    "link_img": "https://live.staticflickr.com/65535/51565971278_5d66d22e6f_o.png",
    "id_image": "ANIME_PIC_bdbcd3f493ab2d66596de67eb73f49f4",
    "count_view": 0
  },
  {
    "link_thumb": "https://live.staticflickr.com/65535/51565971738_72407aa0e3_n.jpg",
    "id_album": "1650283598",
    "description": "ANIME_PIC_bdc60636ae0f771ff4e4075472d488f0,[GirlsSad],[isGirlAnime],[isCuteAnime],[isSadAnimeGirl],[isSadAnime]",
    "title": "ANIME_PIC_bdc60636ae0f771ff4e4075472d488f0",
    "link_img": "https://live.staticflickr.com/65535/51565971738_1ba7035f64_o.jpg",
    "id_image": "ANIME_PIC_bdc60636ae0f771ff4e4075472d488f0",
    "count_view": 0
  },
  {
    "link_thumb": "https://live.staticflickr.com/65535/51565972008_14c2a8d0f4_n.jpg",
    "id_album": "1650283598",
    "description": "ANIME_PIC_bdda7099bf63359b8638bfc23fc89a98,[GirlsSad],[isGirlAnime],[isSadAnimeGirl],[isSadAnime]",
    "title": "ANIME_PIC_bdda7099bf63359b8638bfc23fc89a98",
    "link_img": "https://live.staticflickr.com/65535/51565972008_511b59d32a_o.jpg",
    "id_image": "ANIME_PIC_bdda7099bf63359b8638bfc23fc89a98",
    "count_view": 0
  },
  {
    "link_thumb": "https://live.staticflickr.com/65535/51565726246_a63db2c63d_n.jpg",
    "id_album": "1650283598",
    "description": "ANIME_PIC_bddece8797bd83d18966775c8d427853,[GirlsSad],[isGirlAnime],[isCuteAnime],[isGirlsLoliAnime],[isSadAnimeGirl],[isSadAnime]",
    "title": "ANIME_PIC_bddece8797bd83d18966775c8d427853",
    "link_img": "https://live.staticflickr.com/65535/51565726246_c6f0d01024_o.png",
    "id_image": "ANIME_PIC_bddece8797bd83d18966775c8d427853",
    "count_view": 0
  },
  {
    "link_thumb": "https://live.staticflickr.com/65535/51566417369_f877d0b45c_n.jpg",
    "id_album": "1650283598",
    "description": "ANIME_PIC_bde6fa066f0fba22e7f5016d3f866c2c,[GirlsSad],[isGirlAnime],[isSadAnimeGirl],[isSadAnime]",
    "title": "ANIME_PIC_bde6fa066f0fba22e7f5016d3f866c2c",
    "link_img": "https://live.staticflickr.com/65535/51566417369_5757cfcd03_o.png",
    "id_image": "ANIME_PIC_bde6fa066f0fba22e7f5016d3f866c2c",
    "count_view": 0
  },
  {
    "link_thumb": "https://live.staticflickr.com/65535/51565973353_644d5dac4c_n.jpg",
    "id_album": "1650283598",
    "description": "ANIME_PIC_bded9319617307761153b11defa21c02,[GirlsSad],[isGirlAnime],[isCuteAnime],[isGirlEarsNekoAnime],[isGirlsLoliAnime],[isSadAnimeGirl],[isSadAnime]",
    "title": "ANIME_PIC_bded9319617307761153b11defa21c02",
    "link_img": "https://live.staticflickr.com/65535/51565973353_1b03b90151_o.jpg",
    "id_image": "ANIME_PIC_bded9319617307761153b11defa21c02",
    "count_view": 0
  },
  {
    "link_thumb": "https://live.staticflickr.com/65535/49878967283_27758a8bc2_n.jpg",
    "id_album": "1650283598",
    "description": "ANIME_PIC_bdfb458fc7640db164d3d3c68dcaebac,[isGirlAnime],[isSadAnime],[isSadAnimeGirl],[isCuteAnime],[Girls Sad],[GirlsSad]",
    "title": "ANIME_PIC_bdfb458fc7640db164d3d3c68dcaebac",
    "link_img": "https://live.staticflickr.com/65535/49878967283_cee4e0bc01_o.png",
    "id_image": "ANIME_PIC_bdfb458fc7640db164d3d3c68dcaebac",
    "count_view": 0
  },
  {
    "link_thumb": "https://live.staticflickr.com/65535/51566665740_7055557f28_n.jpg",
    "id_album": "1650283598",
    "description": "ANIME_PIC_be1c0194b7a020f1a8c3064e347be3b7,[GirlsSad],[isGirlAnime],[isCuteAnime],[isGirlsLoliAnime],[isSadAnimeGirl],[isSadAnime]",
    "title": "ANIME_PIC_be1c0194b7a020f1a8c3064e347be3b7",
    "link_img": "https://live.staticflickr.com/65535/51566665740_b7a3c526e2_o.jpg",
    "id_image": "ANIME_PIC_be1c0194b7a020f1a8c3064e347be3b7",
    "count_view": 0
  },
  {
    "link_thumb": "https://live.staticflickr.com/65535/51565974223_e820286140_n.jpg",
    "id_album": "1650283598",
    "description": "ANIME_PIC_be2e8e76b8a67db6e77992960729b02d,[GirlsSad],[isGirlAnime],[isCuteAnime],[isGirlFaceMasksAnime],[isGirlsLoliAnime],[isSadAnimeGirl],[isSadAnime]",
    "title": "ANIME_PIC_be2e8e76b8a67db6e77992960729b02d",
    "link_img": "https://live.staticflickr.com/65535/51565974223_4106409266_o.png",
    "id_image": "ANIME_PIC_be2e8e76b8a67db6e77992960729b02d",
    "count_view": 0
  },
  {
    "link_thumb": "https://live.staticflickr.com/65535/51564938227_946eb1af45_n.jpg",
    "id_album": "1650283598",
    "description": "ANIME_PIC_be3757b18e96b3ae2e0649b061d34949,[GirlsSad],[isGirlAnime],[isCuteAnime],[isGirlsLoliAnime],[isSadAnimeGirl],[isSadAnime]",
    "title": "ANIME_PIC_be3757b18e96b3ae2e0649b061d34949",
    "link_img": "https://live.staticflickr.com/65535/51564938227_f09fe514ca_o.jpg",
    "id_image": "ANIME_PIC_be3757b18e96b3ae2e0649b061d34949",
    "count_view": 0
  },
  {
    "link_thumb": "https://live.staticflickr.com/65535/51566419244_dcaffb0c6c_n.jpg",
    "id_album": "1650283598",
    "description": "ANIME_PIC_be4226999cd635b07ca41fde3aabe79d,[GirlsSad],[isGirlAnime],[isCuteAnime],[isSadAnimeGirl],[isSadAnime]",
    "title": "ANIME_PIC_be4226999cd635b07ca41fde3aabe79d",
    "link_img": "https://live.staticflickr.com/65535/51566419244_ccae2e312f_o.jpg",
    "id_image": "ANIME_PIC_be4226999cd635b07ca41fde3aabe79d",
    "count_view": 0
  },
  {
    "link_thumb": "https://live.staticflickr.com/65535/51564938847_9299d75acc_n.jpg",
    "id_album": "1650283598",
    "description": "ANIME_PIC_be572b1276a9616389c76bad8c897ec5,[GirlsSad],[isGirlAnime],[isCuteAnime],[isSadAnimeGirl],[isSadAnime]",
    "title": "ANIME_PIC_be572b1276a9616389c76bad8c897ec5",
    "link_img": "https://live.staticflickr.com/65535/51564938847_58c8784211_o.jpg",
    "id_image": "ANIME_PIC_be572b1276a9616389c76bad8c897ec5",
    "count_view": 0
  },
  {
    "link_thumb": "https://live.staticflickr.com/65535/51566419769_14c89acfcc_n.jpg",
    "id_album": "1650283598",
    "description": "ANIME_PIC_be5f45c10ef7a66b9e19b4526e823230,[GirlsSad],[isGirlAnime],[isCuteAnime],[isSadAnimeGirl],[isSadAnime]",
    "title": "ANIME_PIC_be5f45c10ef7a66b9e19b4526e823230",
    "link_img": "https://live.staticflickr.com/65535/51566419769_b12116731d_o.jpg",
    "id_image": "ANIME_PIC_be5f45c10ef7a66b9e19b4526e823230",
    "count_view": 0
  },
  {
    "link_thumb": "https://live.staticflickr.com/65535/49799635747_df5eb70fae_n.jpg",
    "id_album": "1650283598",
    "description": "ANIME_PIC_be69f3e79175732d0cedbe6ac951fb80,[isGirlAnime],[isSadAnime],[isSadAnimeGirl],[isCuteAnime],[Girls Sad],[GirlsSad]",
    "title": "ANIME_PIC_be69f3e79175732d0cedbe6ac951fb80",
    "link_img": "https://live.staticflickr.com/65535/49799635747_71cf33202a_o.jpg",
    "id_image": "ANIME_PIC_be69f3e79175732d0cedbe6ac951fb80",
    "count_view": 0
  },
  {
    "link_thumb": "https://live.staticflickr.com/65535/51565975903_838b731e35_n.jpg",
    "id_album": "1650283598",
    "description": "ANIME_PIC_be700c63651fb761b169318540a0e8c3,[GirlsSad],[isGirlAnime],[isSadAnimeGirl],[isSadAnime]",
    "title": "ANIME_PIC_be700c63651fb761b169318540a0e8c3",
    "link_img": "https://live.staticflickr.com/65535/51565975903_8e875ec433_o.jpg",
    "id_image": "ANIME_PIC_be700c63651fb761b169318540a0e8c3",
    "count_view": 0
  },
  {
    "link_thumb": "https://live.staticflickr.com/65535/51566420449_41f56053c8_n.jpg",
    "id_album": "1650283598",
    "description": "ANIME_PIC_be798b0ba94c03a9b810d7d4c96a7a4d,[GirlsSad],[isGirlAnime],[isCuteAnime],[isGirlsLoliAnime],[isSadAnimeGirl],[isSadAnime]",
    "title": "ANIME_PIC_be798b0ba94c03a9b810d7d4c96a7a4d",
    "link_img": "https://live.staticflickr.com/65535/51566420449_2bacb63b70_o.jpg",
    "id_image": "ANIME_PIC_be798b0ba94c03a9b810d7d4c96a7a4d",
    "count_view": 0
  },
  {
    "link_thumb": "https://live.staticflickr.com/65535/51566667865_1c4bd4e2ee_n.jpg",
    "id_album": "1650283598",
    "description": "ANIME_PIC_be7deb9c125cc6a5d3f1d79ca5ff4157,[GirlsSad],[isGirlAnime],[isCuteAnime],[isGirlsLoliAnime],[isSadAnimeGirl],[isSadAnime]",
    "title": "ANIME_PIC_be7deb9c125cc6a5d3f1d79ca5ff4157",
    "link_img": "https://live.staticflickr.com/65535/51566667865_eef5e9549e_o.jpg",
    "id_image": "ANIME_PIC_be7deb9c125cc6a5d3f1d79ca5ff4157",
    "count_view": 0
  },
  {
    "link_thumb": "https://live.staticflickr.com/65535/51565976938_fb90760e38_n.jpg",
    "id_album": "1650283598",
    "description": "ANIME_PIC_be9ad8638b53acce7369d09512d7dd04,[GirlsSad],[isGirlAnime],[isCuteAnime],[isGirlsHatsHoodieAnime],[isSadAnimeGirl],[isSadAnime]",
    "title": "ANIME_PIC_be9ad8638b53acce7369d09512d7dd04",
    "link_img": "https://live.staticflickr.com/65535/51565976938_47f2bd9d0e_o.png",
    "id_image": "ANIME_PIC_be9ad8638b53acce7369d09512d7dd04",
    "count_view": 0
  },
  {
    "link_thumb": "https://live.staticflickr.com/65535/51565977383_3066e9efe3_n.jpg",
    "id_album": "1650283598",
    "description": "ANIME_PIC_beaa0e4b499d5f2be3849ae21d8d87ae,[GirlsSad],[isGirlAnime],[isCuteAnime],[isGirlEarsNekoAnime],[isGirlsLoliAnime],[isSadAnimeGirl],[isSadAnime]",
    "title": "ANIME_PIC_beaa0e4b499d5f2be3849ae21d8d87ae",
    "link_img": "https://live.staticflickr.com/65535/51565977383_816ef63032_o.png",
    "id_image": "ANIME_PIC_beaa0e4b499d5f2be3849ae21d8d87ae",
    "count_view": 0
  },
  {
    "link_thumb": "https://live.staticflickr.com/65535/51565731511_69f2123026_n.jpg",
    "id_album": "1650283598",
    "description": "ANIME_PIC_beaa879411582a2860b72553126e2f0c,[GirlsSad],[isGirlAnime],[isCuteAnime],[isGirlsLoliAnime],[isSadAnimeGirl],[isSadAnime]",
    "title": "ANIME_PIC_beaa879411582a2860b72553126e2f0c",
    "link_img": "https://live.staticflickr.com/65535/51565731511_1e73bafb44_o.jpg",
    "id_image": "ANIME_PIC_beaa879411582a2860b72553126e2f0c",
    "count_view": 0
  },
  {
    "link_thumb": "https://live.staticflickr.com/65535/51564941552_df00e2b2c4_n.jpg",
    "id_album": "1650283598",
    "description": "ANIME_PIC_bed69611a720a66d0de9021657f305fc,[GirlsSad],[isGirlAnime],[isCuteAnime],[isSadAnimeGirl],[isSadAnime]",
    "title": "ANIME_PIC_bed69611a720a66d0de9021657f305fc",
    "link_img": "https://live.staticflickr.com/65535/51564941552_be59801e6c_o.jpg",
    "id_image": "ANIME_PIC_bed69611a720a66d0de9021657f305fc",
    "count_view": 0
  },
  {
    "link_thumb": "https://live.staticflickr.com/65535/51566669650_a6273c2b3e_n.jpg",
    "id_album": "1650283598",
    "description": "ANIME_PIC_bed814cbf3621e7d30b9132c2c0984a5,[GirlsSad],[isGirlAnime],[isGirlEarsNekoAnime],[isSadAnimeGirl],[isSadAnime]",
    "title": "ANIME_PIC_bed814cbf3621e7d30b9132c2c0984a5",
    "link_img": "https://live.staticflickr.com/65535/51566669650_3efa1318ff_o.jpg",
    "id_image": "ANIME_PIC_bed814cbf3621e7d30b9132c2c0984a5",
    "count_view": 0
  },
  {
    "link_thumb": "https://live.staticflickr.com/65535/51565978453_96473fd295_n.jpg",
    "id_album": "1650283598",
    "description": "ANIME_PIC_bedc2429ded6db4602ed226eb9637516,[GirlsSad],[isGirlAnime],[isCuteAnime],[isSadAnimeGirl],[isSadAnime]",
    "title": "ANIME_PIC_bedc2429ded6db4602ed226eb9637516",
    "link_img": "https://live.staticflickr.com/65535/51565978453_712c02c46a_o.jpg",
    "id_image": "ANIME_PIC_bedc2429ded6db4602ed226eb9637516",
    "count_view": 0
  },
  {
    "link_thumb": "https://live.staticflickr.com/65535/51565732666_d4571d1bec_n.jpg",
    "id_album": "1650283598",
    "description": "ANIME_PIC_bee08297c39380adea2ddbce754d6c9c,[GirlsSad],[isGirlAnime],[isCuteAnime],[isGirlsLoliAnime],[isSadAnimeGirl],[isSadAnime]",
    "title": "ANIME_PIC_bee08297c39380adea2ddbce754d6c9c",
    "link_img": "https://live.staticflickr.com/65535/51565732666_64fffd9f1b_o.jpg",
    "id_image": "ANIME_PIC_bee08297c39380adea2ddbce754d6c9c",
    "count_view": 0
  },
  {
    "link_thumb": "https://live.staticflickr.com/65535/51566670615_fc8faf4174_n.jpg",
    "id_album": "1650283598",
    "description": "ANIME_PIC_bee2a68dbc9a7204c8f3f44103a7a379,[GirlsSad],[isGirlAnime],[isCuteAnime],[isGirlEarsNekoAnime],[isSadAnimeGirl],[isSadAnime]",
    "title": "ANIME_PIC_bee2a68dbc9a7204c8f3f44103a7a379",
    "link_img": "https://live.staticflickr.com/65535/51566670615_0023d80925_o.jpg",
    "id_image": "ANIME_PIC_bee2a68dbc9a7204c8f3f44103a7a379",
    "count_view": 0
  },
  {
    "link_thumb": "https://live.staticflickr.com/65535/49947984911_cd1134359c_n.jpg",
    "id_album": "1650283598",
    "description": "ANIME_PIC_bee4e48eadf3a6cc9b613d1d2dda09ef,[isGirlAnime],[isSadAnime],[isSadAnimeGirl],[isCuteAnime],[Girls Sad],[GirlsSad]",
    "title": "ANIME_PIC_bee4e48eadf3a6cc9b613d1d2dda09ef",
    "link_img": "https://live.staticflickr.com/65535/49947984911_d1bc548069_o.jpg",
    "id_image": "ANIME_PIC_bee4e48eadf3a6cc9b613d1d2dda09ef",
    "count_view": 0
  },
  {
    "link_thumb": "https://live.staticflickr.com/65535/51564943022_df77d45257_n.jpg",
    "id_album": "1650283598",
    "description": "ANIME_PIC_bee5954a9100f97dabfba5b6f8d540e3,[GirlsSad],[isGirlAnime],[isCuteAnime],[isGirlsHatsHoodieAnime],[isGirlsLoliAnime],[isSadAnimeGirl],[isSadAnime]",
    "title": "ANIME_PIC_bee5954a9100f97dabfba5b6f8d540e3",
    "link_img": "https://live.staticflickr.com/65535/51564943022_35b7becf93_o.jpg",
    "id_image": "ANIME_PIC_bee5954a9100f97dabfba5b6f8d540e3",
    "count_view": 0
  },
  {
    "link_thumb": "https://live.staticflickr.com/65535/51565733741_c2a5411402_n.jpg",
    "id_album": "1650283598",
    "description": "ANIME_PIC_beebc40f97f9c43decfd590fe447391c,[GirlsSad],[isGirlAnime],[isCuteAnime],[isGirlFaceMasksAnime],[isGirlsLoliAnime],[isSadAnimeGirl],[isSadAnime]",
    "title": "ANIME_PIC_beebc40f97f9c43decfd590fe447391c",
    "link_img": "https://live.staticflickr.com/65535/51565733741_fa38c42b57_o.png",
    "id_image": "ANIME_PIC_beebc40f97f9c43decfd590fe447391c",
    "count_view": 0
  },
  {
    "link_thumb": "https://live.staticflickr.com/65535/51565734211_a6a16a0b57_n.jpg",
    "id_album": "1650283598",
    "description": "ANIME_PIC_beef146e8b2f1b883ea6b1afb26cdc7a,[GirlsSad],[isGirlAnime],[isCuteAnime],[isGirlEarsNekoAnime],[isGirlsHatsHoodieAnime],[isGirlsLoliAnime],[isSadAnimeGirl],[isSadAnime]",
    "title": "ANIME_PIC_beef146e8b2f1b883ea6b1afb26cdc7a",
    "link_img": "https://live.staticflickr.com/65535/51565734211_6063672016_o.png",
    "id_image": "ANIME_PIC_beef146e8b2f1b883ea6b1afb26cdc7a",
    "count_view": 0
  },
  {
    "link_thumb": "https://live.staticflickr.com/65535/51565980938_036a06a16f_n.jpg",
    "id_album": "1650283598",
    "description": "ANIME_PIC_bef1d9c12b66ff46b0dd1b828c6e77b9,[GirlsSad],[isGirlAnime],[isSadAnimeGirl],[isSadAnime]",
    "title": "ANIME_PIC_bef1d9c12b66ff46b0dd1b828c6e77b9",
    "link_img": "https://live.staticflickr.com/65535/51565980938_0601d144cb_o.png",
    "id_image": "ANIME_PIC_bef1d9c12b66ff46b0dd1b828c6e77b9",
    "count_view": 0
  },
  {
    "link_thumb": "https://live.staticflickr.com/65535/51564944897_f80bd6b7a8_n.jpg",
    "id_album": "1650283598",
    "description": "ANIME_PIC_bf00dc0abc8a2b55ae3f18523c0ea78e,[GirlsSad],[isGirlAnime],[isCuteAnime],[isGirlsHatsHoodieAnime],[isSadAnimeGirl],[isSadAnime]",
    "title": "ANIME_PIC_bf00dc0abc8a2b55ae3f18523c0ea78e",
    "link_img": "https://live.staticflickr.com/65535/51564944897_3608089e28_o.png",
    "id_image": "ANIME_PIC_bf00dc0abc8a2b55ae3f18523c0ea78e",
    "count_view": 0
  },
  {
    "link_thumb": "https://live.staticflickr.com/65535/51566426589_c714ba5d9f_n.jpg",
    "id_album": "1650283598",
    "description": "ANIME_PIC_bf01f5674d9400906cf01482b5e14f7b,[GirlsSad],[isGirlAnime],[isCuteAnime],[isGirlsLoliAnime],[isSadAnimeGirl],[isSadAnime]",
    "title": "ANIME_PIC_bf01f5674d9400906cf01482b5e14f7b",
    "link_img": "https://live.staticflickr.com/65535/51566426589_42af41e6ed_o.png",
    "id_image": "ANIME_PIC_bf01f5674d9400906cf01482b5e14f7b",
    "count_view": 0
  },
  {
    "link_thumb": "https://live.staticflickr.com/65535/51566426969_fca6ed1433_n.jpg",
    "id_album": "1650283598",
    "description": "ANIME_PIC_bf0274c5aced4076ea7b14e96c4a4424,[GirlsSad],[isGirlAnime],[isCuteAnime],[isGirlsLoliAnime],[isSadAnimeGirl],[isSadAnime]",
    "title": "ANIME_PIC_bf0274c5aced4076ea7b14e96c4a4424",
    "link_img": "https://live.staticflickr.com/65535/51566426969_b8e78dd53b_o.jpg",
    "id_image": "ANIME_PIC_bf0274c5aced4076ea7b14e96c4a4424",
    "count_view": 0
  },
  {
    "link_thumb": "https://live.staticflickr.com/65535/51565982673_fc98c90d85_n.jpg",
    "id_album": "1650283598",
    "description": "ANIME_PIC_bf0dc4d67d509f35177a477fa2c6d0ed,[GirlsSad],[isGirlAnime],[isCuteAnime],[isGirlsLoliAnime],[isSadAnimeGirl],[isSadAnime]",
    "title": "ANIME_PIC_bf0dc4d67d509f35177a477fa2c6d0ed",
    "link_img": "https://live.staticflickr.com/65535/51565982673_0b336eaea4_o.png",
    "id_image": "ANIME_PIC_bf0dc4d67d509f35177a477fa2c6d0ed",
    "count_view": 0
  },
  {
    "link_thumb": "https://live.staticflickr.com/65535/51564946677_3ec3f8df20_n.jpg",
    "id_album": "1650283598",
    "description": "ANIME_PIC_bf22e65b64d3f062cd1989134a225749,[GirlsSad],[isGirlAnime],[isCuteAnime],[isSadAnimeGirl],[isSadAnime]",
    "title": "ANIME_PIC_bf22e65b64d3f062cd1989134a225749",
    "link_img": "https://live.staticflickr.com/65535/51564946677_c8aa943e0b_o.jpg",
    "id_image": "ANIME_PIC_bf22e65b64d3f062cd1989134a225749",
    "count_view": 0
  },
  {
    "link_thumb": "https://live.staticflickr.com/65535/51564946982_ef69c5080e_n.jpg",
    "id_album": "1650283598",
    "description": "ANIME_PIC_bf2da34b2f2cf23a5c97f9a20a3bc6df,[GirlsSad],[isGirlAnime],[isCuteAnime],[isGirlsLoliAnime],[isSadAnimeGirl],[isSadAnime]",
    "title": "ANIME_PIC_bf2da34b2f2cf23a5c97f9a20a3bc6df",
    "link_img": "https://live.staticflickr.com/65535/51564946982_ae7d560420_o.jpg",
    "id_image": "ANIME_PIC_bf2da34b2f2cf23a5c97f9a20a3bc6df",
    "count_view": 0
  },
  {
    "link_thumb": "https://live.staticflickr.com/65535/51565737581_f39238255e_n.jpg",
    "id_album": "1650283598",
    "description": "ANIME_PIC_bf4ae04af87262641f848195ea5490db,[GirlsSad],[isGirlAnime],[isCuteAnime],[isGirlsHatsHoodieAnime],[isGirlsLoliAnime],[isSadAnimeGirl],[isSadAnime]",
    "title": "ANIME_PIC_bf4ae04af87262641f848195ea5490db",
    "link_img": "https://live.staticflickr.com/65535/51565737581_4726819d79_o.png",
    "id_image": "ANIME_PIC_bf4ae04af87262641f848195ea5490db",
    "count_view": 0
  },
  {
    "link_thumb": "https://live.staticflickr.com/65535/51566675600_29ca8f38b8_n.jpg",
    "id_album": "1650283598",
    "description": "ANIME_PIC_bf529c155415fde55cc2ce687bc5b291,[GirlsSad],[isGirlAnime],[isCuteAnime],[isGirlEarsNekoAnime],[isGirlsLoliAnime],[isSadAnimeGirl],[isSadAnime]",
    "title": "ANIME_PIC_bf529c155415fde55cc2ce687bc5b291",
    "link_img": "https://live.staticflickr.com/65535/51566675600_74596bc37f_o.jpg",
    "id_image": "ANIME_PIC_bf529c155415fde55cc2ce687bc5b291",
    "count_view": 0
  },
  {
    "link_thumb": "https://live.staticflickr.com/65535/51565738196_0db51b0474_n.jpg",
    "id_album": "1650283598",
    "description": "ANIME_PIC_bf545a747f5905c93f81021f1ffcc60b,[GirlsSad],[isGirlAnime],[isGirlsHatsHoodieAnime],[isSadAnimeGirl],[isSadAnime]",
    "title": "ANIME_PIC_bf545a747f5905c93f81021f1ffcc60b",
    "link_img": "https://live.staticflickr.com/65535/51565738196_52a196ee14_o.jpg",
    "id_image": "ANIME_PIC_bf545a747f5905c93f81021f1ffcc60b",
    "count_view": 0
  },
  {
    "link_thumb": "https://live.staticflickr.com/65535/51564948077_1268811668_n.jpg",
    "id_album": "1650283598",
    "description": "ANIME_PIC_bf5a49516b5a3f77c007b7c8a4c67e64,[GirlsSad],[isGirlAnime],[isCuteAnime],[isGirlsLoliAnime],[isSadAnimeGirl],[isSadAnime]",
    "title": "ANIME_PIC_bf5a49516b5a3f77c007b7c8a4c67e64",
    "link_img": "https://live.staticflickr.com/65535/51564948077_29a7d190ef_o.jpg",
    "id_image": "ANIME_PIC_bf5a49516b5a3f77c007b7c8a4c67e64",
    "count_view": 0
  },
  {
    "link_thumb": "https://live.staticflickr.com/65535/51565739081_8d26c70eea_n.jpg",
    "id_album": "1650283598",
    "description": "ANIME_PIC_bf5eeb22f174c96e58fcb2a0f22a70a3,[GirlsSad],[isGirlAnime],[isCuteAnime],[isGirlsLoliAnime],[isSadAnimeGirl],[isSadAnime]",
    "title": "ANIME_PIC_bf5eeb22f174c96e58fcb2a0f22a70a3",
    "link_img": "https://live.staticflickr.com/65535/51565739081_ef2c256394_o.jpg",
    "id_image": "ANIME_PIC_bf5eeb22f174c96e58fcb2a0f22a70a3",
    "count_view": 0
  },
  {
    "link_thumb": "https://live.staticflickr.com/65535/51565739416_8296fbf187_n.jpg",
    "id_album": "1650283598",
    "description": "ANIME_PIC_bf61189248d5ecc436066ee058a28809,[GirlsSad],[isGirlAnime],[isCuteAnime],[isGirlsLoliAnime],[isSadAnimeGirl],[isSadAnime]",
    "title": "ANIME_PIC_bf61189248d5ecc436066ee058a28809",
    "link_img": "https://live.staticflickr.com/65535/51565739416_d2ae6afed5_o.jpg",
    "id_image": "ANIME_PIC_bf61189248d5ecc436066ee058a28809",
    "count_view": 0
  },
  {
    "link_thumb": "https://live.staticflickr.com/65535/51564949187_98a3b20eed_n.jpg",
    "id_album": "1650283598",
    "description": "ANIME_PIC_bf61e18eface62952398f9cb2795200d,[GirlsSad],[isGirlAnime],[isSadAnimeGirl],[isSadAnime]",
    "title": "ANIME_PIC_bf61e18eface62952398f9cb2795200d",
    "link_img": "https://live.staticflickr.com/65535/51564949187_62f0697f25_o.png",
    "id_image": "ANIME_PIC_bf61e18eface62952398f9cb2795200d",
    "count_view": 0
  },
  {
    "link_thumb": "https://live.staticflickr.com/65535/51564949602_f9c7350572_n.jpg",
    "id_album": "1650283598",
    "description": "ANIME_PIC_bf6a2a1126191ab3478bc5223be89a07,[GirlsSad],[isGirlAnime],[isCuteAnime],[isSadAnimeGirl],[isSadAnime]",
    "title": "ANIME_PIC_bf6a2a1126191ab3478bc5223be89a07",
    "link_img": "https://live.staticflickr.com/65535/51564949602_3f63eab3e4_o.png",
    "id_image": "ANIME_PIC_bf6a2a1126191ab3478bc5223be89a07",
    "count_view": 0
  },
  {
    "link_thumb": "https://live.staticflickr.com/65535/51566431114_e8c94c0df6_n.jpg",
    "id_album": "1650283598",
    "description": "ANIME_PIC_bf6eccf6629609d21871c58be9899955,[GirlsSad],[isGirlAnime],[isCuteAnime],[isGirlsLoliAnime],[isSadAnimeGirl],[isSadAnime]",
    "title": "ANIME_PIC_bf6eccf6629609d21871c58be9899955",
    "link_img": "https://live.staticflickr.com/65535/51566431114_f42ffb6ef3_o.jpg",
    "id_image": "ANIME_PIC_bf6eccf6629609d21871c58be9899955",
    "count_view": 0
  },
  {
    "link_thumb": "https://live.staticflickr.com/65535/51566678215_42e928a6a0_n.jpg",
    "id_album": "1650283598",
    "description": "ANIME_PIC_bf72fdd051bd0792480d7e465c4c0546,[GirlsSad],[isGirlAnime],[isCuteAnime],[isGirlsLoliAnime],[isSadAnimeGirl],[isSadAnime]",
    "title": "ANIME_PIC_bf72fdd051bd0792480d7e465c4c0546",
    "link_img": "https://live.staticflickr.com/65535/51566678215_546aeeddfb_o.jpg",
    "id_image": "ANIME_PIC_bf72fdd051bd0792480d7e465c4c0546",
    "count_view": 0
  },
  {
    "link_thumb": "https://live.staticflickr.com/65535/50151840821_c660418cf1_n.jpg",
    "id_album": "1650283598",
    "description": "ANIME_PIC_bf7ba2b57381ad0fd60a0edbd65f26de,[isGirlAnime],[isSadAnime],[isSadAnimeGirl],[isCuteAnime],[Girls Sad],[GirlsSad]",
    "title": "ANIME_PIC_bf7ba2b57381ad0fd60a0edbd65f26de",
    "link_img": "https://live.staticflickr.com/65535/50151840821_539c47db0d_o.jpg",
    "id_image": "ANIME_PIC_bf7ba2b57381ad0fd60a0edbd65f26de",
    "count_view": 0
  },
  {
    "link_thumb": "https://live.staticflickr.com/65535/51565741091_1e8cf92f6a_n.jpg",
    "id_album": "1650283598",
    "description": "ANIME_PIC_bf96510b7adb685d5708e36bca7cebea,[GirlsSad],[isGirlAnime],[isCuteAnime],[isSadAnimeGirl],[isSadAnime]",
    "title": "ANIME_PIC_bf96510b7adb685d5708e36bca7cebea",
    "link_img": "https://live.staticflickr.com/65535/51565741091_a62c105604_o.jpg",
    "id_image": "ANIME_PIC_bf96510b7adb685d5708e36bca7cebea",
    "count_view": 0
  },
  {
    "link_thumb": "https://live.staticflickr.com/65535/51566432239_1856a6dab7_n.jpg",
    "id_album": "1650283598",
    "description": "ANIME_PIC_bfb0af4d39a75b759a3163c36b976733,[GirlsSad],[isGirlAnime],[isCuteAnime],[isGirlsLoliAnime],[isSadAnimeGirl],[isSadAnime]",
    "title": "ANIME_PIC_bfb0af4d39a75b759a3163c36b976733",
    "link_img": "https://live.staticflickr.com/65535/51566432239_b47a0cfdc8_o.jpg",
    "id_image": "ANIME_PIC_bfb0af4d39a75b759a3163c36b976733",
    "count_view": 0
  },
  {
    "link_thumb": "https://live.staticflickr.com/65535/51566432719_0d298e4e5f_n.jpg",
    "id_album": "1650283598",
    "description": "ANIME_PIC_bfce4e9adacfd88048d9f33f5b538bf4,[GirlsSad],[isGirlAnime],[isSadAnimeGirl],[isSadAnime]",
    "title": "ANIME_PIC_bfce4e9adacfd88048d9f33f5b538bf4",
    "link_img": "https://live.staticflickr.com/65535/51566432719_df3cceae13_o.jpg",
    "id_image": "ANIME_PIC_bfce4e9adacfd88048d9f33f5b538bf4",
    "count_view": 0
  },
  {
    "link_thumb": "https://live.staticflickr.com/65535/51566433114_e4bf80b1c1_n.jpg",
    "id_album": "1650283598",
    "description": "ANIME_PIC_bfd2e175ae52b6e99c2ad743360884f5,[GirlsSad],[isGirlAnime],[isCuteAnime],[isGirlsLoliAnime],[isSadAnimeGirl],[isSadAnime]",
    "title": "ANIME_PIC_bfd2e175ae52b6e99c2ad743360884f5",
    "link_img": "https://live.staticflickr.com/65535/51566433114_8c1a9ab615_o.png",
    "id_image": "ANIME_PIC_bfd2e175ae52b6e99c2ad743360884f5",
    "count_view": 0
  },
  {
    "link_thumb": "https://live.staticflickr.com/65535/51565742696_65d2861fd1_n.jpg",
    "id_album": "1650283598",
    "description": "ANIME_PIC_bfd7533ed366ea23a02627f7b37b74cf,[GirlsSad],[isGirlAnime],[isCuteAnime],[isSadAnimeGirl],[isSadAnime]",
    "title": "ANIME_PIC_bfd7533ed366ea23a02627f7b37b74cf",
    "link_img": "https://live.staticflickr.com/65535/51565742696_7ed8b7bfd7_o.jpg",
    "id_image": "ANIME_PIC_bfd7533ed366ea23a02627f7b37b74cf",
    "count_view": 0
  },
  {
    "link_thumb": "https://live.staticflickr.com/65535/51564952757_16ee3d20c6_n.jpg",
    "id_album": "1650283598",
    "description": "ANIME_PIC_bfed4386147aae530becb22e57f9ce68,[GirlsSad],[isGirlAnime],[isCuteAnime],[isSadAnimeGirl],[isSadAnime]",
    "title": "ANIME_PIC_bfed4386147aae530becb22e57f9ce68",
    "link_img": "https://live.staticflickr.com/65535/51564952757_90191b045f_o.jpg",
    "id_image": "ANIME_PIC_bfed4386147aae530becb22e57f9ce68",
    "count_view": 0
  },
  {
    "link_thumb": "https://live.staticflickr.com/65535/51564952982_4033cb445f_n.jpg",
    "id_album": "1650283598",
    "description": "ANIME_PIC_bfed6a19385df14cfdf3bb930e2a84be,[GirlsSad],[isGirlAnime],[isCuteAnime],[isGirlEarsNekoAnime],[isGirlsLoliAnime],[isSadAnimeGirl],[isSadAnime]",
    "title": "ANIME_PIC_bfed6a19385df14cfdf3bb930e2a84be",
    "link_img": "https://live.staticflickr.com/65535/51564952982_91cffd3662_o.jpg",
    "id_image": "ANIME_PIC_bfed6a19385df14cfdf3bb930e2a84be",
    "count_view": 0
  },
  {
    "link_thumb": "https://live.staticflickr.com/65535/51565989868_0894485003_n.jpg",
    "id_album": "1650283598",
    "description": "ANIME_PIC_bff0d22310c4ff30ac3dc0034ed548fe,[GirlsSad],[isGirlAnime],[isCuteAnime],[isGirlsHornsAnime],[isGirlsLoliAnime],[isSadAnimeGirl],[isSadAnime]",
    "title": "ANIME_PIC_bff0d22310c4ff30ac3dc0034ed548fe",
    "link_img": "https://live.staticflickr.com/65535/51565989868_96d6a3b1d3_o.jpg",
    "id_image": "ANIME_PIC_bff0d22310c4ff30ac3dc0034ed548fe",
    "count_view": 0
  },
  {
    "link_thumb": "https://live.staticflickr.com/65535/51566680920_67625c56b5_n.jpg",
    "id_album": "1650283598",
    "description": "ANIME_PIC_bff924e7ef67bf55846f98e4221880b7,[GirlsSad],[isGirlAnime],[isCuteAnime],[isGirlFaceMasksAnime],[isSadAnimeGirl],[isSadAnime]",
    "title": "ANIME_PIC_bff924e7ef67bf55846f98e4221880b7",
    "link_img": "https://live.staticflickr.com/65535/51566680920_3415f77692_o.jpg",
    "id_image": "ANIME_PIC_bff924e7ef67bf55846f98e4221880b7",
    "count_view": 0
  },
  {
    "link_thumb": "https://live.staticflickr.com/65535/51566435024_41baef2ae6_n.jpg",
    "id_album": "1650283598",
    "description": "ANIME_PIC_bffe19dd75c35af6060a83f752664178,[GirlsSad],[isGirlAnime],[isCuteAnime],[isGirlsLoliAnime],[isSadAnimeGirl],[isSadAnime]",
    "title": "ANIME_PIC_bffe19dd75c35af6060a83f752664178",
    "link_img": "https://live.staticflickr.com/65535/51566435024_b57de6f3ef_o.jpg",
    "id_image": "ANIME_PIC_bffe19dd75c35af6060a83f752664178",
    "count_view": 0
  },
  {
    "link_thumb": "https://live.staticflickr.com/65535/51566435254_984fd9882c_n.jpg",
    "id_album": "1650283598",
    "description": "ANIME_PIC_c00261c395c79423db04178a92192ef7,[GirlsSad],[isGirlAnime],[isCuteAnime],[isSadAnimeGirl],[isSadAnime]",
    "title": "ANIME_PIC_c00261c395c79423db04178a92192ef7",
    "link_img": "https://live.staticflickr.com/65535/51566435254_508e42c431_o.jpg",
    "id_image": "ANIME_PIC_c00261c395c79423db04178a92192ef7",
    "count_view": 0
  },
  {
    "link_thumb": "https://live.staticflickr.com/65535/51566681885_c88f50fa70_n.jpg",
    "id_album": "1650283598",
    "description": "ANIME_PIC_c01b7e175e43feadf87de93cab276fc2,[GirlsSad],[isGirlAnime],[isCuteAnime],[isGirlEarsNekoAnime],[isGirlFaceMasksAnime],[isGirlsLoliAnime],[isSadAnimeGirl],[isSadAnime]",
    "title": "ANIME_PIC_c01b7e175e43feadf87de93cab276fc2",
    "link_img": "https://live.staticflickr.com/65535/51566681885_fc1355cb51_o.jpg",
    "id_image": "ANIME_PIC_c01b7e175e43feadf87de93cab276fc2",
    "count_view": 0
  },
  {
    "link_thumb": "https://live.staticflickr.com/65535/51566682310_19ae3d6de0_n.jpg",
    "id_album": "1650283598",
    "description": "ANIME_PIC_c02c4f52ced400b448e7e364f9b96e6f,[GirlsSad],[isGirlAnime],[isCuteAnime],[isGirlsLoliAnime],[isSadAnimeGirl],[isSadAnime]",
    "title": "ANIME_PIC_c02c4f52ced400b448e7e364f9b96e6f",
    "link_img": "https://live.staticflickr.com/65535/51566682310_b1dc7bd898_o.jpg",
    "id_image": "ANIME_PIC_c02c4f52ced400b448e7e364f9b96e6f",
    "count_view": 0
  },
  {
    "link_thumb": "https://live.staticflickr.com/65535/51566682765_9a7d8e036c_n.jpg",
    "id_album": "1650283598",
    "description": "ANIME_PIC_c03e3e48662e708cdaa4d68e571b5e02,[GirlsSad],[isGirlAnime],[isCuteAnime],[isSadAnimeGirl],[isSadAnime]",
    "title": "ANIME_PIC_c03e3e48662e708cdaa4d68e571b5e02",
    "link_img": "https://live.staticflickr.com/65535/51566682765_fd9c2397d0_o.jpg",
    "id_image": "ANIME_PIC_c03e3e48662e708cdaa4d68e571b5e02",
    "count_view": 0
  },
  {
    "link_thumb": "https://live.staticflickr.com/65535/51565746166_1fdbdedfdc_n.jpg",
    "id_album": "1650283598",
    "description": "ANIME_PIC_c0475b345339057e19b7b8fb49d5dd66,[GirlsSad],[isGirlAnime],[isCuteAnime],[isGirlFaceMasksAnime],[isSadAnimeGirl],[isSadAnime]",
    "title": "ANIME_PIC_c0475b345339057e19b7b8fb49d5dd66",
    "link_img": "https://live.staticflickr.com/65535/51565746166_aecf75b8c4_o.png",
    "id_image": "ANIME_PIC_c0475b345339057e19b7b8fb49d5dd66",
    "count_view": 0
  },
  {
    "link_thumb": "https://live.staticflickr.com/65535/51565746636_fa5583241b_n.jpg",
    "id_album": "1650283598",
    "description": "ANIME_PIC_c05fd8622431b696f3d99065504c67cc,[GirlsSad],[isGirlAnime],[isCuteAnime],[isSadAnimeGirl],[isSadAnime]",
    "title": "ANIME_PIC_c05fd8622431b696f3d99065504c67cc",
    "link_img": "https://live.staticflickr.com/65535/51565746636_4acf4a7730_o.jpg",
    "id_image": "ANIME_PIC_c05fd8622431b696f3d99065504c67cc",
    "count_view": 0
  },
  {
    "link_thumb": "https://live.staticflickr.com/65535/51564956577_e4ee6f9f0c_n.jpg",
    "id_album": "1650283598",
    "description": "ANIME_PIC_c062b5f2600dacb57f14f38a53f9e1e7,[GirlsSad],[isGirlAnime],[isCuteAnime],[isGirlsLoliAnime],[isSadAnimeGirl],[isSadAnime]",
    "title": "ANIME_PIC_c062b5f2600dacb57f14f38a53f9e1e7",
    "link_img": "https://live.staticflickr.com/65535/51564956577_5eab61a903_o.png",
    "id_image": "ANIME_PIC_c062b5f2600dacb57f14f38a53f9e1e7",
    "count_view": 0
  },
  {
    "link_thumb": "https://live.staticflickr.com/65535/51566437999_99c47a5fcf_n.jpg",
    "id_album": "1650283598",
    "description": "ANIME_PIC_c0754e8bb2e6d2e37cd68011b2e647e5,[GirlsSad],[isGirlAnime],[isCuteAnime],[isSadAnimeGirl],[isSadAnime]",
    "title": "ANIME_PIC_c0754e8bb2e6d2e37cd68011b2e647e5",
    "link_img": "https://live.staticflickr.com/65535/51566437999_31583c3451_o.jpg",
    "id_image": "ANIME_PIC_c0754e8bb2e6d2e37cd68011b2e647e5",
    "count_view": 0
  },
  {
    "link_thumb": "https://live.staticflickr.com/65535/51564957177_1fc298ceed_n.jpg",
    "id_album": "1650283598",
    "description": "ANIME_PIC_c076f561247535ee7963b0152157d6e2,[GirlsSad],[isGirlAnime],[isCuteAnime],[isGirlsLoliAnime],[isSadAnimeGirl],[isSadAnime]",
    "title": "ANIME_PIC_c076f561247535ee7963b0152157d6e2",
    "link_img": "https://live.staticflickr.com/65535/51564957177_c40f350930_o.jpg",
    "id_image": "ANIME_PIC_c076f561247535ee7963b0152157d6e2",
    "count_view": 0
  },
  {
    "link_thumb": "https://live.staticflickr.com/65535/51564957502_3fe94d6177_n.jpg",
    "id_album": "1650283598",
    "description": "ANIME_PIC_c07c20c62e78e423486cef469da19504,[GirlsSad],[isGirlAnime],[isCuteAnime],[isGirlEarsNekoAnime],[isGirlsLoliAnime],[isSadAnimeGirl],[isSadAnime]",
    "title": "ANIME_PIC_c07c20c62e78e423486cef469da19504",
    "link_img": "https://live.staticflickr.com/65535/51564957502_7cd4a80598_o.jpg",
    "id_image": "ANIME_PIC_c07c20c62e78e423486cef469da19504",
    "count_view": 0
  },
  {
    "link_thumb": "https://live.staticflickr.com/65535/51564957912_a2feaf6d13_n.jpg",
    "id_album": "1650283598",
    "description": "ANIME_PIC_c081f030be986e7e60299282388c0eae,[GirlsSad],[isGirlAnime],[isCuteAnime],[isGirlsLoliAnime],[isSadAnimeGirl],[isSadAnime]",
    "title": "ANIME_PIC_c081f030be986e7e60299282388c0eae",
    "link_img": "https://live.staticflickr.com/65535/51564957912_1c027a2959_o.jpg",
    "id_image": "ANIME_PIC_c081f030be986e7e60299282388c0eae",
    "count_view": 0
  },
  {
    "link_thumb": "https://live.staticflickr.com/65535/51566685670_74b73775a1_n.jpg",
    "id_album": "1650283598",
    "description": "ANIME_PIC_c084c66bf8941eeb4872c65d47952849,[GirlsSad],[isGirlAnime],[isSadAnimeGirl],[isSadAnime]",
    "title": "ANIME_PIC_c084c66bf8941eeb4872c65d47952849",
    "link_img": "https://live.staticflickr.com/65535/51566685670_72af1b67ac_o.jpg",
    "id_image": "ANIME_PIC_c084c66bf8941eeb4872c65d47952849",
    "count_view": 0
  },
  {
    "link_thumb": "https://live.staticflickr.com/65535/51566439599_10a8942a50_n.jpg",
    "id_album": "1650283598",
    "description": "ANIME_PIC_c086328590aacc3ac2502bb8989f31fc,[GirlsSad],[isGirlAnime],[isCuteAnime],[isSadAnimeGirl],[isSadAnime]",
    "title": "ANIME_PIC_c086328590aacc3ac2502bb8989f31fc",
    "link_img": "https://live.staticflickr.com/65535/51566439599_a1b04d11e2_o.jpg",
    "id_image": "ANIME_PIC_c086328590aacc3ac2502bb8989f31fc",
    "count_view": 0
  },
  {
    "link_thumb": "https://live.staticflickr.com/65535/49879497616_30c2161163_n.jpg",
    "id_album": "1650283598",
    "description": "ANIME_PIC_c08997c183876966223bd3bb106ef829,[isGirlAnime],[isSadAnime],[isSadAnimeGirl],[isCuteAnime],[Girls Sad],[GirlsSad]",
    "title": "ANIME_PIC_c08997c183876966223bd3bb106ef829",
    "link_img": "https://live.staticflickr.com/65535/49879497616_72832c000a_o.jpg",
    "id_image": "ANIME_PIC_c08997c183876966223bd3bb106ef829",
    "count_view": 0
  },
  {
    "link_thumb": "https://live.staticflickr.com/65535/51565749471_308ed87813_n.jpg",
    "id_album": "1650283598",
    "description": "ANIME_PIC_c0980aec11b8e1939e11c0dfad65f5be,[GirlsSad],[isGirlAnime],[isCuteAnime],[isSadAnimeGirl],[isSadAnime]",
    "title": "ANIME_PIC_c0980aec11b8e1939e11c0dfad65f5be",
    "link_img": "https://live.staticflickr.com/65535/51565749471_0fa8093d83_o.jpg",
    "id_image": "ANIME_PIC_c0980aec11b8e1939e11c0dfad65f5be",
    "count_view": 0
  },
  {
    "link_thumb": "https://live.staticflickr.com/65535/51565749846_99425db593_n.jpg",
    "id_album": "1650283598",
    "description": "ANIME_PIC_c0a3b23c1e8beecb666f653cb6c54ec3,[GirlsSad],[isCoupleAnime],[isGirlAnime],[isSadAnimeGirl],[isSadAnime]",
    "title": "ANIME_PIC_c0a3b23c1e8beecb666f653cb6c54ec3",
    "link_img": "https://live.staticflickr.com/65535/51565749846_712dd66449_o.jpg",
    "id_image": "ANIME_PIC_c0a3b23c1e8beecb666f653cb6c54ec3",
    "count_view": 0
  },
  {
    "link_thumb": "https://live.staticflickr.com/65535/51564959532_f09a4c28c0_n.jpg",
    "id_album": "1650283598",
    "description": "ANIME_PIC_c0af252c6ede8240d74d907dd5b4fe4f,[GirlsSad],[isBoyAnime],[isGirlAnime],[isCuteAnime],[isSadAnimeGirl],[isSadAnime]",
    "title": "ANIME_PIC_c0af252c6ede8240d74d907dd5b4fe4f",
    "link_img": "https://live.staticflickr.com/65535/51564959532_3e5f39a8b4_o.jpg",
    "id_image": "ANIME_PIC_c0af252c6ede8240d74d907dd5b4fe4f",
    "count_view": 0
  },
  {
    "link_thumb": "https://live.staticflickr.com/65535/51566687155_37439bb695_n.jpg",
    "id_album": "1650283598",
    "description": "ANIME_PIC_c0b8d401fa364ccb67dbb5f493224735,[GirlsSad],[isGirlAnime],[isCuteAnime],[isGirlsLoliAnime],[isSadAnimeGirl],[isSadAnime]",
    "title": "ANIME_PIC_c0b8d401fa364ccb67dbb5f493224735",
    "link_img": "https://live.staticflickr.com/65535/51566687155_42bc2990b0_o.jpg",
    "id_image": "ANIME_PIC_c0b8d401fa364ccb67dbb5f493224735",
    "count_view": 0
  },
  {
    "link_thumb": "https://live.staticflickr.com/65535/51565750796_009003f64e_n.jpg",
    "id_album": "1650283598",
    "description": "ANIME_PIC_c0c1255dc447b7edba4a7fdb51a4a927,[GirlsSad],[isGirlAnime],[isCuteAnime],[isGirlsLoliAnime],[isSadAnimeGirl],[isSadAnime]",
    "title": "ANIME_PIC_c0c1255dc447b7edba4a7fdb51a4a927",
    "link_img": "https://live.staticflickr.com/65535/51565750796_f61193facd_o.jpg",
    "id_image": "ANIME_PIC_c0c1255dc447b7edba4a7fdb51a4a927",
    "count_view": 0
  },
  {
    "link_thumb": "https://live.staticflickr.com/65535/51565996628_58669759a4_n.jpg",
    "id_album": "1650283598",
    "description": "ANIME_PIC_c0cacaf4a71583af0ec8539bd5303f39,[GirlsSad],[isGirlAnime],[isCuteAnime],[isGirlsLoliAnime],[isSadAnimeGirl],[isSadAnime]",
    "title": "ANIME_PIC_c0cacaf4a71583af0ec8539bd5303f39",
    "link_img": "https://live.staticflickr.com/65535/51565996628_6165c57c38_o.jpg",
    "id_image": "ANIME_PIC_c0cacaf4a71583af0ec8539bd5303f39",
    "count_view": 0
  },
  {
    "link_thumb": "https://live.staticflickr.com/65535/51566688250_be554cf0a4_n.jpg",
    "id_album": "1650283598",
    "description": "ANIME_PIC_c0cc72448576796d5f2a3fa335701073,[GirlsSad],[isGirlAnime],[isCuteAnime],[isSadAnimeGirl],[isSadAnime]",
    "title": "ANIME_PIC_c0cc72448576796d5f2a3fa335701073",
    "link_img": "https://live.staticflickr.com/65535/51566688250_78708ba3c5_o.png",
    "id_image": "ANIME_PIC_c0cc72448576796d5f2a3fa335701073",
    "count_view": 0
  },
  {
    "link_thumb": "https://live.staticflickr.com/65535/51566688690_2599d5603b_n.jpg",
    "id_album": "1650283598",
    "description": "ANIME_PIC_c0ccacbce52cf091a33af6935aad4c62,[GirlsSad],[isGirlAnime],[isCuteAnime],[isGirlsLoliAnime],[isSadAnimeGirl],[isSadAnime]",
    "title": "ANIME_PIC_c0ccacbce52cf091a33af6935aad4c62",
    "link_img": "https://live.staticflickr.com/65535/51566688690_efd244ee4b_o.png",
    "id_image": "ANIME_PIC_c0ccacbce52cf091a33af6935aad4c62",
    "count_view": 0
  },
  {
    "link_thumb": "https://live.staticflickr.com/65535/51566689030_1a13b6e5dd_n.jpg",
    "id_album": "1650283598",
    "description": "ANIME_PIC_c0d7248ee3e5bf85b6b165a134196fc1,[GirlsSad],[isGirlAnime],[isCuteAnime],[isGirlsLoliAnime],[isSadAnimeGirl],[isSadAnime]",
    "title": "ANIME_PIC_c0d7248ee3e5bf85b6b165a134196fc1",
    "link_img": "https://live.staticflickr.com/65535/51566689030_5663823fbe_o.jpg",
    "id_image": "ANIME_PIC_c0d7248ee3e5bf85b6b165a134196fc1",
    "count_view": 0
  },
  {
    "link_thumb": "https://live.staticflickr.com/65535/51565997988_c71717bdb2_n.jpg",
    "id_album": "1650283598",
    "description": "ANIME_PIC_c0d82cad97238d2c84af57ee3ec10b53,[GirlsSad],[isGirlAnime],[isCuteAnime],[isGirlsLoliAnime],[isSadAnimeGirl],[isSadAnime]",
    "title": "ANIME_PIC_c0d82cad97238d2c84af57ee3ec10b53",
    "link_img": "https://live.staticflickr.com/65535/51565997988_b0061e9e54_o.png",
    "id_image": "ANIME_PIC_c0d82cad97238d2c84af57ee3ec10b53",
    "count_view": 0
  },
  {
    "link_thumb": "https://live.staticflickr.com/65535/51566443289_ae3429dd34_n.jpg",
    "id_album": "1650283598",
    "description": "ANIME_PIC_c0d9eb72968a373d02edc95965daa1f6,[GirlsSad],[isGirlAnime],[isCuteAnime],[isGirlsLoliAnime],[isSadAnimeGirl],[isSadAnime]",
    "title": "ANIME_PIC_c0d9eb72968a373d02edc95965daa1f6",
    "link_img": "https://live.staticflickr.com/65535/51566443289_2bfb650a82_o.jpg",
    "id_image": "ANIME_PIC_c0d9eb72968a373d02edc95965daa1f6",
    "count_view": 0
  },
  {
    "link_thumb": "https://live.staticflickr.com/65535/51565999913_1288c2efdf_n.jpg",
    "id_album": "1650283598",
    "description": "ANIME_PIC_c0eb9193b0d99e39c3fb50d915dab934,[GirlsSad],[isGirlAnime],[isCuteAnime],[isGirlsLoliAnime],[isSadAnimeGirl],[isSadAnime]",
    "title": "ANIME_PIC_c0eb9193b0d99e39c3fb50d915dab934",
    "link_img": "https://live.staticflickr.com/65535/51565999913_0df182550d_o.jpg",
    "id_image": "ANIME_PIC_c0eb9193b0d99e39c3fb50d915dab934",
    "count_view": 0
  },
  {
    "link_thumb": "https://live.staticflickr.com/65535/51566691595_a8f622d05a_n.jpg",
    "id_album": "1650283598",
    "description": "ANIME_PIC_c0f208b113d508d54e25d6531b9e84df,[GirlsSad],[isGirlAnime],[isCuteAnime],[isGirlsLoliAnime],[isSadAnimeGirl],[isSadAnime]",
    "title": "ANIME_PIC_c0f208b113d508d54e25d6531b9e84df",
    "link_img": "https://live.staticflickr.com/65535/51566691595_051ffc6b2c_o.jpg",
    "id_image": "ANIME_PIC_c0f208b113d508d54e25d6531b9e84df",
    "count_view": 0
  },
  {
    "link_thumb": "https://live.staticflickr.com/65535/51566000488_e5a22c2f95_n.jpg",
    "id_album": "1650283598",
    "description": "ANIME_PIC_c0f88845b8b4f7a1d613a9bf75fd27b9,[GirlsSad],[isGirlAnime],[isCuteAnime],[isGirlsLoliAnime],[isSadAnimeGirl],[isSadAnime]",
    "title": "ANIME_PIC_c0f88845b8b4f7a1d613a9bf75fd27b9",
    "link_img": "https://live.staticflickr.com/65535/51566000488_b31f2618de_o.jpg",
    "id_image": "ANIME_PIC_c0f88845b8b4f7a1d613a9bf75fd27b9",
    "count_view": 0
  },
  {
    "link_thumb": "https://live.staticflickr.com/65535/51564964932_813deb0040_n.jpg",
    "id_album": "1650283598",
    "description": "ANIME_PIC_c0ff85ed757caac284ab14454ad71309,[GirlsSad],[isGirlAnime],[isCuteAnime],[isSadAnimeGirl],[isSadAnime]",
    "title": "ANIME_PIC_c0ff85ed757caac284ab14454ad71309",
    "link_img": "https://live.staticflickr.com/65535/51564964932_17aa48393e_o.jpg",
    "id_image": "ANIME_PIC_c0ff85ed757caac284ab14454ad71309",
    "count_view": 0
  },
  {
    "link_thumb": "https://live.staticflickr.com/65535/51565755936_0649933ac5_n.jpg",
    "id_album": "1650283598",
    "description": "ANIME_PIC_c1087450a31f54dba35ba0a9edd03d11,[GirlsSad],[isGirlAnime],[isCuteAnime],[isSadAnimeGirl],[isSadAnime]",
    "title": "ANIME_PIC_c1087450a31f54dba35ba0a9edd03d11",
    "link_img": "https://live.staticflickr.com/65535/51565755936_f2ae227913_o.png",
    "id_image": "ANIME_PIC_c1087450a31f54dba35ba0a9edd03d11",
    "count_view": 0
  },
  {
    "link_thumb": "https://live.staticflickr.com/65535/51566446799_60dffb4b6a_n.jpg",
    "id_album": "1650283598",
    "description": "ANIME_PIC_c12515fb49cddb5f47c568761da2ddda,[GirlsSad],[isGirlAnime],[isCuteAnime],[isGirlsLoliAnime],[isSadAnimeGirl],[isSadAnime]",
    "title": "ANIME_PIC_c12515fb49cddb5f47c568761da2ddda",
    "link_img": "https://live.staticflickr.com/65535/51566446799_2cd9ba3916_o.jpg",
    "id_image": "ANIME_PIC_c12515fb49cddb5f47c568761da2ddda",
    "count_view": 0
  },
  {
    "link_thumb": "https://live.staticflickr.com/65535/51566001958_7deb46fd42_n.jpg",
    "id_album": "1650283598",
    "description": "ANIME_PIC_c129b1f1630af31d4f87849316855f19,[GirlsSad],[isGirlAnime],[isCuteAnime],[isSadAnimeGirl],[isSadAnime]",
    "title": "ANIME_PIC_c129b1f1630af31d4f87849316855f19",
    "link_img": "https://live.staticflickr.com/65535/51566001958_b782f2c99a_o.png",
    "id_image": "ANIME_PIC_c129b1f1630af31d4f87849316855f19",
    "count_view": 0
  },
  {
    "link_thumb": "https://live.staticflickr.com/65535/51564966932_f37b74f2d8_n.jpg",
    "id_album": "1650283598",
    "description": "ANIME_PIC_c12de3a025a392cd92418f972c1cd8d7,[GirlsSad],[isGirlAnime],[isSadAnimeGirl],[isSadAnime]",
    "title": "ANIME_PIC_c12de3a025a392cd92418f972c1cd8d7",
    "link_img": "https://live.staticflickr.com/65535/51564966932_8f1921abc5_o.jpg",
    "id_image": "ANIME_PIC_c12de3a025a392cd92418f972c1cd8d7",
    "count_view": 0
  },
  {
    "link_thumb": "https://live.staticflickr.com/65535/51566694380_a69dcc6f36_n.jpg",
    "id_album": "1650283598",
    "description": "ANIME_PIC_c1492839359508706869968246e26f65,[GirlsSad],[isGirlAnime],[isCuteAnime],[isGirlsLoliAnime],[isSadAnimeGirl],[isSadAnime]",
    "title": "ANIME_PIC_c1492839359508706869968246e26f65",
    "link_img": "https://live.staticflickr.com/65535/51566694380_b047f03046_o.jpg",
    "id_image": "ANIME_PIC_c1492839359508706869968246e26f65",
    "count_view": 0
  },
  {
    "link_thumb": "https://live.staticflickr.com/65535/51568777419_550edeae6c_n.jpg",
    "id_album": "1650283598",
    "description": "ANIME_PIC_c152ca4f1afd56dc65bae944da814b7b,[GirlsSad],[isGirlAnime],[isCuteAnime],[isGirlEarsNekoAnime],[isGirlsLoliAnime],[isSadAnimeGirl],[isSadAnime]",
    "title": "ANIME_PIC_c152ca4f1afd56dc65bae944da814b7b",
    "link_img": "https://live.staticflickr.com/65535/51568777419_8a965dce24_o.jpg",
    "id_image": "ANIME_PIC_c152ca4f1afd56dc65bae944da814b7b",
    "count_view": 0
  },
  {
    "link_thumb": "https://live.staticflickr.com/65535/51565757981_0010278d54_n.jpg",
    "id_album": "1650283598",
    "description": "ANIME_PIC_c15c328dab52c91e1242c920847af4cc,[GirlsSad],[isGirlAnime],[isSadAnimeGirl],[isSadAnime]",
    "title": "ANIME_PIC_c15c328dab52c91e1242c920847af4cc",
    "link_img": "https://live.staticflickr.com/65535/51565757981_f588caa78c_o.png",
    "id_image": "ANIME_PIC_c15c328dab52c91e1242c920847af4cc",
    "count_view": 0
  },
  {
    "link_thumb": "https://live.staticflickr.com/65535/51565758376_7d8a242a47_n.jpg",
    "id_album": "1650283598",
    "description": "ANIME_PIC_c161ca952295571d272ba0e5aa6004c9,[GirlsSad],[isGirlAnime],[isCuteAnime],[isGirlsLoliAnime],[isSadAnimeGirl],[isSadAnime]",
    "title": "ANIME_PIC_c161ca952295571d272ba0e5aa6004c9",
    "link_img": "https://live.staticflickr.com/65535/51565758376_2d8991d402_o.jpg",
    "id_image": "ANIME_PIC_c161ca952295571d272ba0e5aa6004c9",
    "count_view": 0
  },
  {
    "link_thumb": "https://live.staticflickr.com/65535/51566003723_75698dc721_n.jpg",
    "id_album": "1650283598",
    "description": "ANIME_PIC_c167325b2ab44ffe28b1dafbe006b0e3,[GirlsSad],[isGirlAnime],[isCuteAnime],[isGirlsHatsHoodieAnime],[isGirlsLoliAnime],[isSadAnimeGirl],[isSadAnime]",
    "title": "ANIME_PIC_c167325b2ab44ffe28b1dafbe006b0e3",
    "link_img": "https://live.staticflickr.com/65535/51566003723_abd0bf9a78_o.png",
    "id_image": "ANIME_PIC_c167325b2ab44ffe28b1dafbe006b0e3",
    "count_view": 0
  },
  {
    "link_thumb": "https://live.staticflickr.com/65535/51566004418_c2397007f3_n.jpg",
    "id_album": "1650283598",
    "description": "ANIME_PIC_c168aca1e902bf89e6c5c5c9c7092e5b,[GirlsSad],[isGirlAnime],[isCuteAnime],[isSadAnimeGirl],[isSadAnime]",
    "title": "ANIME_PIC_c168aca1e902bf89e6c5c5c9c7092e5b",
    "link_img": "https://live.staticflickr.com/65535/51566004418_77cb6cd92b_o.jpg",
    "id_image": "ANIME_PIC_c168aca1e902bf89e6c5c5c9c7092e5b",
    "count_view": 0
  },
  {
    "link_thumb": "https://live.staticflickr.com/65535/51566696350_a339199f8d_n.jpg",
    "id_album": "1650283598",
    "description": "ANIME_PIC_c170b0287a0d25510641aa226035a324,[GirlsSad],[isGirlAnime],[isCuteAnime],[isGirlEarsNekoAnime],[isGirlsLoliAnime],[isSadAnimeGirl],[isSadAnime]",
    "title": "ANIME_PIC_c170b0287a0d25510641aa226035a324",
    "link_img": "https://live.staticflickr.com/65535/51566696350_421653ba81_o.jpg",
    "id_image": "ANIME_PIC_c170b0287a0d25510641aa226035a324",
    "count_view": 0
  },
  {
    "link_thumb": "https://live.staticflickr.com/65535/50153914927_0ff888d678_n.jpg",
    "id_album": "1650283598",
    "description": "ANIME_PIC_c180a120d1f845c3349d04ab6debe248,[isGirlAnime],[isSadAnime],[isSadAnimeGirl],[isCuteAnime],[Girls Sad],[GirlsSad],[isGirlEarsNekoAnime]",
    "title": "ANIME_PIC_c180a120d1f845c3349d04ab6debe248",
    "link_img": "https://live.staticflickr.com/65535/50153914927_029856d4a8_o.png",
    "id_image": "ANIME_PIC_c180a120d1f845c3349d04ab6debe248",
    "count_view": 0
  },
  {
    "link_thumb": "https://live.staticflickr.com/65535/51564969452_37fa6b13ef_n.jpg",
    "id_album": "1650283598",
    "description": "ANIME_PIC_c18803edc6a16d014a4a4ee60333e006,[GirlsSad],[isGirlAnime],[isCuteAnime],[isGirlsLoliAnime],[isSadAnimeGirl],[isSadAnime]",
    "title": "ANIME_PIC_c18803edc6a16d014a4a4ee60333e006",
    "link_img": "https://live.staticflickr.com/65535/51564969452_9c8ace1021_o.jpg",
    "id_image": "ANIME_PIC_c18803edc6a16d014a4a4ee60333e006",
    "count_view": 0
  },
  {
    "link_thumb": "https://live.staticflickr.com/65535/51566450254_9c00c49334_n.jpg",
    "id_album": "1650283598",
    "description": "ANIME_PIC_c188a735f3e3a2e89f1ad3e6396d1a0c,[GirlsSad],[isGirlAnime],[isCuteAnime],[isGirlsLoliAnime],[isSadAnimeGirl],[isSadAnime]",
    "title": "ANIME_PIC_c188a735f3e3a2e89f1ad3e6396d1a0c",
    "link_img": "https://live.staticflickr.com/65535/51566450254_b08f770db6_o.jpg",
    "id_image": "ANIME_PIC_c188a735f3e3a2e89f1ad3e6396d1a0c",
    "count_view": 0
  },
  {
    "link_thumb": "https://live.staticflickr.com/65535/50016003438_690fb763c7_n.jpg",
    "id_album": "1650283598",
    "description": "ANIME_PIC_c18db414cb74ecc5a468abb782c96025,[isGirlAnime],[isSadAnime],[isSadAnimeGirl],[isCuteAnime],[Girls Sad],[GirlsSad]",
    "title": "ANIME_PIC_c18db414cb74ecc5a468abb782c96025",
    "link_img": "https://live.staticflickr.com/65535/50016003438_7d1412ae4a_o.jpg",
    "id_image": "ANIME_PIC_c18db414cb74ecc5a468abb782c96025",
    "count_view": 0
  },
  {
    "link_thumb": "https://live.staticflickr.com/65535/51565760456_9b0c3b3c50_n.jpg",
    "id_album": "1650283598",
    "description": "ANIME_PIC_c1907eacbced159926cd115355955d21,[GirlsSad],[isGirlAnime],[isCuteAnime],[isGirlsLoliAnime],[isSadAnimeGirl],[isSadAnime]",
    "title": "ANIME_PIC_c1907eacbced159926cd115355955d21",
    "link_img": "https://live.staticflickr.com/65535/51565760456_b01d7dc84b_o.png",
    "id_image": "ANIME_PIC_c1907eacbced159926cd115355955d21",
    "count_view": 0
  },
  {
    "link_thumb": "https://live.staticflickr.com/65535/51564970482_8016262d24_n.jpg",
    "id_album": "1650283598",
    "description": "ANIME_PIC_c19bf894fd3691a1935d1cdf7f27a1a8,[GirlsSad],[isGirlAnime],[isCuteAnime],[isGirlsLoliAnime],[isSadAnimeGirl],[isSadAnime]",
    "title": "ANIME_PIC_c19bf894fd3691a1935d1cdf7f27a1a8",
    "link_img": "https://live.staticflickr.com/65535/51564970482_ce6ea6d97b_o.jpg",
    "id_image": "ANIME_PIC_c19bf894fd3691a1935d1cdf7f27a1a8",
    "count_view": 0
  },
  {
    "link_thumb": "https://live.staticflickr.com/65535/51566698050_88fca2a080_n.jpg",
    "id_album": "1650283598",
    "description": "ANIME_PIC_c19eff07e89365c98ec6060fa266fd8e,[GirlsSad],[isGirlAnime],[isCuteAnime],[isGirlsLoliAnime],[isSadAnimeGirl],[isSadAnime]",
    "title": "ANIME_PIC_c19eff07e89365c98ec6060fa266fd8e",
    "link_img": "https://live.staticflickr.com/65535/51566698050_fde5e17596_o.jpg",
    "id_image": "ANIME_PIC_c19eff07e89365c98ec6060fa266fd8e",
    "count_view": 0
  },
  {
    "link_thumb": "https://live.staticflickr.com/65535/51566451629_88dde0e1f0_n.jpg",
    "id_album": "1650283598",
    "description": "ANIME_PIC_c1a481e03b21a60a377f64fae4de6e37,[GirlsSad],[isGirlAnime],[isCuteAnime],[isSadAnimeGirl],[isSadAnime]",
    "title": "ANIME_PIC_c1a481e03b21a60a377f64fae4de6e37",
    "link_img": "https://live.staticflickr.com/65535/51566451629_e94b9e2ebe_o.png",
    "id_image": "ANIME_PIC_c1a481e03b21a60a377f64fae4de6e37",
    "count_view": 0
  },
  {
    "link_thumb": "https://live.staticflickr.com/65535/51566699215_9900a6f962_n.jpg",
    "id_album": "1650283598",
    "description": "ANIME_PIC_c1a8f9770d94539694a27caa5c0bd6bf,[GirlsSad],[isGirlAnime],[isCuteAnime],[isSadAnimeGirl],[isSadAnime]",
    "title": "ANIME_PIC_c1a8f9770d94539694a27caa5c0bd6bf",
    "link_img": "https://live.staticflickr.com/65535/51566699215_2c557abaaa_o.jpg",
    "id_image": "ANIME_PIC_c1a8f9770d94539694a27caa5c0bd6bf",
    "count_view": 0
  },
  {
    "link_thumb": "https://live.staticflickr.com/65535/51564972427_8868e760dc_n.jpg",
    "id_album": "1650283598",
    "description": "ANIME_PIC_c1b1d18c0ad4564546746ba929c0e65f,[GirlsSad],[isGirlAnime],[isSadAnimeGirl],[isSadAnime]",
    "title": "ANIME_PIC_c1b1d18c0ad4564546746ba929c0e65f",
    "link_img": "https://live.staticflickr.com/65535/51564972427_d33361af67_o.png",
    "id_image": "ANIME_PIC_c1b1d18c0ad4564546746ba929c0e65f",
    "count_view": 0
  },
  {
    "link_thumb": "https://live.staticflickr.com/65535/51566008678_f7d4558706_n.jpg",
    "id_album": "1650283598",
    "description": "ANIME_PIC_c1bb383933344ce03386e77dc3fd257c,[GirlsSad],[isGirlAnime],[isCuteAnime],[isGirlsHatsHoodieAnime],[isGirlsLoliAnime],[isSadAnimeGirl],[isGirlsSharpCanineToothAnime],[isSadAnime]",
    "title": "ANIME_PIC_c1bb383933344ce03386e77dc3fd257c",
    "link_img": "https://live.staticflickr.com/65535/51566008678_c30bd12839_o.jpg",
    "id_image": "ANIME_PIC_c1bb383933344ce03386e77dc3fd257c",
    "count_view": 0
  },
  {
    "link_thumb": "https://live.staticflickr.com/65535/51566453799_5d3b7773cb_n.jpg",
    "id_album": "1650283598",
    "description": "ANIME_PIC_c1c791d72e4755d9354cc4b89356926a,[GirlsSad],[isGirlAnime],[isCuteAnime],[isGirlsLoliAnime],[isSadAnimeGirl],[isSadAnime]",
    "title": "ANIME_PIC_c1c791d72e4755d9354cc4b89356926a",
    "link_img": "https://live.staticflickr.com/65535/51566453799_13f88cc823_o.jpg",
    "id_image": "ANIME_PIC_c1c791d72e4755d9354cc4b89356926a",
    "count_view": 0
  },
  {
    "link_thumb": "https://live.staticflickr.com/65535/51566454049_94b451c621_n.jpg",
    "id_album": "1650283598",
    "description": "ANIME_PIC_c1ca77694c241861f4c6a8c8d3d27ab4,[GirlsSad],[isGirlAnime],[isSadAnimeGirl],[isSadAnime]",
    "title": "ANIME_PIC_c1ca77694c241861f4c6a8c8d3d27ab4",
    "link_img": "https://live.staticflickr.com/65535/51566454049_8e76e166b5_o.jpg",
    "id_image": "ANIME_PIC_c1ca77694c241861f4c6a8c8d3d27ab4",
    "count_view": 0
  },
  {
    "link_thumb": "https://live.staticflickr.com/65535/51566454324_ca96e21f00_n.jpg",
    "id_album": "1650283598",
    "description": "ANIME_PIC_c1e82b2448fc0ba6722ec22197a8faaf,[GirlsSad],[isGirlAnime],[isCuteAnime],[isSadAnimeGirl],[isSadAnime]",
    "title": "ANIME_PIC_c1e82b2448fc0ba6722ec22197a8faaf",
    "link_img": "https://live.staticflickr.com/65535/51566454324_48654bba11_o.jpg",
    "id_image": "ANIME_PIC_c1e82b2448fc0ba6722ec22197a8faaf",
    "count_view": 0
  },
  {
    "link_thumb": "https://live.staticflickr.com/65535/51564974342_b63721f47c_n.jpg",
    "id_album": "1650283598",
    "description": "ANIME_PIC_c21ff4f87cb35625d4f025072289d216,[GirlsSad],[isGirlAnime],[isCuteAnime],[isGirlsLoliAnime],[isSadAnimeGirl],[isSadAnime]",
    "title": "ANIME_PIC_c21ff4f87cb35625d4f025072289d216",
    "link_img": "https://live.staticflickr.com/65535/51564974342_92f3b4ab9c_o.png",
    "id_image": "ANIME_PIC_c21ff4f87cb35625d4f025072289d216",
    "count_view": 0
  },
  {
    "link_thumb": "https://live.staticflickr.com/65535/51566701890_00c98ac97c_n.jpg",
    "id_album": "1650283598",
    "description": "ANIME_PIC_c23fc6e7a091de334c3879771450a8f7,[GirlsSad],[isGirlAnime],[isSadAnimeGirl],[isSadAnime]",
    "title": "ANIME_PIC_c23fc6e7a091de334c3879771450a8f7",
    "link_img": "https://live.staticflickr.com/65535/51566701890_515cd287a7_o.jpg",
    "id_image": "ANIME_PIC_c23fc6e7a091de334c3879771450a8f7",
    "count_view": 0
  },
  {
    "link_thumb": "https://live.staticflickr.com/65535/51565765476_185eb135db_n.jpg",
    "id_album": "1650283598",
    "description": "ANIME_PIC_c243d617d551dde31633f00448ebadb7,[GirlsSad],[isGirlAnime],[isCuteAnime],[isSadAnimeGirl],[isSadAnime]",
    "title": "ANIME_PIC_c243d617d551dde31633f00448ebadb7",
    "link_img": "https://live.staticflickr.com/65535/51565765476_5b34a0fa4a_o.jpg",
    "id_image": "ANIME_PIC_c243d617d551dde31633f00448ebadb7",
    "count_view": 0
  },
  {
    "link_thumb": "https://live.staticflickr.com/65535/50240791261_be48a4ae3f_n.jpg",
    "id_album": "1650283598",
    "description": "ANIME_PIC_c24c028ea081815a6757e8d3766dd5fd,[isGirlAnime],[isSadAnime],[isSadAnimeGirl],[isCuteAnime],[Girls Sad],[GirlsSad]",
    "title": "ANIME_PIC_c24c028ea081815a6757e8d3766dd5fd",
    "link_img": "https://live.staticflickr.com/65535/50240791261_6d71bcf85a_o.jpg",
    "id_image": "ANIME_PIC_c24c028ea081815a6757e8d3766dd5fd",
    "count_view": 0
  },
  {
    "link_thumb": "https://live.staticflickr.com/65535/51566702485_e805b076e7_n.jpg",
    "id_album": "1650283598",
    "description": "ANIME_PIC_c24d92eba464bc2cbd278d6ee6ef361c,[GirlsSad],[isGirlAnime],[isCuteAnime],[isGirlsLoliAnime],[isSadAnimeGirl],[isSadAnime]",
    "title": "ANIME_PIC_c24d92eba464bc2cbd278d6ee6ef361c",
    "link_img": "https://live.staticflickr.com/65535/51566702485_d0cfe85cf2_o.jpg",
    "id_image": "ANIME_PIC_c24d92eba464bc2cbd278d6ee6ef361c",
    "count_view": 0
  },
  {
    "link_thumb": "https://live.staticflickr.com/65535/51566011378_4d7e6a9a16_n.jpg",
    "id_album": "1650283598",
    "description": "ANIME_PIC_c250ab8e0723d23614451fce94ab1c9b,[GirlsSad],[isGirlAnime],[isCuteAnime],[isGirlsHatsHoodieAnime],[isGirlsLoliAnime],[isSadAnimeGirl],[isSadAnime]",
    "title": "ANIME_PIC_c250ab8e0723d23614451fce94ab1c9b",
    "link_img": "https://live.staticflickr.com/65535/51566011378_12b876c28b_o.png",
    "id_image": "ANIME_PIC_c250ab8e0723d23614451fce94ab1c9b",
    "count_view": 0
  },
  {
    "link_thumb": "https://live.staticflickr.com/65535/51566703195_a6f67a3fdf_n.jpg",
    "id_album": "1650283598",
    "description": "ANIME_PIC_c268d40f08b70ffdb87d0204e3594d79,[GirlsSad],[isGirlAnime],[isCuteAnime],[isGirlsLoliAnime],[isSadAnimeGirl],[isSadAnime]",
    "title": "ANIME_PIC_c268d40f08b70ffdb87d0204e3594d79",
    "link_img": "https://live.staticflickr.com/65535/51566703195_2ccb1eae2d_o.jpg",
    "id_image": "ANIME_PIC_c268d40f08b70ffdb87d0204e3594d79",
    "count_view": 0
  },
  {
    "link_thumb": "https://live.staticflickr.com/65535/51566703535_5ea4bc2c00_n.jpg",
    "id_album": "1650283598",
    "description": "ANIME_PIC_c275a15104301452a47f0a3e97962d2b,[GirlsSad],[isGirlAnime],[isSadAnimeGirl],[isSadAnime]",
    "title": "ANIME_PIC_c275a15104301452a47f0a3e97962d2b",
    "link_img": "https://live.staticflickr.com/65535/51566703535_a20ec1e47f_o.png",
    "id_image": "ANIME_PIC_c275a15104301452a47f0a3e97962d2b",
    "count_view": 0
  },
  {
    "link_thumb": "https://live.staticflickr.com/65535/51564976962_7e576fc5d6_n.jpg",
    "id_album": "1650283598",
    "description": "ANIME_PIC_c2874a6e202c90f1061b46480cfa6e19,[GirlsSad],[isGirlAnime],[isCuteAnime],[isGirlsHatsHoodieAnime],[isGirlsLoliAnime],[isSadAnimeGirl],[isSadAnime]",
    "title": "ANIME_PIC_c2874a6e202c90f1061b46480cfa6e19",
    "link_img": "https://live.staticflickr.com/65535/51564976962_e587904a95_o.png",
    "id_image": "ANIME_PIC_c2874a6e202c90f1061b46480cfa6e19",
    "count_view": 0
  },
  {
    "link_thumb": "https://live.staticflickr.com/65535/51565767431_0089575d77_n.jpg",
    "id_album": "1650283598",
    "description": "ANIME_PIC_c293437bd8b2b62f5b15cade2a91b04a,[GirlsSad],[isGirlAnime],[isCuteAnime],[isGirlsLoliAnime],[isSadAnimeGirl],[isSadAnime]",
    "title": "ANIME_PIC_c293437bd8b2b62f5b15cade2a91b04a",
    "link_img": "https://live.staticflickr.com/65535/51565767431_4394c002ff_o.jpg",
    "id_image": "ANIME_PIC_c293437bd8b2b62f5b15cade2a91b04a",
    "count_view": 0
  },
  {
    "link_thumb": "https://live.staticflickr.com/65535/51566458004_2fecd13e17_n.jpg",
    "id_album": "1650283598",
    "description": "ANIME_PIC_c297c8ce47478824b83fd7e6343b07ca,[GirlsSad],[isGirlAnime],[isSadAnimeGirl],[isSadAnime]",
    "title": "ANIME_PIC_c297c8ce47478824b83fd7e6343b07ca",
    "link_img": "https://live.staticflickr.com/65535/51566458004_8e2319a9a9_o.png",
    "id_image": "ANIME_PIC_c297c8ce47478824b83fd7e6343b07ca",
    "count_view": 0
  },
  {
    "link_thumb": "https://live.staticflickr.com/65535/51566013803_3cc8206c79_n.jpg",
    "id_album": "1650283598",
    "description": "ANIME_PIC_c2bdf3af12e5584b6775f2989f376d5e,[GirlsSad],[isGirlAnime],[isCuteAnime],[isGirlsLoliAnime],[isSadAnimeGirl],[isSadAnime]",
    "title": "ANIME_PIC_c2bdf3af12e5584b6775f2989f376d5e",
    "link_img": "https://live.staticflickr.com/65535/51566013803_c204a092e8_o.jpg",
    "id_image": "ANIME_PIC_c2bdf3af12e5584b6775f2989f376d5e",
    "count_view": 0
  },
  {
    "link_thumb": "https://live.staticflickr.com/65535/51566458714_da743217d9_n.jpg",
    "id_album": "1650283598",
    "description": "ANIME_PIC_c2c3beaa3bc7cf365eef550f2a5bd5b2,[GirlsSad],[isGirlAnime],[isCuteAnime],[isSadAnimeGirl],[isSadAnime]",
    "title": "ANIME_PIC_c2c3beaa3bc7cf365eef550f2a5bd5b2",
    "link_img": "https://live.staticflickr.com/65535/51566458714_7a02c01f8b_o.png",
    "id_image": "ANIME_PIC_c2c3beaa3bc7cf365eef550f2a5bd5b2",
    "count_view": 0
  },
  {
    "link_thumb": "https://live.staticflickr.com/65535/51566706040_86e54f2feb_n.jpg",
    "id_album": "1650283598",
    "description": "ANIME_PIC_c2c6b1be42a44843956b9842e54cfba8,[GirlsSad],[isGirlAnime],[isCuteAnime],[isSadAnimeGirl],[isSadAnime]",
    "title": "ANIME_PIC_c2c6b1be42a44843956b9842e54cfba8",
    "link_img": "https://live.staticflickr.com/65535/51566706040_491144447d_o.jpg",
    "id_image": "ANIME_PIC_c2c6b1be42a44843956b9842e54cfba8",
    "count_view": 0
  },
  {
    "link_thumb": "https://live.staticflickr.com/65535/51566459709_f4852564ec_n.jpg",
    "id_album": "1650283598",
    "description": "ANIME_PIC_c2ddab6af8a363a837d4042e843695ed,[GirlsSad],[isGirlAnime],[isCuteAnime],[isSadAnimeGirl],[isSadAnime]",
    "title": "ANIME_PIC_c2ddab6af8a363a837d4042e843695ed",
    "link_img": "https://live.staticflickr.com/65535/51566459709_de745890df_o.jpg",
    "id_image": "ANIME_PIC_c2ddab6af8a363a837d4042e843695ed",
    "count_view": 0
  },
  {
    "link_thumb": "https://live.staticflickr.com/65535/51566015278_ff83b4d39b_n.jpg",
    "id_album": "1650283598",
    "description": "ANIME_PIC_c2e4cd9f3434647531d2c7eb373f68a7,[GirlsSad],[isGirlAnime],[isCuteAnime],[isGirlsLoliAnime],[isSadAnimeGirl],[isSadAnime]",
    "title": "ANIME_PIC_c2e4cd9f3434647531d2c7eb373f68a7",
    "link_img": "https://live.staticflickr.com/65535/51566015278_00c00fd3b6_o.jpg",
    "id_image": "ANIME_PIC_c2e4cd9f3434647531d2c7eb373f68a7",
    "count_view": 0
  },
  {
    "link_thumb": "https://live.staticflickr.com/65535/51566460454_ba7264cd9b_n.jpg",
    "id_album": "1650283598",
    "description": "ANIME_PIC_c2f3c7c3b357e16d99e5eb2140d80a24,[GirlsSad],[isGirlAnime],[isCuteAnime],[isGirlEarsNekoAnime],[isGirlsLoliAnime],[isSadAnimeGirl],[isSadAnime]",
    "title": "ANIME_PIC_c2f3c7c3b357e16d99e5eb2140d80a24",
    "link_img": "https://live.staticflickr.com/65535/51566460454_34f0e802a5_o.jpg",
    "id_image": "ANIME_PIC_c2f3c7c3b357e16d99e5eb2140d80a24",
    "count_view": 0
  },
  {
    "link_thumb": "https://live.staticflickr.com/65535/51566460839_7ec577ff7d_n.jpg",
    "id_album": "1650283598",
    "description": "ANIME_PIC_c2fac0949261d2b7c39176479e07a520,[GirlsSad],[isGirlAnime],[isSadAnimeGirl],[isSadAnime]",
    "title": "ANIME_PIC_c2fac0949261d2b7c39176479e07a520",
    "link_img": "https://live.staticflickr.com/65535/51566460839_477a9ec7db_o.jpg",
    "id_image": "ANIME_PIC_c2fac0949261d2b7c39176479e07a520",
    "count_view": 0
  },
  {
    "link_thumb": "https://live.staticflickr.com/65535/51565771141_602f2bf1f4_n.jpg",
    "id_album": "1650283598",
    "description": "ANIME_PIC_c3011409429c20a286b7b77c5f105672,[GirlsSad],[isGirlAnime],[isCuteAnime],[isBlackAnime],[isGirlsHatsHoodieAnime],[isSadAnimeGirl],[isSadAnime]",
    "title": "ANIME_PIC_c3011409429c20a286b7b77c5f105672",
    "link_img": "https://live.staticflickr.com/65535/51565771141_72324ffde1_o.jpg",
    "id_image": "ANIME_PIC_c3011409429c20a286b7b77c5f105672",
    "count_view": 0
  },
  {
    "link_thumb": "https://live.staticflickr.com/65535/51565771421_bd091e71ca_n.jpg",
    "id_album": "1650283598",
    "description": "ANIME_PIC_c3153053a3ea3e9eadf7fc2f6845266c,[GirlsSad],[isGirlAnime],[isSadAnimeGirl],[isSadAnime]",
    "title": "ANIME_PIC_c3153053a3ea3e9eadf7fc2f6845266c",
    "link_img": "https://live.staticflickr.com/65535/51565771421_8b7e32e5bb_o.jpg",
    "id_image": "ANIME_PIC_c3153053a3ea3e9eadf7fc2f6845266c",
    "count_view": 0
  },
  {
    "link_thumb": "https://live.staticflickr.com/65535/51564981452_9669b89aa0_n.jpg",
    "id_album": "1650283598",
    "description": "ANIME_PIC_c316c31443b09eff7d701d218e3a3ca6,[GirlsSad],[isGirlAnime],[isCuteAnime],[isGirlEarsNekoAnime],[isGirlsHatsHoodieAnime],[isGirlsLoliAnime],[isSadAnimeGirl],[isSadAnime]",
    "title": "ANIME_PIC_c316c31443b09eff7d701d218e3a3ca6",
    "link_img": "https://live.staticflickr.com/65535/51564981452_dd58589d9a_o.jpg",
    "id_image": "ANIME_PIC_c316c31443b09eff7d701d218e3a3ca6",
    "count_view": 0
  },
  {
    "link_thumb": "https://live.staticflickr.com/65535/51566017548_717b0bd806_n.jpg",
    "id_album": "1650283598",
    "description": "ANIME_PIC_c317393fccd735f09179ee92da387893,[GirlsSad],[isGirlAnime],[isCuteAnime],[isSadAnimeGirl],[isSadAnime]",
    "title": "ANIME_PIC_c317393fccd735f09179ee92da387893",
    "link_img": "https://live.staticflickr.com/65535/51566017548_f27335ea2e_o.jpg",
    "id_image": "ANIME_PIC_c317393fccd735f09179ee92da387893",
    "count_view": 0
  },
  {
    "link_thumb": "https://live.staticflickr.com/65535/51566462634_26ea2a7a6b_n.jpg",
    "id_album": "1650283598",
    "description": "ANIME_PIC_c31a60db245e52f7b83094800b5f59fd,[GirlsSad],[isGirlAnime],[isCuteAnime],[isGirlsLoliAnime],[isSadAnimeGirl],[isSadAnime]",
    "title": "ANIME_PIC_c31a60db245e52f7b83094800b5f59fd",
    "link_img": "https://live.staticflickr.com/65535/51566462634_6592437764_o.jpg",
    "id_image": "ANIME_PIC_c31a60db245e52f7b83094800b5f59fd",
    "count_view": 0
  },
  {
    "link_thumb": "https://live.staticflickr.com/65535/51566018198_90242b94dc_n.jpg",
    "id_album": "1650283598",
    "description": "ANIME_PIC_c31a6a10aa62f8cdcb034aa7181cb05c,[GirlsSad],[isGirlAnime],[isCuteAnime],[isGirlsLoliAnime],[isSadAnimeGirl],[isSadAnime]",
    "title": "ANIME_PIC_c31a6a10aa62f8cdcb034aa7181cb05c",
    "link_img": "https://live.staticflickr.com/65535/51566018198_fd96817864_o.png",
    "id_image": "ANIME_PIC_c31a6a10aa62f8cdcb034aa7181cb05c",
    "count_view": 0
  },
  {
    "link_thumb": "https://live.staticflickr.com/65535/51564983207_9870d197b7_n.jpg",
    "id_album": "1650283598",
    "description": "ANIME_PIC_c3202b520ea593e59f3cf7d8948c375e,[GirlsSad],[isGirlAnime],[isSadAnimeGirl],[isSadAnime]",
    "title": "ANIME_PIC_c3202b520ea593e59f3cf7d8948c375e",
    "link_img": "https://live.staticflickr.com/65535/51564983207_b3b7589c71_o.jpg",
    "id_image": "ANIME_PIC_c3202b520ea593e59f3cf7d8948c375e",
    "count_view": 0
  },
  {
    "link_thumb": "https://live.staticflickr.com/65535/51564983487_c7f2134cb3_n.jpg",
    "id_album": "1650283598",
    "description": "ANIME_PIC_c32b258aea45c77241e2779d953e8ffb,[GirlsSad],[isGirlAnime],[isCuteAnime],[isGirlsLoliAnime],[isSadAnimeGirl],[isSadAnime]",
    "title": "ANIME_PIC_c32b258aea45c77241e2779d953e8ffb",
    "link_img": "https://live.staticflickr.com/65535/51564983487_f60e736d8b_o.png",
    "id_image": "ANIME_PIC_c32b258aea45c77241e2779d953e8ffb",
    "count_view": 0
  },
  {
    "link_thumb": "https://live.staticflickr.com/65535/51566464389_356047fa07_n.jpg",
    "id_album": "1650283598",
    "description": "ANIME_PIC_c32b49bd385c3bdf42266dacdd1ceb46,[GirlsSad],[isGirlAnime],[isCuteAnime],[isSadAnimeGirl],[isSadAnime]",
    "title": "ANIME_PIC_c32b49bd385c3bdf42266dacdd1ceb46",
    "link_img": "https://live.staticflickr.com/65535/51566464389_5ec0ef1386_o.jpg",
    "id_image": "ANIME_PIC_c32b49bd385c3bdf42266dacdd1ceb46",
    "count_view": 0
  },
  {
    "link_thumb": "https://live.staticflickr.com/65535/51566711255_5ed9a0f8ca_n.jpg",
    "id_album": "1650283598",
    "description": "ANIME_PIC_c32ef4441e2d63bb5c11d97fdede3f56,[GirlsSad],[isGirlAnime],[isCuteAnime],[isGirlsLoliAnime],[isSadAnimeGirl],[isSadAnime]",
    "title": "ANIME_PIC_c32ef4441e2d63bb5c11d97fdede3f56",
    "link_img": "https://live.staticflickr.com/65535/51566711255_0e5212b50f_o.jpg",
    "id_image": "ANIME_PIC_c32ef4441e2d63bb5c11d97fdede3f56",
    "count_view": 0
  },
  {
    "link_thumb": "https://live.staticflickr.com/65535/51565775001_ebe0ddd032_n.jpg",
    "id_album": "1650283598",
    "description": "ANIME_PIC_c34a2289016485c3ed3b9dea474061a9,[GirlsSad],[isGirlAnime],[isCuteAnime],[isSadAnimeGirl],[isSadAnime]",
    "title": "ANIME_PIC_c34a2289016485c3ed3b9dea474061a9",
    "link_img": "https://live.staticflickr.com/65535/51565775001_f10b44d353_o.jpg",
    "id_image": "ANIME_PIC_c34a2289016485c3ed3b9dea474061a9",
    "count_view": 0
  },
  {
    "link_thumb": "https://live.staticflickr.com/65535/51564985207_36eb59a19c_n.jpg",
    "id_album": "1650283598",
    "description": "ANIME_PIC_c350ddc9d60a21b07fd7377acd1a065b,[GirlsSad],[isGirlAnime],[isSadAnimeGirl],[isSadAnime],[isSceneryArts]",
    "title": "ANIME_PIC_c350ddc9d60a21b07fd7377acd1a065b",
    "link_img": "https://live.staticflickr.com/65535/51564985207_7522cb2c92_o.jpg",
    "id_image": "ANIME_PIC_c350ddc9d60a21b07fd7377acd1a065b",
    "count_view": 0
  },
  {
    "link_thumb": "https://live.staticflickr.com/65535/51566712345_2f2f8543e5_n.jpg",
    "id_album": "1650283598",
    "description": "ANIME_PIC_c36d926fc4964357e5f4746b425ff5e5,[GirlsSad],[isGirlAnime],[isCuteAnime],[isGirlsLoliAnime],[isSadAnimeGirl],[isSadAnime]",
    "title": "ANIME_PIC_c36d926fc4964357e5f4746b425ff5e5",
    "link_img": "https://live.staticflickr.com/65535/51566712345_705d8d16f2_o.png",
    "id_image": "ANIME_PIC_c36d926fc4964357e5f4746b425ff5e5",
    "count_view": 0
  },
  {
    "link_thumb": "https://live.staticflickr.com/65535/51566021563_588aef6567_n.jpg",
    "id_album": "1650283598",
    "description": "ANIME_PIC_c37ba1a71ef52044021d5e4c0fc0beb9,[GirlsSad],[isGirlAnime],[isCuteAnime],[isSadAnimeGirl],[isSadAnime]",
    "title": "ANIME_PIC_c37ba1a71ef52044021d5e4c0fc0beb9",
    "link_img": "https://live.staticflickr.com/65535/51566021563_a6b8e71ba0_o.jpg",
    "id_image": "ANIME_PIC_c37ba1a71ef52044021d5e4c0fc0beb9",
    "count_view": 0
  },
  {
    "link_thumb": "https://live.staticflickr.com/65535/51565776741_31903cfff2_n.jpg",
    "id_album": "1650283598",
    "description": "ANIME_PIC_c38512dad6096188c77fbc7fe51c84a3,[GirlsSad],[isGirlAnime],[isCuteAnime],[isSadAnimeGirl],[isSadAnime]",
    "title": "ANIME_PIC_c38512dad6096188c77fbc7fe51c84a3",
    "link_img": "https://live.staticflickr.com/65535/51565776741_dd37075714_o.png",
    "id_image": "ANIME_PIC_c38512dad6096188c77fbc7fe51c84a3",
    "count_view": 0
  },
  {
    "link_thumb": "https://live.staticflickr.com/65535/51566022328_108e545ec7_n.jpg",
    "id_album": "1650283598",
    "description": "ANIME_PIC_c39e6e176ad10b07c13b0c5709845a65,[GirlsSad],[isGirlAnime],[isCuteAnime],[isSadAnimeGirl],[isSadAnime]",
    "title": "ANIME_PIC_c39e6e176ad10b07c13b0c5709845a65",
    "link_img": "https://live.staticflickr.com/65535/51566022328_43e1b9a14d_o.jpg",
    "id_image": "ANIME_PIC_c39e6e176ad10b07c13b0c5709845a65",
    "count_view": 0
  },
  {
    "link_thumb": "https://live.staticflickr.com/65535/51566713860_88beb71c62_n.jpg",
    "id_album": "1650283598",
    "description": "ANIME_PIC_c3a43cabc69f82f67bc7d69e1e71e99e,[GirlsSad],[isGirlAnime],[isCuteAnime],[isSadAnimeGirl],[isSadAnime]",
    "title": "ANIME_PIC_c3a43cabc69f82f67bc7d69e1e71e99e",
    "link_img": "https://live.staticflickr.com/65535/51566713860_d789fa549f_o.jpg",
    "id_image": "ANIME_PIC_c3a43cabc69f82f67bc7d69e1e71e99e",
    "count_view": 0
  },
  {
    "link_thumb": "https://live.staticflickr.com/65535/51566023103_e86dba5939_n.jpg",
    "id_album": "1650283598",
    "description": "ANIME_PIC_c3abe86bdc4f8f4b120c4d6826cd13ae,[GirlsSad],[isGirlAnime],[isCuteAnime],[isSadAnimeGirl],[isSadAnime]",
    "title": "ANIME_PIC_c3abe86bdc4f8f4b120c4d6826cd13ae",
    "link_img": "https://live.staticflickr.com/65535/51566023103_23ee4bdc78_o.jpg",
    "id_image": "ANIME_PIC_c3abe86bdc4f8f4b120c4d6826cd13ae",
    "count_view": 0
  },
  {
    "link_thumb": "https://live.staticflickr.com/65535/51564988002_4615755127_n.jpg",
    "id_album": "1650283598",
    "description": "ANIME_PIC_c3ac54c980c62c93ad9ff34c617d0426,[GirlsSad],[isGirlAnime],[isCuteAnime],[isSadAnimeGirl],[isSadAnime]",
    "title": "ANIME_PIC_c3ac54c980c62c93ad9ff34c617d0426",
    "link_img": "https://live.staticflickr.com/65535/51564988002_9bc8cdfee1_o.jpg",
    "id_image": "ANIME_PIC_c3ac54c980c62c93ad9ff34c617d0426",
    "count_view": 0
  },
  {
    "link_thumb": "https://live.staticflickr.com/65535/51564988312_86060f3a65_n.jpg",
    "id_album": "1650283598",
    "description": "ANIME_PIC_c3c7468326bb42e974932a4e3f441bfb,[GirlsSad],[isGirlAnime],[isCuteAnime],[isSadAnimeGirl],[isSadAnime]",
    "title": "ANIME_PIC_c3c7468326bb42e974932a4e3f441bfb",
    "link_img": "https://live.staticflickr.com/65535/51564988312_9ac48bc2e9_o.jpg",
    "id_image": "ANIME_PIC_c3c7468326bb42e974932a4e3f441bfb",
    "count_view": 0
  },
  {
    "link_thumb": "https://live.staticflickr.com/65535/51566024123_aecf2f1b45_n.jpg",
    "id_album": "1650283598",
    "description": "ANIME_PIC_c3de3e4748ec1190e5d0dbc28f8ce497,[GirlsSad],[isGirlAnime],[isCuteAnime],[isGirlsLoliAnime],[isSadAnimeGirl],[isSadAnime]",
    "title": "ANIME_PIC_c3de3e4748ec1190e5d0dbc28f8ce497",
    "link_img": "https://live.staticflickr.com/65535/51566024123_b72f9b5367_o.jpg",
    "id_image": "ANIME_PIC_c3de3e4748ec1190e5d0dbc28f8ce497",
    "count_view": 0
  },
  {
    "link_thumb": "https://live.staticflickr.com/65535/51566024423_4e2525acff_n.jpg",
    "id_album": "1650283598",
    "description": "ANIME_PIC_c401faebf3d71c7fd4b8c4dc0cc2a017,[GirlsSad],[isGirlAnime],[isCuteAnime],[isGirlEarsNekoAnime],[isGirlsLoliAnime],[isSadAnimeGirl],[isGirlsSharpCanineToothAnime],[isSadAnime]",
    "title": "ANIME_PIC_c401faebf3d71c7fd4b8c4dc0cc2a017",
    "link_img": "https://live.staticflickr.com/65535/51566024423_8349e1f7e2_o.jpg",
    "id_image": "ANIME_PIC_c401faebf3d71c7fd4b8c4dc0cc2a017",
    "count_view": 0
  },
  {
    "link_thumb": "https://live.staticflickr.com/65535/51564989287_89f50158a0_n.jpg",
    "id_album": "1650283598",
    "description": "ANIME_PIC_c404e240bfb70cbd7a3a6f39d322a851,[GirlsSad],[isGirlAnime],[isCuteAnime],[isGirlsLoliAnime],[isSadAnimeGirl],[isSadAnime]",
    "title": "ANIME_PIC_c404e240bfb70cbd7a3a6f39d322a851",
    "link_img": "https://live.staticflickr.com/65535/51564989287_34d3a9683f_o.jpg",
    "id_image": "ANIME_PIC_c404e240bfb70cbd7a3a6f39d322a851",
    "count_view": 0
  },
  {
    "link_thumb": "https://live.staticflickr.com/65535/51566025213_a6a3bcb4a7_n.jpg",
    "id_album": "1650283598",
    "description": "ANIME_PIC_c4178b2e88be6919568d49c0e38857fc,[GirlsSad],[isGirlAnime],[isSadAnimeGirl],[isSadAnime]",
    "title": "ANIME_PIC_c4178b2e88be6919568d49c0e38857fc",
    "link_img": "https://live.staticflickr.com/65535/51566025213_1d0d9925e6_o.jpg",
    "id_image": "ANIME_PIC_c4178b2e88be6919568d49c0e38857fc",
    "count_view": 0
  },
  {
    "link_thumb": "https://live.staticflickr.com/65535/51564989967_5d8e33fa23_n.jpg",
    "id_album": "1650283598",
    "description": "ANIME_PIC_c420a4f7d9ebb95aae47fe19134fcc09,[GirlsSad],[isGirlAnime],[isSadAnimeGirl],[isSadAnime]",
    "title": "ANIME_PIC_c420a4f7d9ebb95aae47fe19134fcc09",
    "link_img": "https://live.staticflickr.com/65535/51564989967_027d9b4205_o.jpg",
    "id_image": "ANIME_PIC_c420a4f7d9ebb95aae47fe19134fcc09",
    "count_view": 0
  },
  {
    "link_thumb": "https://live.staticflickr.com/65535/51566470794_8cf6957e3d_n.jpg",
    "id_album": "1650283598",
    "description": "ANIME_PIC_c42791c8226b435fcf4e360d1df7219b,[GirlsSad],[isGirlAnime],[isCuteAnime],[isGirlEarsNekoAnime],[isGirlsLoliAnime],[isSadAnimeGirl],[isSadAnime]",
    "title": "ANIME_PIC_c42791c8226b435fcf4e360d1df7219b",
    "link_img": "https://live.staticflickr.com/65535/51566470794_c9615298a5_o.png",
    "id_image": "ANIME_PIC_c42791c8226b435fcf4e360d1df7219b",
    "count_view": 0
  },
  {
    "link_thumb": "https://live.staticflickr.com/65535/51566471299_416499f43c_n.jpg",
    "id_album": "1650283598",
    "description": "ANIME_PIC_c429ec58d0c43fe917d7e4f3e56fee15,[GirlsSad],[isGirlAnime],[isCuteAnime],[isSadAnimeGirl],[isSadAnime]",
    "title": "ANIME_PIC_c429ec58d0c43fe917d7e4f3e56fee15",
    "link_img": "https://live.staticflickr.com/65535/51566471299_dc59be0300_o.jpg",
    "id_image": "ANIME_PIC_c429ec58d0c43fe917d7e4f3e56fee15",
    "count_view": 0
  },
  {
    "link_thumb": "https://live.staticflickr.com/65535/51566717490_7a90a281a3_n.jpg",
    "id_album": "1650283598",
    "description": "ANIME_PIC_c42a9466afe354891135b808729b5ea8,[GirlsSad],[isGirlAnime],[isCuteAnime],[isGirlsHatsHoodieAnime],[isSadAnimeGirl],[isSadAnime]",
    "title": "ANIME_PIC_c42a9466afe354891135b808729b5ea8",
    "link_img": "https://live.staticflickr.com/65535/51566717490_1a6705f8de_o.jpg",
    "id_image": "ANIME_PIC_c42a9466afe354891135b808729b5ea8",
    "count_view": 0
  },
  {
    "link_thumb": "https://live.staticflickr.com/65535/51566471814_d350d6da77_n.jpg",
    "id_album": "1650283598",
    "description": "ANIME_PIC_c4325fdfedaec25c6908fdc21a00dc1d,[GirlsSad],[isGirlAnime],[isCuteAnime],[isGirlEarsNekoAnime],[isGirlsLoliAnime],[isSadAnimeGirl],[isSadAnime]",
    "title": "ANIME_PIC_c4325fdfedaec25c6908fdc21a00dc1d",
    "link_img": "https://live.staticflickr.com/65535/51566471814_1bcae190af_o.jpg",
    "id_image": "ANIME_PIC_c4325fdfedaec25c6908fdc21a00dc1d",
    "count_view": 0
  }
]