[
  {
    "total_img": 745,
    "number_page": 4,
    "title": "Bleach 1",
    "tag": "Sky, Grimmjow Jaegerjaquez, Moon, Baraggan Louisenbairn, Byakuya Kuchiki, Nnoitra Gilga, Ganju Shiba, Shinji Hirako, Yammy Llargo, Sajin Komamura, Szayelaporro Granz, Sword, Zabimaru Bleach, Isane Kotetsu, Yoruichi Shihoin, Bleach Fade to Black, Senna Bleach, Isshin Kurosaki, Purple Eyes, Rojuro Otoribashi, Demon, Yukio Hans Vorarlberna, Franceska Mila Rose, Uryu Ishida, Chojiro Sasakibe, Toshiro Hitsugaya, Sea, Skirt, Kuukaku Shiba, Cyan SungSun, Aaroniero Arruruerie, Tetsuzaemon Iba, Kaien Shiba, Hisana Kuchiki, Nelliel Tu Odelschwanck, Unohana Retsu, Coyote Starrk, Tier Halibel, Orihime Inoue, Mayuri Kurotsuchi, Mashiro Kuna, ayame Bleach, Hiyori Sarugaki, Rangiku Matsumoto, Kaname Tosen, Yachiru Kusajishi, Nemu Kurotsuchi, Fullbringers, toubime Bleach, Yasutora Sado, Suzumebachi Bleach, Warrior, Renji Abarai, Tatsuki Arisawa, Pink Hair, Aaron Ashmore, Ichigo Kurosaki, Hachigen Ushoda, Menoly Mallia, Sakuno Uryuu, Halloween, Zangetsu Bleach, Ruka Urushibara, Hihio Zabimaru, Lisa Yadomaru, Haineko Bleach, Kensei Muguruma, Kiyone Kotetsu, Rain, Anime, Kenpachi Zaraki, Yuzu Kurosaki, Keigo Asano, Kon Bleach, Emilou Apacci, Yumichika Ayasegawa, Momo Hinamori, Hisagi Shuhei, Kisuke Urahara, Ulquiorra Cifer, Kia, Ikkaku Madarame, Shunsui Kyoraku, Lilynette Gingerback, Sode no Shirayuki, Rukia Kuchiki, Sosuke Aizen, Bleach, Senbonzakura Bleach, Luppi Antenor, Izuru Kira, Bankai, Shuno Bleach, Kugo Ginjo, Red Eyes, Bleach 1, Beauty And The Beast, Dark, Tobiume Bleach, Fantasy, Zommari Rureaux, Hanataro Yamada, Kazeshini Bleach, Chizuru Honshou, Ururu Tsumugiya, Genryusai Shigekuni Yamamoto, Giriko Kutzusawa, Rainbow, Soifon Bleach, Marechiyo Omaeda, Rudbornn Chelute, Karin Kurosaki, Gin Ichimaru, Sentaro Kotsubaki, Jushiro Ukitake, Hyorinmaru Bleach, Nanao Ise, Ririn Bleach, Jackie Tristan, Nel Tu, Cloud, Riruka Dokugamine, Skull, Love Aikawa",
    "description": "Bleach 1",
    "link_thumb": "https://live.staticflickr.com/65535/40937309893_573d014048_n.jpg",
    "id_album": "-216657840",
    "total_view": 745
  },
  {
    "total_img": 481,
    "number_page": 3,
    "title": "Ichigo Kurosaki",
    "tag": "Ichigo Kurosaki,",
    "description": "Ichigo Kurosaki",
    "link_thumb": "https://live.staticflickr.com/65535/47961148023_a0b7ec68ee_n.jpg",
    "id_album": "1954085017",
    "total_view": 481
  },
  {
    "total_img": 14,
    "number_page": 1,
    "title": "Rangiku Matsumoto",
    "tag": "Rangiku Matsumoto,",
    "description": "Rangiku Matsumoto",
    "link_thumb": "https://live.staticflickr.com/65535/47856417412_6db19f9acf_n.jpg",
    "id_album": "-1469179084",
    "total_view": 14
  },
  {
    "total_img": 93,
    "number_page": 1,
    "title": "Renji Abarai",
    "tag": "Renji Abarai,",
    "description": "Renji Abarai",
    "link_thumb": "https://live.staticflickr.com/65535/47955727468_01a7768d37_n.jpg",
    "id_album": "-1599042240",
    "total_view": 93
  },
  {
    "total_img": 192,
    "number_page": 1,
    "title": "Rukia Kuchiki",
    "tag": "Rukia Kuchiki,",
    "description": "Rukia Kuchiki",
    "link_thumb": "https://live.staticflickr.com/65535/47960593991_f3f0116021_n.jpg",
    "id_album": "-433674213",
    "total_view": 192
  }
]