[
  {
    "total_img": 515,
    "number_page": 3,
    "title": "Dragon Ball Super",
    "tag": "Hercule Dragon Ball, Super Saiyan 3, Gogeta Dragon Ball, Whis Dragon Ball, Super Saiyan 2, Super Saiyan 4, Legendary Super Saiyan, Black Hair, Kale Dragon Ball, Sidra Dragon Ball, Satan Dragon Ball, Zamasu Dragon Ball, Beerus Dragon Ball, Dr Brief Dragon Ball, White Hair, Dende Dragon Ball, Hit Dragon Ball, Basil Dragon Ball, Majin Buu, Monaka Dragon Ball, Gene Dragon Ball, Master Roshi Dragon Ball, Great Saiyaman Dragon Ball, Chibi, Smile, Red Hair, Kamehameha, Monaka Dragon Ball Super, Krillin Dragon Ball, Trunks Dragon Ball, Baseball, Grand Priest Dragon Ball, Puar Dragon Ball, Man, Iwen Dragon Ball, Dyspo Dragon Ball, Super Saiyan Rose, Super Saiyan Rage, SSGSS Vegeta, Vados Dragon Ball, Super Saiyan, Black  White, Ultra Instinct Dragon Ball, Pan Dragon Ball, Bulma Dragon Ball, Dragon, Goten Dragon Ball, SSR Black, Goku, Shisami Dragon Ball, Vermoud Dragon Ball, Frost Dragon Ball, ZenOh Dragon Ball, Galactic King Dragon Ball, Marcarita Dragon Ball, Kefla Dragon Ball, Kibito Dragon Ball, Broly Dragon Ball, Vegito Dragon Ball, SS4 Gogeta, Supreme Kai Dragon Ball, Tagoma Dragon Ball, Rou Dragon Ball, Bardock Dragon Ball, Zuno Dragon Ball, Yamoshi Dragon Ball, It Movie, Blue Eyes, SSGSS Vegito, Super Saiyan Blue, Cell Dragon Ball, Mosco Dragon Ball, Shenron Dragon Ball, Digital Art, Old Kai Dragon Ball, Rumoosh Dragon Ball, Zeno Dragon Ball, Minimalist, Tattoo, Bulla Dragon Ball, Chichi (Dragon Ball), Janemba Dragon Ball, Dr Gero Dragon Ball, Rain, Anime, Chiaotzu Dragon Ball, White Eyes, Daishinkan Dragon Ball, Scratch dragon ball, Arak Dragon Ball, Jiren Dragon Ball, Frieza Dragon Ball, Tien Shinhan Dragon Ball, Liquir Dragon Ball, Dragon Ball Super, Vegetto Dragon Ball, Quitela Dragon Ball, Gowasu Dragon Ball, Android 17 Dragon Ball, Toppo Dragon Ball, Boy, Red Eyes, ChiChi Dragon Ball, Black Dragon Ball, Tenshinhan Dragon Ball, Gohan Dragon Ball, Android 18 Dragon Ball, Black Goku, Oolong Dragon Ball, Champa Dragon Ball, Sorbet Dragon Ball, Magetta Dragon Ball, Cabba Dragon Ball, Jaco Teirimentenpibosshi, Botamo Dragon Ball, Jerez Dragon Ball, Tights Dragon Ball, Shu Dragon Ball, Videl Dragon Ball, Emoji, Anilaza Dragon Ball, Jaco Teirimentenpib, Super Saiyan God, Vegeta Dragon Ball, Saiyan, Mai Dragon Ball, Caulifla Dragon Ball, Marron Dragon Ball, MakankoSappo, Yamcha Dragon Ball, SSJ Trunks, Piccolo Dragon Ball, It 2017, Lavenda Dragon Ball, Kyabe Dragon Ball, Gotenks Dragon Ball, Blue Hair, SSGSS Goku, Lightning, Pilaf Dragon Ball, Bergamo Dragon Ball, Zarama Dragon Ball",
    "description": "Dragon Ball Super",
    "link_thumb": "https://live.staticflickr.com/65535/47969486218_93cd7f7fdc_n.jpg",
    "id_album": "205086331",
    "total_view": 515
  },
  {
    "total_img": 28,
    "number_page": 1,
    "title": "Beerus Dragon Ball",
    "tag": "Beerus Dragon Ball,",
    "description": "Beerus Dragon Ball",
    "link_thumb": "https://live.staticflickr.com/65535/47969477491_b7d19f9ff9_n.jpg",
    "id_album": "-1809606104",
    "total_view": 28
  },
  {
    "total_img": 6,
    "number_page": 1,
    "title": "Frost Dragon Ball",
    "tag": "Frost Dragon Ball,",
    "description": "Frost Dragon Ball",
    "link_thumb": "https://live.staticflickr.com/65535/47970151231_f1af7e49a9_n.jpg",
    "id_album": "18935946",
    "total_view": 6
  },
  {
    "total_img": 80,
    "number_page": 1,
    "title": "Gohan Dragon Ball",
    "tag": "Gohan Dragon Ball,",
    "description": "Gohan Dragon Ball",
    "link_thumb": "https://live.staticflickr.com/65535/47969502751_1fef66c259_n.jpg",
    "id_album": "2074291347",
    "total_view": 80
  },
  {
    "total_img": 404,
    "number_page": 3,
    "title": "Goku",
    "tag": "Goku,",
    "description": "Goku",
    "link_thumb": "https://live.staticflickr.com/65535/47969501196_ef5d38c9f5_n.jpg",
    "id_album": "1958753116",
    "total_view": 404
  },
  {
    "total_img": 14,
    "number_page": 1,
    "title": "Hit Dragon Ball",
    "tag": "Hit Dragon Ball,",
    "description": "Hit Dragon Ball",
    "link_thumb": "https://live.staticflickr.com/65535/47970101927_7cccefb242_n.jpg",
    "id_album": "-1480564648",
    "total_view": 14
  },
  {
    "total_img": 45,
    "number_page": 1,
    "title": "Krillin Dragon Ball",
    "tag": "Krillin Dragon Ball,",
    "description": "Krillin Dragon Ball",
    "link_thumb": "https://live.staticflickr.com/65535/47969456618_68630f9f34_n.jpg",
    "id_album": "-455104319",
    "total_view": 45
  },
  {
    "total_img": 47,
    "number_page": 1,
    "title": "Majin Buu",
    "tag": "Majin Buu,",
    "description": "Majin Buu",
    "link_thumb": "https://live.staticflickr.com/65535/47969503216_8dfe0899dd_n.jpg",
    "id_album": "-1068064653",
    "total_view": 47
  },
  {
    "total_img": 40,
    "number_page": 1,
    "title": "Piccolo Dragon Ball",
    "tag": "Piccolo Dragon Ball,",
    "description": "Piccolo Dragon Ball",
    "link_thumb": "https://live.staticflickr.com/65535/47969481471_7859dbf28d_n.jpg",
    "id_album": "699962014",
    "total_view": 40
  },
  {
    "total_img": 59,
    "number_page": 1,
    "title": "Trunks Dragon Ball",
    "tag": "Trunks Dragon Ball,",
    "description": "Trunks Dragon Ball",
    "link_thumb": "https://live.staticflickr.com/65535/47969477491_b7d19f9ff9_n.jpg",
    "id_album": "-827187080",
    "total_view": 59
  }
]