[
  {
    "total_img": 9,
    "number_page": 1,
    "title": "Twin Star Exorcists",
    "tag": "Yoshiaki Sukeno, Mayura Otomi, Yuuto Ijika, Rokuro Enmadou, Twin star Excorcists, Benio Adashino, Sousei no Onmyouji, Twin Star Exorcists, Shimon Ikaruga, Seigen Amawaka, Kinako Twin Star Exorcists",
    "description": "Twin Star Exorcists",
    "link_thumb": "https://live.staticflickr.com/65535/48063208737_b9359ff7df_n.jpg",
    "id_album": "-680792578",
    "total_view": 9
  }
]