[
  {
    "total_img": 40,
    "number_page": 1,
    "title": "Kakegurui",
    "tag": "Itsuki Sumeragi, Sayaka Igarashi, Meari Saotome, Black Hair, Yumemi Yumemite, Yuriko Nishinotouin, Ryota Suzui, CloseUp, Long Hair, White Hair, Short Hair, Braid, Kakegurui, Hood, Purple Eyes, Cat Girl, Mary Saotome, Kaede Manyuda, Midari Ikishima, Red Eyes, Skirt, Blue Eyes, Blush, Pantyhose, Glasses, Runa Yomozuki, Yumeko Jabami, Ririka Momobami, Kirari Momobami",
    "description": "Kakegurui",
    "link_thumb": "https://live.staticflickr.com/65535/48047069168_ee9a6185f1_n.jpg",
    "id_album": "1704837579",
    "total_view": 40
  },
  {
    "total_img": 4,
    "number_page": 1,
    "title": "Kirari Momobami",
    "tag": "Kirari Momobami,",
    "description": "Kirari Momobami",
    "link_thumb": "https://live.staticflickr.com/65535/48047087643_af0bef30ed_n.jpg",
    "id_album": "678268299",
    "total_view": 4
  },
  {
    "total_img": 34,
    "number_page": 1,
    "title": "Yumeko Jabami",
    "tag": "Yumeko Jabami,",
    "description": "Yumeko Jabami",
    "link_thumb": "https://live.staticflickr.com/65535/48047142737_5d841e9969_n.jpg",
    "id_album": "-743143346",
    "total_view": 34
  }
]