[
  {
    "total_img": 352,
    "number_page": 2,
    "title": "Touhou 1",
    "tag": "Water, Heart, Sara Touhou, Green Hair, Utsuho Reiuji, Kisume Touhou, Shield, Black Hair, Monochrome, Blood, Weapon, Wayousei Toyhou, Parsee Mizuhashi, Umbrella, Murasa Minamitsu, Pool, Reimu Hakurei, Lyrica Prismriver, Smile, Sea, Skirt, Shizuha Aki, Game, Rumia Touhou, Bunny Ears, Mamizou Futatsuiwa, Dagger, Momiji Inubashiri, Kosuzu Motoori, Waterfall, Cake, Cloak, Valentines Day, Japanese Clothes, Ichirin Kumoi, Maiden, Star, Tail, Feather, Yuri, Louise Touhou, Yamame Kurodani, Season, Patchouli Knowledge, Food, Armchair, Nature, Original Anime, Shanghai, Blue, Brown Hair, Suika Ibuki, Chocolate, Ice, Pink Hair, Mima Touhou, Hieda no Akyuu, Pretty, Red, Blue Eyes, Ghost, Fire, Boots, Jet, Yumeko Touhou, Hat, Animal Ears, Eirin Yagokoro, Stars, Reisen Udongein Inaba, Long Hair, Ran Yakumo, Thigh Highs, Santa, Winter, Light, Snowflake, Kimono, Minamitsu Murasa, Heterochromia, Cirno Touhou, Purple Hair, Palanquin Ship, Maribel Hearn, Chen Touhou, Gypsy, Shikieiki Yamaxanadu, Marisa Kirisame, Touhou 1, Eiki Shiki, Glasses, Bridge, Crystal, Bird, Sitting, Blonde, Twintails, Saigyou Ayakashi, Knife, Shell, Hina Kagiyama, Shinki Touhou, Phoenix, Lunasa Prismriver, Room, Katana, Sunny Milk, Scenery, Pink Eyes, Green Dress, Sunset, Shou Toramaru, Fan, Airplane, Tenshi Hinanawi, White, Kaguya Houraisan, Purple, Seiga Kaku, Grey Hair, Lying Down, Vampire, Yuuka Kazami, Sky, Flandre Scarlet, Moon, Sword, Ribbon, Lily White, White Hair, Book, Horns, Koakuma Touhou, Flame, Kogasa Tatara, Satori Komeiji, Purple Eyes, Keine Kamishirasawa, Letty Whiterock, Daiyousei Touhou, Aqua Eyes, Red Hair, Mugetsu Touhou, Belt, SuSan Touhou, Rin Kaenbyou, Cast, Alice Margatroid, Chain, Yukari Yakumo, Rose, Doll, Toyosatomimi no Miko, Wings, Nitori Kawashiro, Chinese Dress, Leaf, Witch, Yuki Touhou, Mystia Lorelei, Wriggle Nightbug, Headband, Shanghai Doll, Gift, Yuyuko Saigyouji, Luna Child, Orange Touhou, Kasen Ibaraki, Sakuya Izayoi, Halloween, The Embodiment Of Scarlet Devil, Spear, Night, Fujiwara no Mokou, Medicine Melancholy, Yuugi Hoshiguma, Remilia Scarlet, Bubble, Rain, Anime, Bandage, Candy, Tree, Woman, Tokiko Touhou, Youmu Konpaku, Koishi Komeiji, Sakura, Yellow Eyes, Komachi Onozuka, Red Eyes, Shrine, Pink, Cap, Myon Touhou, Dark, Suwako Moriya, Tewi Inaba, Fall, Ponytail, Fairy, Purple Dress, Orange Eyes, Hatate Himekaidou, Cherry Blossom, Kanako Yasaka, Butterfly, Iku Nagae, Mai Touhou, Byakuren Hijiri, Hong Meiling, bow Clothing, Short Hair, Flower, Dress, Brown Eyes, Mononobe No Futo, Sanae Kochiya, Magic, Red Dress, Blue Dress, Nue Houjuu, Maid, Renko Usami, Spirit, Blue Hair, Cloud, Minoriko Aki, Aya Shameimaru, Petal",
    "description": "Touhou 1",
    "link_thumb": "https://live.staticflickr.com/65535/48060639636_b82d033a5c_n.jpg",
    "id_album": "183462894",
    "total_view": 352
  },
  {
    "total_img": 70,
    "number_page": 1,
    "title": "Alice Margatroid",
    "tag": "Alice Margatroid,",
    "description": "Alice Margatroid",
    "link_thumb": "https://live.staticflickr.com/65535/48062811821_00f0e193fa_n.jpg",
    "id_album": "1646430097",
    "total_view": 70
  },
  {
    "total_img": 134,
    "number_page": 1,
    "title": "Marisa Kirisame",
    "tag": "Marisa Kirisame,",
    "description": "Marisa Kirisame",
    "link_thumb": "https://live.staticflickr.com/65535/48062812086_61fdeeb855_n.jpg",
    "id_album": "1954781146",
    "total_view": 134
  },
  {
    "total_img": 17,
    "number_page": 1,
    "title": "Nitori Kawashiro",
    "tag": "Nitori Kawashiro,",
    "description": "Nitori Kawashiro",
    "link_thumb": "https://live.staticflickr.com/65535/48062795292_58261b6d8d_n.jpg",
    "id_album": "-2072852223",
    "total_view": 17
  }
]