[
  {
    "total_img": 151,
    "number_page": 1,
    "title": "Girls Art 3D",
    "tag": "Girls Art 3D,",
    "description": "Girls Art 3D",
    "link_thumb": "https://live.staticflickr.com/65535/50154347792_22611ed599_n.jpg",
    "id_album": "-1703946758",
    "total_view": 151
  },
  {
    "total_img": 6163,
    "number_page": 31,
    "title": "Girls Hats Hoodie",
    "tag": "Girls Hats Hoodie,",
    "description": "Girls Hats Hoodie",
    "link_thumb": "https://live.staticflickr.com/65535/49998137463_3c222b8f53_n.jpg",
    "id_album": "1409782213",
    "total_view": 6163
  }
]