[
  {
    "total_img": 519,
    "number_page": 3,
    "title": "Naruto",
    "tag": "Water, Green Hair, Rock Lee, Orochimaru Naruto, Black Hair, Black, Obito Uchiha, Blood, Eye, Ninja, Kurenai Yuhi, Redhead, Neji Hyuga, Glove, Mei Terumi, Chibi, Chojiro Sasakibe, Sea, Kyubi Naruto, Hagoromo Otsutsuki, Iruka Umino, Isobu Naruto, Kurotsuchi Naruto, Raven, Gyuki Naruto, Uchiha Clan, Orange Hair, Naruto Uzumaki, Rinnegan Naruto, Onoki Naruto, Feather, Mitsuki Naruto, Infinite Tsukuyomi, Face, Kushina Uzumaki, Gaara Naruto, Artistic, Kurama Naruto, Junko Suzu, Pink Hair, Red, Blue Eyes, Utakata Naruto, Sakura Haruno, Yamato Naruto, Might Guy, Mangekyo Sharingan, Green Eyes, Pumpkin, Kakashi Hatake, A Naruto, Konohamaru Sarutobi, Devoted, Menma Uzumaki, Long Hair, Beach, Han Naruto, Konan Naruto, Matatabi Naruto, Sasuke Uchiha, Temari Naruto, Sakyra, Byakugan Naruto, Hiruzen Sarutobi, Fox, Hokage Naruto, Fu Naruto, Tobirama Senju, Zabuza Momochi, Kakuzu Naruto, Shino Aburame, Chojuro Naruto, Bird, Sage of Six Paths, Black Zetsu, Hashirama Senju, Blonde, Itachi Uchiha, Tsuchikage Naruto, Sai Naruto, Suigetsu Hozuki, Rainbow, Haku Naruto, Anko Mitarashi, Kisame Hoshigaki, Asura Otsutsuki, Horror, Tsunade Naruto, Sunset, Sasori Naruto, Boruto Uzumaki, Sharingan Naruto, Purple, Inojin Yamanaka, Lightning, Naruto, Ino Yamanaka, Danzo Shimura, Biju Naruto, Roshi Naruto, Sky, Sari, Hamura Otsutsuki, Moon, Minato Namikaze, Yahiko Naruto, Lipstick, Hinata Hyuga, Hayate Gekko, NineTails Naruto, Darui Naruto, Sword, Sarada Uchiha, Rin Nohara, White Hair, Kankuro Naruto, Son Goku Naruto, Horns, Shikadai Nara, Karura Naruto, Himawari Uzumaki, Kaguya Otsutsuki, Shu Naruto, Chomei Naruto, Mask, Akatsuki Naruto, Witch Hat, Kokuo Naruto, Red Hair, Tayuya Naruto, Hidan Naruto, Colors, Blush, Killer Bee Naruto, Mizukage Naruto, Pain Naruto, Hanabi Hyuga, Scary, Jinchuriki Naruto, Man, Shukaku Naruto, Genderbend, Deidara Naruto, Spooky, Urashiki Otsutsuki, Madara Uchiha, Wings, Omoi Naruto, Leaf, Mikoto Uchiha, Abstract, Text, Headband, Akamaru Naruto, Kazekage Naruto, Zetsu Naruto, Nagato Naruto, Creepy, Wedding, Halloween, Shisui Uchiha, Minimalist, Glow, Rain, Anime, Yugito Nii, Eight Tails, Yagura Karatachi, Evil, Jubi Naruto, Udon Naruto, Woman, Yagura Naruto, Kabuto Yakushi, Boy, Red Eyes, Kiba Inuzuka, Gedo Mazo, Haruno, Shikamaru Nara, Love, Dark, Sad, Rasengan Naruto, Susanoo Naruto, Jiraiya Naruto, Tenten Naruto, Raikage Naruto, Kaichou, Karin Naruto, Short Hair, Moegi Kazamatsuri, Eight Gates Naruto, Saiken Naruto, Sage Naruto, Flower, White Zetsu, Logo, Asuma Sarutobi, Choji Akimichi, Kizashi Haruno, Blue Hair, Mebuki Haruno, Paper, Naruko Uzumaki",
    "description": "Naruto",
    "link_thumb": "https://live.staticflickr.com/65535/48071803262_6a616d8f1a_n.jpg",
    "id_album": "1980159636",
    "total_view": 519
  },
  {
    "total_img": 3,
    "number_page": 1,
    "title": "Eight Gates Naruto",
    "tag": "Eight Gates Naruto,",
    "description": "Eight Gates Naruto",
    "link_thumb": "https://live.staticflickr.com/65535/48072230856_b964f7000b_n.jpg",
    "id_album": "-855669433",
    "total_view": 3
  },
  {
    "total_img": 10,
    "number_page": 1,
    "title": "Might Guy",
    "tag": "Might Guy,",
    "description": "Might Guy",
    "link_thumb": "https://live.staticflickr.com/65535/48072230856_b964f7000b_n.jpg",
    "id_album": "914888877",
    "total_view": 10
  }
]