[
  {
    "total_img": 466,
    "number_page": 3,
    "title": "Clannad",
    "tag": "Sky, Nagisa Furukawa, Katsuki Shima, Minimalist, Grass, Crying, Seaside, Kyou Fujibayashi, Long Hair, Tomoya Okazaki, Thigh Highs, Anime, Shorts, Tree, Woman, Youhei Sunohara, Child, Sugisaka Clannad, Yukine Miyazawa, Purple Hair, Kotomi Ichinose, Botan Clannad, Mei Sunohara, Smile, Sun, Boy, Skirt, Kouko Ibuki, Blush, Tomoyo Sakagami, Pantyhose, Glasses, Ponytail, Ushio Okazaki, Toshio Koumura, Junk Robot, Girl from the Illusionary World, Sanae Furukawa, Sitting, Socks, Clannad, Naoyuki Okazaki, White Dress, Field, Potato Air, Shino Okazaki, Yuri, Short Hair, Furukawa Sanae, Flower, Rie Nishina, Dress, School Uniform, Akio Furukawa, Sadness, Blue Eyes, Misae Sagara, Sleeping, Dango, Ryou Fujibayashi, Yusuke Yoshino, Cloud, Lying Down, Fuuko Ibuki",
    "description": "Clannad",
    "link_thumb": "https://live.staticflickr.com/65535/46996170765_1573c18f80_n.jpg",
    "id_album": "106293676",
    "total_view": 466
  },
  {
    "total_img": 1083,
    "number_page": 6,
    "title": "Anime",
    "tag": "Anime,",
    "description": "Anime",
    "link_thumb": "https://live.staticflickr.com/65535/48066953706_2771a62522_n.jpg",
    "id_album": "-1920923841",
    "total_view": 1083
  },
  {
    "total_img": 92,
    "number_page": 1,
    "title": "Fuuko Ibuki",
    "tag": "Fuuko Ibuki,",
    "description": "Fuuko Ibuki",
    "link_thumb": "https://live.staticflickr.com/65535/47960654051_3203199682_n.jpg",
    "id_album": "1118489750",
    "total_view": 92
  },
  {
    "total_img": 87,
    "number_page": 1,
    "title": "Kyou Fujibayashi",
    "tag": "Kyou Fujibayashi,",
    "description": "Kyou Fujibayashi",
    "link_thumb": "https://live.staticflickr.com/65535/47955661798_b48dfc0333_n.jpg",
    "id_album": "1124484441",
    "total_view": 87
  },
  {
    "total_img": 46,
    "number_page": 1,
    "title": "Ryou Fujibayashi",
    "tag": "Ryou Fujibayashi,",
    "description": "Ryou Fujibayashi",
    "link_thumb": "https://live.staticflickr.com/65535/47955661798_b48dfc0333_n.jpg",
    "id_album": "1131168242",
    "total_view": 46
  },
  {
    "total_img": 59,
    "number_page": 1,
    "title": "Tomoya Okazaki",
    "tag": "Tomoya Okazaki,",
    "description": "Tomoya Okazaki",
    "link_thumb": "https://live.staticflickr.com/65535/47952377621_ca8cee1be3_n.jpg",
    "id_album": "-1398250552",
    "total_view": 59
  }
]