[
  {
    "total_img": 791,
    "number_page": 4,
    "title": "Girls Horns",
    "tag": "Girls Horns,",
    "description": "Girls Horns",
    "link_thumb": "https://live.staticflickr.com/65535/50151017648_00424987ab_n.jpg",
    "id_album": "-1468922705",
    "total_view": 791
  },
  {
    "total_img": 15136,
    "number_page": 76,
    "title": "Girls Loli",
    "tag": "Girls Loli,",
    "description": "Girls Loli",
    "link_thumb": "https://live.staticflickr.com/65535/51542199025_2343ce2f5b_n.jpg",
    "id_album": "-1584065887",
    "total_view": 15136
  },
  {
    "total_img": 577,
    "number_page": 3,
    "title": "Girls Student",
    "tag": "Girls Student,",
    "description": "Girls Student",
    "link_thumb": "https://live.staticflickr.com/65535/50239933623_8a7838710e_n.jpg",
    "id_album": "-453260537",
    "total_view": 577
  },
  {
    "total_img": 1741,
    "number_page": 9,
    "title": "Girls Tie Bows",
    "tag": "Girls Tie Bows,",
    "description": "Girls Tie Bows",
    "link_thumb": "https://live.staticflickr.com/65535/50154717077_0e3e1e0b9f_n.jpg",
    "id_album": "392997562",
    "total_view": 1741
  }
]