[
  {
    "link_thumb": "https://live.staticflickr.com/65535/47963195662_07470cd0b7_n.jpg",
    "id_album": "1605847592",
    "description": "DeathNote_131692",
    "title": "DeathNote_131692",
    "link_img": "https://live.staticflickr.com/65535/47963195662_5c4739ce3b_o.jpg",
    "id_image": "DeathNote_131692",
    "count_view": 0
  },
  {
    "link_thumb": "https://live.staticflickr.com/65535/48092979563_fe73ca976d_n.jpg",
    "id_album": "1605847592",
    "description": "Original_944983",
    "title": "Original_944983",
    "link_img": "https://live.staticflickr.com/65535/48092979563_1e16772054_o.jpg",
    "id_image": "Original_944983",
    "count_view": 0
  }
]