[
  {
    "total_img": 51,
    "number_page": 1,
    "title": "Grisaia Series",
    "tag": "Sky, Kazami Kazuki, Straw Hat, Grisaia Series, Gunslinger Girl, White Dress, Grisaia No Meikyuu, Sakaki Yumiko, Long Hair, Blonde, Asako Kusakabe, Thigh Highs, Field, Anime, Mountain, White Hair, bow Clothing, Blur, Yuria Harudera, Sachi Komine, Grisaia No Kajitsu, Gun, Kazuki Kazami, Flower, Purple Hair, Road, Yumiko Sakaki, Makina Irisu, Pink Eyes, Pink Hair, Michiru Matsushima, Smile, Red Eyes, Amane Suou, Blue Eyes, Blue Hair, Blush, Grisaia no Rakuen, Cloud, Glasses, Sunflower, Yuuji Kazami, Green",
    "description": "Grisaia Series",
    "link_thumb": "https://live.staticflickr.com/65535/47992853121_8b6eee6a6c_n.jpg",
    "id_album": "-1318459513",
    "total_view": 51
  }
]