[
  {
    "total_img": 760,
    "number_page": 4,
    "title": "Original 11",
    "tag": "Water, Heart, Green Hair, Straw Hat, Wink, Black Hair, Staff, Jewelry, Wand, Clock, Chick, Weapon, Goggles, Cosmonaut, Helmet, Umbrella, Shorts, Veil, Bike, Cup, Milk, Space, Arrow, Gauntlet, Glove, Smile, Blade, Sea, Telephone Booth, Skirt, Towel, Original 11, Chemical, Bunny Ears, Statue, Tower, Dagger, Wheat, Miko Outfit, Building, Raven, Carrot, Orange Hair, Torii, Waterfall, Paper Plane, Dragon, Tiger, Fishing Rod, Shooting Star, Earbuds, Cloak, Star, Maiden, Spacesuit, Tail, Roller Skates, Watch, Yuri, Fish, Feather, Tablet, Vegetable, Toothbrush, Food, Window, Nature, Bed, Bullet, Bus, Motorcycle, Original Anime, Blue, Brown Hair, Mushroom, Linovel Girl Mascot, Ice, Pink Hair, Baseball Bat, Tie, Starry Sky, Blue Eyes, Television, Hoodie, Cyberpunk, Teddy Bear, Ghost, Ring, Boots, Cockpit, Hourglass, Hat, Mermaid, Parasol, Animal Ears, Elf, Ice Cream, Green Eyes, Telescope, Astronaut, Tulip, Stars, Scythe, Pumpkin, Underwater, Twilight, Tattoo, Alcohol, Long Hair, Shore, Thigh Highs, Beach, New Year, Town, Light, White Eyes, Kimono, Snowflake, Crow, Desk, Headdress, Heterochromia, Hinomoto Oniko, Festival, Wrench, Purple Hair, Oriental, Tea Cup, Paint, Pocket Watch, Bonnet, Airport, Glasses, Sunflower, Eye Patch, Mirror, Bridge, Crystal, Warehouse, Bird, Gas Mask, Fishing, Brush, Blonde, Twintails, Straw, Pommel Horse, Field, Shell, Roof, Plant, Mountain, Rainbow, Armor, Classroom, Console, Room, TwoToned Hair, Katana, Scenery, Meteor, Pink Eyes, Apron, School Uniform, Cape, Bicycle, Gothic, Axe, Ruin, Sunset, Fan, Apple, Candle, Airplane, Pointed Ears, Wind Turbine, Purple, Grey Hair, Pen, Castle, Vampire, Robot, Tears, Chess, Sky, Van, Moon, Colorful, Balloon, Gargoyle, Skateboard, Flute, Bread, Schoolgirl, Cigarette, Sword, Aquarium, Bottle, White Hair, Book, Fangs, Computer, Windmill, Horns, Braid, Dog, Hood, Earrings, Gun, Jacket, Purple Eyes, Scarf, Suitcase, Mask, Reflection, Tank, Red Hair, Deer, Card, Sunglasses, Letter, Lollipop, Shop, Blush, Pantyhose, Flamingo, Bell, Train, Map, Lantern, Bathroom, Glass, Rose, Silhouette, Tiara, Doll, Coffee, Sunbeam, Wings, River, Leaf, Witch, Teacup, Fireworks, Cart, Guitar, Poppy, Railroad, Koi, Owl, Nun, Abstract, Crowd, Headband, Pencil, Controller, Pie, Teapot, Crown, Cigar, Accordion, Grey Eyes, Steampunk, Ferris Wheel, Smartphone, Boat, Black Eyes, Pancake, Night, Cherry, Snow, Mecha, Summer, Drink, Lake, Brunette, Rain, Bubble, Anime, Bandage, Raincoat, Strawberry, Horse, Tree, Woman, Mug, Coat, Rock, Samurai, Parrot, Yellow Eyes, Sakura, Boy, Red Eyes, Can, Piano, Cave, Shrine, Cap, Car, Dark, Cat, Fantasy, Library, Ponytail, Scarecrow, Qipao, Orange Eyes, Cherry Blossom, Butterfly, Princess, Cross, Lily, Earth, Dinosaur, Globe, bow Clothing, Bedroom, Short Hair, Lamp, Necklace, Flower, Dress, Cat Girl, Easel, Fruit, Brown Eyes, Magic, Bag, Woman Warrior, Maid, Painting, Post Apocalyptic, Sandwich, Telephone Pole, Tea, Blue Hair, Whale, Bat, Cloud, Carnation, Forest, Skull, Sign, Wizard, Petal, Yukata, Peace Sign",
    "description": "Original 11",
    "link_thumb": "https://live.staticflickr.com/65535/48092244866_329704fec2_n.jpg",
    "id_album": "1130243796",
    "total_view": 760
  },
  {
    "total_img": 50,
    "number_page": 1,
    "title": "Black Eyes",
    "tag": "Black Eyes,",
    "description": "Black Eyes",
    "link_thumb": "https://live.staticflickr.com/65535/48066328668_b63565e5e3_n.jpg",
    "id_album": "432677877",
    "total_view": 50
  },
  {
    "total_img": 718,
    "number_page": 4,
    "title": "Brown Hair",
    "tag": "Brown Hair,",
    "description": "Brown Hair",
    "link_thumb": "https://live.staticflickr.com/65535/48609891276_d6beb9cf73_n.jpg",
    "id_album": "119672248",
    "total_view": 718
  },
  {
    "total_img": 119,
    "number_page": 1,
    "title": "Cat",
    "tag": "Cat,",
    "description": "Cat",
    "link_thumb": "https://live.staticflickr.com/65535/48066912262_ef499c1796_n.jpg",
    "id_album": "-1741487325",
    "total_view": 119
  },
  {
    "total_img": 33,
    "number_page": 1,
    "title": "Hoodie",
    "tag": "Hoodie,",
    "description": "Hoodie",
    "link_thumb": "https://live.staticflickr.com/65535/48066083457_1bb0ee72a9_n.jpg",
    "id_album": "-1922776172",
    "total_view": 33
  },
  {
    "total_img": 1729,
    "number_page": 9,
    "title": "Long Hair",
    "tag": "Long Hair,",
    "description": "Long Hair",
    "link_thumb": "https://live.staticflickr.com/65535/48066953706_2771a62522_n.jpg",
    "id_album": "186170098",
    "total_view": 1729
  },
  {
    "total_img": 807,
    "number_page": 5,
    "title": "Smile",
    "tag": "Smile,",
    "description": "Smile",
    "link_thumb": "https://live.staticflickr.com/65535/48066953706_2771a62522_n.jpg",
    "id_album": "419891285",
    "total_view": 807
  }
]