[
  {
    "link_thumb": "https://live.staticflickr.com/65535/50155101522_992e34f5f9_n.jpg",
    "id_album": "-635262135",
    "description": "ANIME_PIC_f38fccc5aee8a95de4b17c8c32323242,[isGirlAnime],[isCuteAnime],[Colored Girls],[ColoredGirls],[isBlackAnime]",
    "title": "ANIME_PIC_f38fccc5aee8a95de4b17c8c32323242",
    "link_img": "https://live.staticflickr.com/65535/50155101522_82e9ff44c1_o.jpg",
    "id_image": "ANIME_PIC_f38fccc5aee8a95de4b17c8c32323242",
    "count_view": 0
  },
  {
    "link_thumb": "https://live.staticflickr.com/65535/50151706177_1143fd3900_n.jpg",
    "id_album": "-635262135",
    "description": "ANIME_PIC_f392021a6c391a988e6b19a9ef5ca090,[isGirlAnime],[isCuteAnime],[Colored Girls],[ColoredGirls],[isGirlsLoliAnime]",
    "title": "ANIME_PIC_f392021a6c391a988e6b19a9ef5ca090",
    "link_img": "https://live.staticflickr.com/65535/50151706177_a3f4cb163e_o.png",
    "id_image": "ANIME_PIC_f392021a6c391a988e6b19a9ef5ca090",
    "count_view": 0
  },
  {
    "link_thumb": "https://live.staticflickr.com/65535/50153659811_6c504aa4f9_n.jpg",
    "id_album": "-635262135",
    "description": "ANIME_PIC_f3a31c130017ad00f6fcd75e4d9c346f,[isGirlAnime],[isCuteAnime],[Colored Girls],[ColoredGirls],[isGirlsLoliAnime]",
    "title": "ANIME_PIC_f3a31c130017ad00f6fcd75e4d9c346f",
    "link_img": "https://live.staticflickr.com/65535/50153659811_7d5a84566d_o.jpg",
    "id_image": "ANIME_PIC_f3a31c130017ad00f6fcd75e4d9c346f",
    "count_view": 0
  },
  {
    "link_thumb": "https://live.staticflickr.com/65535/49995839077_d3997d6840_n.jpg",
    "id_album": "-635262135",
    "description": "ANIME_PIC_f3a88759e60f418421554f146d10aa8a,[isGirlAnime],[isCuteAnime],[Colored Girls],[ColoredGirls]",
    "title": "ANIME_PIC_f3a88759e60f418421554f146d10aa8a",
    "link_img": "https://live.staticflickr.com/65535/49995839077_110d29e449_o.png",
    "id_image": "ANIME_PIC_f3a88759e60f418421554f146d10aa8a",
    "count_view": 0
  },
  {
    "link_thumb": "https://live.staticflickr.com/65535/50151413673_5afe4c72cc_n.jpg",
    "id_album": "-635262135",
    "description": "ANIME_PIC_f3f9b8abbb17d92adeb064ebdf77e595,[isGirlAnime],[isCuteAnime],[Colored Girls],[ColoredGirls],[isGirlsHatsHoodieAnime],[isGirlsLoliAnime]",
    "title": "ANIME_PIC_f3f9b8abbb17d92adeb064ebdf77e595",
    "link_img": "https://live.staticflickr.com/65535/50151413673_12e8d8028f_o.png",
    "id_image": "ANIME_PIC_f3f9b8abbb17d92adeb064ebdf77e595",
    "count_view": 0
  },
  {
    "link_thumb": "https://live.staticflickr.com/65535/50150919963_709ed21477_n.jpg",
    "id_album": "-635262135",
    "description": "ANIME_PIC_f4094041cd70e26713096fba53400fbc,[isGirlAnime],[isCuteAnime],[Colored Girls],[ColoredGirls],[isGirlsHatsHoodieAnime],[isGirlsLoliAnime]",
    "title": "ANIME_PIC_f4094041cd70e26713096fba53400fbc",
    "link_img": "https://live.staticflickr.com/65535/50150919963_327225dcda_o.jpg",
    "id_image": "ANIME_PIC_f4094041cd70e26713096fba53400fbc",
    "count_view": 0
  },
  {
    "link_thumb": "https://live.staticflickr.com/65535/50151414053_b450bd9543_n.jpg",
    "id_album": "-635262135",
    "description": "ANIME_PIC_f4126bb2040d07cd053935c19cc30ea0,[isGirlAnime],[isCuteAnime],[Colored Girls],[ColoredGirls]",
    "title": "ANIME_PIC_f4126bb2040d07cd053935c19cc30ea0",
    "link_img": "https://live.staticflickr.com/65535/50151414053_f773fe5e9a_o.jpg",
    "id_image": "ANIME_PIC_f4126bb2040d07cd053935c19cc30ea0",
    "count_view": 0
  },
  {
    "link_thumb": "https://live.staticflickr.com/65535/50151960581_096d3ec916_n.jpg",
    "id_album": "-635262135",
    "description": "ANIME_PIC_f447bf7c0a816a4ffcbc6baae17042b3,[isGirlAnime],[isCuteAnime],[Colored Girls],[ColoredGirls]",
    "title": "ANIME_PIC_f447bf7c0a816a4ffcbc6baae17042b3",
    "link_img": "https://live.staticflickr.com/65535/50151960581_bcda55708d_o.png",
    "id_image": "ANIME_PIC_f447bf7c0a816a4ffcbc6baae17042b3",
    "count_view": 0
  },
  {
    "link_thumb": "https://live.staticflickr.com/65535/50150920138_da9eaa48d6_n.jpg",
    "id_album": "-635262135",
    "description": "ANIME_PIC_f45f1f7498efd6eb402c9eab915fac71,[isGirlAnime],[isCuteAnime],[Colored Girls],[ColoredGirls]",
    "title": "ANIME_PIC_f45f1f7498efd6eb402c9eab915fac71",
    "link_img": "https://live.staticflickr.com/65535/50150920138_6542ea680c_o.jpg",
    "id_image": "ANIME_PIC_f45f1f7498efd6eb402c9eab915fac71",
    "count_view": 0
  },
  {
    "link_thumb": "https://live.staticflickr.com/65535/49799079982_8f9ac711ac_n.jpg",
    "id_album": "-635262135",
    "description": "ANIME_PIC_f49740556170c35ab33210e782b98c22,[isGirlAnime],[isCuteAnime],[Colored Girls],[ColoredGirls]",
    "title": "ANIME_PIC_f49740556170c35ab33210e782b98c22",
    "link_img": "https://live.staticflickr.com/65535/49799079982_c4b43d79e6_o.png",
    "id_image": "ANIME_PIC_f49740556170c35ab33210e782b98c22",
    "count_view": 0
  },
  {
    "link_thumb": "https://live.staticflickr.com/65535/49798776881_71c089c075_n.jpg",
    "id_album": "-635262135",
    "description": "ANIME_PIC_f4f82e706a06bdbd3cb9def7a52cff21,[isGirlAnime],[isCuteAnime],[Colored Girls],[ColoredGirls]",
    "title": "ANIME_PIC_f4f82e706a06bdbd3cb9def7a52cff21",
    "link_img": "https://live.staticflickr.com/65535/49798776881_217655be95_o.png",
    "id_image": "ANIME_PIC_f4f82e706a06bdbd3cb9def7a52cff21",
    "count_view": 0
  },
  {
    "link_thumb": "https://live.staticflickr.com/65535/50153471398_5619d09949_n.jpg",
    "id_album": "-635262135",
    "description": "ANIME_PIC_f54dd93ebf8a2b478c477b702b2bccf1,[isGirlAnime],[isCuteAnime],[Colored Girls],[ColoredGirls],[isGirlsHatsHoodieAnime]",
    "title": "ANIME_PIC_f54dd93ebf8a2b478c477b702b2bccf1",
    "link_img": "https://live.staticflickr.com/65535/50153471398_d6b8b98893_o.png",
    "id_image": "ANIME_PIC_f54dd93ebf8a2b478c477b702b2bccf1",
    "count_view": 0
  },
  {
    "link_thumb": "https://live.staticflickr.com/65535/50240851292_89fec5294d_n.jpg",
    "id_album": "-635262135",
    "description": "ANIME_PIC_f557bd6334d0d18e606ad0c9e8fbd36c,[isGirlAnime],[isCuteAnime],[Colored Girls],[ColoredGirls]",
    "title": "ANIME_PIC_f557bd6334d0d18e606ad0c9e8fbd36c",
    "link_img": "https://live.staticflickr.com/65535/50240851292_030f7f08df_o.png",
    "id_image": "ANIME_PIC_f557bd6334d0d18e606ad0c9e8fbd36c",
    "count_view": 0
  },
  {
    "link_thumb": "https://live.staticflickr.com/65535/49798777266_afd21f760a_n.jpg",
    "id_album": "-635262135",
    "description": "ANIME_PIC_f563c55efcb75747d3ea3c355707c63d,[isGirlAnime],[isCuteAnime],[Colored Girls],[ColoredGirls]",
    "title": "ANIME_PIC_f563c55efcb75747d3ea3c355707c63d",
    "link_img": "https://live.staticflickr.com/65535/49798777266_26661dbe9f_o.jpg",
    "id_image": "ANIME_PIC_f563c55efcb75747d3ea3c355707c63d",
    "count_view": 0
  },
  {
    "link_thumb": "https://live.staticflickr.com/65535/49798224683_e46b3ca98d_n.jpg",
    "id_album": "-635262135",
    "description": "ANIME_PIC_f5a53356525a07977762ec71f6042129,[isGirlAnime],[isCuteAnime],[Colored Girls],[ColoredGirls]",
    "title": "ANIME_PIC_f5a53356525a07977762ec71f6042129",
    "link_img": "https://live.staticflickr.com/65535/49798224683_e29f832047_o.png",
    "id_image": "ANIME_PIC_f5a53356525a07977762ec71f6042129",
    "count_view": 0
  },
  {
    "link_thumb": "https://live.staticflickr.com/65535/49802542037_95944cf2ed_n.jpg",
    "id_album": "-635262135",
    "description": "ANIME_PIC_f5e6413778612f44b4380d8d8d031f38,[isGirlAnime],[isCuteAnime],[Colored Girls],[ColoredGirls]",
    "title": "ANIME_PIC_f5e6413778612f44b4380d8d8d031f38",
    "link_img": "https://live.staticflickr.com/65535/49802542037_53458cf12c_o.jpg",
    "id_image": "ANIME_PIC_f5e6413778612f44b4380d8d8d031f38",
    "count_view": 0
  },
  {
    "link_thumb": "https://live.staticflickr.com/65535/49798777976_ab8e360a9d_n.jpg",
    "id_album": "-635262135",
    "description": "ANIME_PIC_f61f84d3960d83e395885dc73ae36321,[isGirlAnime],[isCuteAnime],[Colored Girls],[ColoredGirls]",
    "title": "ANIME_PIC_f61f84d3960d83e395885dc73ae36321",
    "link_img": "https://live.staticflickr.com/65535/49798777976_b7e9dc4db1_o.png",
    "id_image": "ANIME_PIC_f61f84d3960d83e395885dc73ae36321",
    "count_view": 0
  },
  {
    "link_thumb": "https://live.staticflickr.com/65535/50151414643_d7e6110d86_n.jpg",
    "id_album": "-635262135",
    "description": "ANIME_PIC_f62692a593c4e7f85449b91334a22a25,[isGirlAnime],[isCuteAnime],[Colored Girls],[ColoredGirls]",
    "title": "ANIME_PIC_f62692a593c4e7f85449b91334a22a25",
    "link_img": "https://live.staticflickr.com/65535/50151414643_f07318bcb8_o.jpg",
    "id_image": "ANIME_PIC_f62692a593c4e7f85449b91334a22a25",
    "count_view": 0
  },
  {
    "link_thumb": "https://live.staticflickr.com/65535/50056535176_804175db2b_n.jpg",
    "id_album": "-635262135",
    "description": "ANIME_PIC_f69130a59770deb3be1d9a9399e400f1,[isGirlAnime],[isCuteAnime],[Colored Girls],[ColoredGirls]",
    "title": "ANIME_PIC_f69130a59770deb3be1d9a9399e400f1",
    "link_img": "https://live.staticflickr.com/65535/50056535176_718b4f23c6_o.jpg",
    "id_image": "ANIME_PIC_f69130a59770deb3be1d9a9399e400f1",
    "count_view": 0
  },
  {
    "link_thumb": "https://live.staticflickr.com/65535/49998621161_9d31e2aa30_n.jpg",
    "id_album": "-635262135",
    "description": "ANIME_PIC_f6aba16274473876c23f72ba8ada5fd4,[isGirlAnime],[isCuteAnime],[Colored Girls],[ColoredGirls]",
    "title": "ANIME_PIC_f6aba16274473876c23f72ba8ada5fd4",
    "link_img": "https://live.staticflickr.com/65535/49998621161_8fafe13905_o.png",
    "id_image": "ANIME_PIC_f6aba16274473876c23f72ba8ada5fd4",
    "count_view": 0
  },
  {
    "link_thumb": "https://live.staticflickr.com/65535/50153842248_c54c6fd12e_n.jpg",
    "id_album": "-635262135",
    "description": "ANIME_PIC_f6bbf44076b95b2441a74dd222ddb916,[isGirlAnime],[isCuteAnime],[Colored Girls],[ColoredGirls],[isGirlsHatsHoodieAnime]",
    "title": "ANIME_PIC_f6bbf44076b95b2441a74dd222ddb916",
    "link_img": "https://live.staticflickr.com/65535/50153842248_8d9fef5e71_o.jpg",
    "id_image": "ANIME_PIC_f6bbf44076b95b2441a74dd222ddb916",
    "count_view": 0
  },
  {
    "link_thumb": "https://live.staticflickr.com/65535/50154913131_776895547e_n.jpg",
    "id_album": "-635262135",
    "description": "ANIME_PIC_f6bc2a336bbbe85c62955ed4fbfe675b,[isGirlAnime],[isCuteAnime],[Colored Girls],[ColoredGirls],[isKimonoAnime]",
    "title": "ANIME_PIC_f6bc2a336bbbe85c62955ed4fbfe675b",
    "link_img": "https://live.staticflickr.com/65535/50154913131_eb0931faeb_o.jpg",
    "id_image": "ANIME_PIC_f6bc2a336bbbe85c62955ed4fbfe675b",
    "count_view": 0
  },
  {
    "link_thumb": "https://live.staticflickr.com/65535/50151470716_d7fc142db4_n.jpg",
    "id_album": "-635262135",
    "description": "ANIME_PIC_f73ed1c3a79f4158132a7b4b3c524b0d,[isGirlAnime],[isCuteAnime],[Colored Girls],[ColoredGirls]",
    "title": "ANIME_PIC_f73ed1c3a79f4158132a7b4b3c524b0d",
    "link_img": "https://live.staticflickr.com/65535/50151470716_bd1e3b259b_o.jpg",
    "id_image": "ANIME_PIC_f73ed1c3a79f4158132a7b4b3c524b0d",
    "count_view": 0
  },
  {
    "link_thumb": "https://live.staticflickr.com/65535/49799083632_fc438e3af3_n.jpg",
    "id_album": "-635262135",
    "description": "ANIME_PIC_f7cea5e55ac606e3e9bad16e8140f237,[isGirlAnime],[isCuteAnime],[Colored Girls],[ColoredGirls]",
    "title": "ANIME_PIC_f7cea5e55ac606e3e9bad16e8140f237",
    "link_img": "https://live.staticflickr.com/65535/49799083632_c25977f4e5_o.jpg",
    "id_image": "ANIME_PIC_f7cea5e55ac606e3e9bad16e8140f237",
    "count_view": 0
  },
  {
    "link_thumb": "https://live.staticflickr.com/65535/50151414828_f33f2bc64c_n.jpg",
    "id_album": "-635262135",
    "description": "ANIME_PIC_f7d7bf56eaae751a7c184bd7d302dea9,[isGirlAnime],[isCuteAnime],[Colored Girls],[ColoredGirls]",
    "title": "ANIME_PIC_f7d7bf56eaae751a7c184bd7d302dea9",
    "link_img": "https://live.staticflickr.com/65535/50151414828_a2fdaa6572_o.png",
    "id_image": "ANIME_PIC_f7d7bf56eaae751a7c184bd7d302dea9",
    "count_view": 0
  },
  {
    "link_thumb": "https://live.staticflickr.com/65535/50240940242_dee607ff0a_n.jpg",
    "id_album": "-635262135",
    "description": "ANIME_PIC_f7f8ed0b12ae1287a9bc74916dc3d14e,[isGirlAnime],[isCuteAnime],[Colored Girls],[ColoredGirls]",
    "title": "ANIME_PIC_f7f8ed0b12ae1287a9bc74916dc3d14e",
    "link_img": "https://live.staticflickr.com/65535/50240940242_13bf7a2d2f_o.png",
    "id_image": "ANIME_PIC_f7f8ed0b12ae1287a9bc74916dc3d14e",
    "count_view": 0
  },
  {
    "link_thumb": "https://live.staticflickr.com/65535/50153573677_873db7f53c_n.jpg",
    "id_album": "-635262135",
    "description": "ANIME_PIC_f80da11db71dda3ecd3f467facee0a19,[isGirlAnime],[isCuteAnime],[Colored Girls],[ColoredGirls],[isGirlEarsNekoAnime]",
    "title": "ANIME_PIC_f80da11db71dda3ecd3f467facee0a19",
    "link_img": "https://live.staticflickr.com/65535/50153573677_5d757b8421_o.png",
    "id_image": "ANIME_PIC_f80da11db71dda3ecd3f467facee0a19",
    "count_view": 0
  },
  {
    "link_thumb": "https://live.staticflickr.com/65535/50240638851_9844c85020_n.jpg",
    "id_album": "-635262135",
    "description": "ANIME_PIC_f83e4c34b1fd1be585ec99c3e9e5af41,[isGirlAnime],[isCuteAnime],[Colored Girls],[ColoredGirls],[isGirlsLoliAnime]",
    "title": "ANIME_PIC_f83e4c34b1fd1be585ec99c3e9e5af41",
    "link_img": "https://live.staticflickr.com/65535/50240638851_e3ae80a056_o.jpg",
    "id_image": "ANIME_PIC_f83e4c34b1fd1be585ec99c3e9e5af41",
    "count_view": 0
  },
  {
    "link_thumb": "https://live.staticflickr.com/65535/49798779671_4062fec6be_n.jpg",
    "id_album": "-635262135",
    "description": "ANIME_PIC_f84ec794bae41e40d548de8589d6243b,[isGirlAnime],[isCuteAnime],[Colored Girls],[ColoredGirls]",
    "title": "ANIME_PIC_f84ec794bae41e40d548de8589d6243b",
    "link_img": "https://live.staticflickr.com/65535/49798779671_5c2274ec94_o.png",
    "id_image": "ANIME_PIC_f84ec794bae41e40d548de8589d6243b",
    "count_view": 0
  },
  {
    "link_thumb": "https://live.staticflickr.com/65535/50150921153_22dc14d480_n.jpg",
    "id_album": "-635262135",
    "description": "ANIME_PIC_f88af9153edc3f7f458bd6531ba1b7d0,[isGirlAnime],[isCuteAnime],[Colored Girls],[ColoredGirls]",
    "title": "ANIME_PIC_f88af9153edc3f7f458bd6531ba1b7d0",
    "link_img": "https://live.staticflickr.com/65535/50150921153_539496b357_o.jpg",
    "id_image": "ANIME_PIC_f88af9153edc3f7f458bd6531ba1b7d0",
    "count_view": 0
  },
  {
    "link_thumb": "https://live.staticflickr.com/65535/50154258547_64e314f66d_n.jpg",
    "id_album": "-635262135",
    "description": "ANIME_PIC_f8c960521518728236c8e39189666e06,[isGirlAnime],[isCuteAnime],[Colored Girls],[ColoredGirls],[isGirlsHatsHoodieAnime]",
    "title": "ANIME_PIC_f8c960521518728236c8e39189666e06",
    "link_img": "https://live.staticflickr.com/65535/50154258547_995b51f9a6_o.png",
    "id_image": "ANIME_PIC_f8c960521518728236c8e39189666e06",
    "count_view": 0
  },
  {
    "link_thumb": "https://live.staticflickr.com/65535/50154399743_5f9d123a90_n.jpg",
    "id_album": "-635262135",
    "description": "ANIME_PIC_f8d5a07d90be4276147c9b2a0b6c2390,[isGirlAnime],[isCuteAnime],[Colored Girls],[ColoredGirls],[isGirlsSharpCanineToothAnime]",
    "title": "ANIME_PIC_f8d5a07d90be4276147c9b2a0b6c2390",
    "link_img": "https://live.staticflickr.com/65535/50154399743_cfb6b732bc_o.jpg",
    "id_image": "ANIME_PIC_f8d5a07d90be4276147c9b2a0b6c2390",
    "count_view": 0
  },
  {
    "link_thumb": "https://live.staticflickr.com/65535/50151471771_db93dcd3d4_n.jpg",
    "id_album": "-635262135",
    "description": "ANIME_PIC_f982b6887b7754f00d95400c633f312e,[isGirlAnime],[isCuteAnime],[Colored Girls],[ColoredGirls]",
    "title": "ANIME_PIC_f982b6887b7754f00d95400c633f312e",
    "link_img": "https://live.staticflickr.com/65535/50151471771_10627ea5bc_o.jpg",
    "id_image": "ANIME_PIC_f982b6887b7754f00d95400c633f312e",
    "count_view": 0
  },
  {
    "link_thumb": "https://live.staticflickr.com/65535/49801684638_53705f1605_n.jpg",
    "id_album": "-635262135",
    "description": "ANIME_PIC_f99687a8ba0d8211847dd678947c5459,[isGirlAnime],[isCuteAnime],[Colored Girls],[ColoredGirls]",
    "title": "ANIME_PIC_f99687a8ba0d8211847dd678947c5459",
    "link_img": "https://live.staticflickr.com/65535/49801684638_3f55e34bb4_o.jpg",
    "id_image": "ANIME_PIC_f99687a8ba0d8211847dd678947c5459",
    "count_view": 0
  },
  {
    "link_thumb": "https://live.staticflickr.com/65535/50153109653_28d4399166_n.jpg",
    "id_album": "-635262135",
    "description": "ANIME_PIC_f9c3de54b8684be90300ffd810247179,[isGirlAnime],[isCuteAnime],[Colored Girls],[ColoredGirls]",
    "title": "ANIME_PIC_f9c3de54b8684be90300ffd810247179",
    "link_img": "https://live.staticflickr.com/65535/50153109653_dc492f260a_o.jpg",
    "id_image": "ANIME_PIC_f9c3de54b8684be90300ffd810247179",
    "count_view": 0
  },
  {
    "link_thumb": "https://live.staticflickr.com/65535/50150921893_641eef93b5_n.jpg",
    "id_album": "-635262135",
    "description": "ANIME_PIC_f9d5b72b79a4ddaf438383e5e7e2e98c,[isGirlAnime],[isCuteAnime],[Colored Girls],[ColoredGirls]",
    "title": "ANIME_PIC_f9d5b72b79a4ddaf438383e5e7e2e98c",
    "link_img": "https://live.staticflickr.com/65535/50150921893_97426c202b_o.jpg",
    "id_image": "ANIME_PIC_f9d5b72b79a4ddaf438383e5e7e2e98c",
    "count_view": 0
  },
  {
    "link_thumb": "https://live.staticflickr.com/65535/50150922118_c48680d0be_n.jpg",
    "id_album": "-635262135",
    "description": "ANIME_PIC_f9d678936e74dd229003e96f1f025338,[isGirlAnime],[isCuteAnime],[Colored Girls],[ColoredGirls]",
    "title": "ANIME_PIC_f9d678936e74dd229003e96f1f025338",
    "link_img": "https://live.staticflickr.com/65535/50150922118_5057dcca0b_o.jpg",
    "id_image": "ANIME_PIC_f9d678936e74dd229003e96f1f025338",
    "count_view": 0
  },
  {
    "link_thumb": "https://live.staticflickr.com/65535/49987484261_61cf89d923_n.jpg",
    "id_album": "-635262135",
    "description": "ANIME_PIC_fa4958952656082aedeaa4fdbc17c6c1,[isGirlAnime],[isCuteAnime],[Colored Girls],[ColoredGirls]",
    "title": "ANIME_PIC_fa4958952656082aedeaa4fdbc17c6c1",
    "link_img": "https://live.staticflickr.com/65535/49987484261_aa8a4acaa3_o.jpg",
    "id_image": "ANIME_PIC_fa4958952656082aedeaa4fdbc17c6c1",
    "count_view": 0
  },
  {
    "link_thumb": "https://live.staticflickr.com/65535/50240855037_0649d72db0_n.jpg",
    "id_album": "-635262135",
    "description": "ANIME_PIC_fa5e18ca8bb8b3ef2684ecc70dfdb435,[isGirlAnime],[isCuteAnime],[Colored Girls],[ColoredGirls],[isGirlsHatsHoodieAnime]",
    "title": "ANIME_PIC_fa5e18ca8bb8b3ef2684ecc70dfdb435",
    "link_img": "https://live.staticflickr.com/65535/50240855037_3811841681_o.jpg",
    "id_image": "ANIME_PIC_fa5e18ca8bb8b3ef2684ecc70dfdb435",
    "count_view": 0
  },
  {
    "link_thumb": "https://live.staticflickr.com/65535/50153934303_8da5c1eccf_n.jpg",
    "id_album": "-635262135",
    "description": "ANIME_PIC_fa74ccc96d118a80d6c018b3f44db65b,[isGirlAnime],[isCuteAnime],[Colored Girls],[ColoredGirls]",
    "title": "ANIME_PIC_fa74ccc96d118a80d6c018b3f44db65b",
    "link_img": "https://live.staticflickr.com/65535/50153934303_e43c891b4d_o.jpg",
    "id_image": "ANIME_PIC_fa74ccc96d118a80d6c018b3f44db65b",
    "count_view": 0
  },
  {
    "link_thumb": "https://live.staticflickr.com/65535/50239996348_7af93c4386_n.jpg",
    "id_album": "-635262135",
    "description": "ANIME_PIC_fabac9b3f057dc634cb573a75bb72b8d,[isGirlAnime],[isCuteAnime],[Colored Girls],[ColoredGirls],[isGirlEarsNekoAnime],[isGirlsLoliAnime]",
    "title": "ANIME_PIC_fabac9b3f057dc634cb573a75bb72b8d",
    "link_img": "https://live.staticflickr.com/65535/50239996348_cf8f28c64e_o.png",
    "id_image": "ANIME_PIC_fabac9b3f057dc634cb573a75bb72b8d",
    "count_view": 0
  },
  {
    "link_thumb": "https://live.staticflickr.com/65535/49878597763_e8708402a1_n.jpg",
    "id_album": "-635262135",
    "description": "ANIME_PIC_fac0c19d6a952996490b18b6ee830ad5,[isGirlAnime],[isCuteAnime],[Colored Girls],[ColoredGirls]",
    "title": "ANIME_PIC_fac0c19d6a952996490b18b6ee830ad5",
    "link_img": "https://live.staticflickr.com/65535/49878597763_d537d53007_o.png",
    "id_image": "ANIME_PIC_fac0c19d6a952996490b18b6ee830ad5",
    "count_view": 0
  },
  {
    "link_thumb": "https://live.staticflickr.com/65535/50153934478_bf50ca843d_n.jpg",
    "id_album": "-635262135",
    "description": "ANIME_PIC_fb148d122138d976ec48d4d1e0f3d1f5,[isGirlAnime],[isCuteAnime],[Colored Girls],[ColoredGirls],[isGirlsHatsHoodieAnime]",
    "title": "ANIME_PIC_fb148d122138d976ec48d4d1e0f3d1f5",
    "link_img": "https://live.staticflickr.com/65535/50153934478_f02524cbd7_o.jpg",
    "id_image": "ANIME_PIC_fb148d122138d976ec48d4d1e0f3d1f5",
    "count_view": 0
  },
  {
    "link_thumb": "https://live.staticflickr.com/65535/49798781151_105dedcc5f_n.jpg",
    "id_album": "-635262135",
    "description": "ANIME_PIC_fb3b3e55f9f28a68fe815005ed242397,[isGirlAnime],[isCuteAnime],[Colored Girls],[ColoredGirls]",
    "title": "ANIME_PIC_fb3b3e55f9f28a68fe815005ed242397",
    "link_img": "https://live.staticflickr.com/65535/49798781151_a651df5ab8_o.jpg",
    "id_image": "ANIME_PIC_fb3b3e55f9f28a68fe815005ed242397",
    "count_view": 0
  },
  {
    "link_thumb": "https://live.staticflickr.com/65535/50153786471_4ee9cca25c_n.jpg",
    "id_album": "-635262135",
    "description": "ANIME_PIC_fb65316e284f09596f64430a3535f781,[isGirlAnime],[isCuteAnime],[Colored Girls],[ColoredGirls],[isGirlsHatsHoodieAnime]",
    "title": "ANIME_PIC_fb65316e284f09596f64430a3535f781",
    "link_img": "https://live.staticflickr.com/65535/50153786471_48fb647cd2_o.jpg",
    "id_image": "ANIME_PIC_fb65316e284f09596f64430a3535f781",
    "count_view": 0
  },
  {
    "link_thumb": "https://live.staticflickr.com/65535/50153109813_f63c55627c_n.jpg",
    "id_album": "-635262135",
    "description": "ANIME_PIC_fb693d608d977aafa9f67ab2d32c1e62,[isGirlAnime],[isCuteAnime],[Colored Girls],[ColoredGirls],[isKimonoAnime]",
    "title": "ANIME_PIC_fb693d608d977aafa9f67ab2d32c1e62",
    "link_img": "https://live.staticflickr.com/65535/50153109813_46030f512e_o.jpg",
    "id_image": "ANIME_PIC_fb693d608d977aafa9f67ab2d32c1e62",
    "count_view": 0
  },
  {
    "link_thumb": "https://live.staticflickr.com/65535/50154758322_94bbdd6c9a_n.jpg",
    "id_album": "-635262135",
    "description": "ANIME_PIC_fb7d2a5dbe7c3aede6826d618b490a8b,[isGirlAnime],[isCuteAnime],[Colored Girls],[ColoredGirls]",
    "title": "ANIME_PIC_fb7d2a5dbe7c3aede6826d618b490a8b",
    "link_img": "https://live.staticflickr.com/65535/50154758322_56408ed90b_o.jpg",
    "id_image": "ANIME_PIC_fb7d2a5dbe7c3aede6826d618b490a8b",
    "count_view": 0
  },
  {
    "link_thumb": "https://live.staticflickr.com/65535/50151961476_4cde411035_n.jpg",
    "id_album": "-635262135",
    "description": "ANIME_PIC_fc3bc8b829a8ae431d3e272e35f73ace,[isGirlAnime],[isCuteAnime],[Colored Girls],[ColoredGirls],[isGirlEarsNekoAnime],[isGirlsHatsHoodieAnime],[isGirlsLoliAnime]",
    "title": "ANIME_PIC_fc3bc8b829a8ae431d3e272e35f73ace",
    "link_img": "https://live.staticflickr.com/65535/50151961476_1356f3da5f_o.png",
    "id_image": "ANIME_PIC_fc3bc8b829a8ae431d3e272e35f73ace",
    "count_view": 0
  },
  {
    "link_thumb": "https://live.staticflickr.com/65535/50154255308_7fec983cc8_n.jpg",
    "id_album": "-635262135",
    "description": "ANIME_PIC_fc48fa875b91b57d934f5e40ad4ebde8,[isGirlAnime],[isCuteAnime],[Colored Girls],[ColoredGirls],[isGirlsHatsHoodieAnime]",
    "title": "ANIME_PIC_fc48fa875b91b57d934f5e40ad4ebde8",
    "link_img": "https://live.staticflickr.com/65535/50154255308_0a34b6186f_o.jpg",
    "id_image": "ANIME_PIC_fc48fa875b91b57d934f5e40ad4ebde8",
    "count_view": 0
  },
  {
    "link_thumb": "https://live.staticflickr.com/65535/49799085927_c8ed0193c4_n.jpg",
    "id_album": "-635262135",
    "description": "ANIME_PIC_fc82288d42fa2992af97444ae8b0585b,[isGirlAnime],[isCuteAnime],[Colored Girls],[ColoredGirls]",
    "title": "ANIME_PIC_fc82288d42fa2992af97444ae8b0585b",
    "link_img": "https://live.staticflickr.com/65535/49799085927_3d5c4dd422_o.png",
    "id_image": "ANIME_PIC_fc82288d42fa2992af97444ae8b0585b",
    "count_view": 0
  },
  {
    "link_thumb": "https://live.staticflickr.com/65535/50151472226_98427080dc_n.jpg",
    "id_album": "-635262135",
    "description": "ANIME_PIC_fc895bc5a9d6b42ce5d14845d3ea83cd,[isGirlAnime],[isCuteAnime],[Colored Girls],[ColoredGirls]",
    "title": "ANIME_PIC_fc895bc5a9d6b42ce5d14845d3ea83cd",
    "link_img": "https://live.staticflickr.com/65535/50151472226_b353f02a84_o.jpg",
    "id_image": "ANIME_PIC_fc895bc5a9d6b42ce5d14845d3ea83cd",
    "count_view": 0
  },
  {
    "link_thumb": "https://live.staticflickr.com/65535/50154632042_142fa50dac_n.jpg",
    "id_album": "-635262135",
    "description": "ANIME_PIC_fcbdcf2d4bb48f17f3180a9d491b17d9,[isGirlAnime],[isCuteAnime],[Colored Girls],[ColoredGirls],[isGirlEarsNekoAnime],[isGirlsSharpCanineToothAnime]",
    "title": "ANIME_PIC_fcbdcf2d4bb48f17f3180a9d491b17d9",
    "link_img": "https://live.staticflickr.com/65535/50154632042_5d82606cb8_o.jpg",
    "id_image": "ANIME_PIC_fcbdcf2d4bb48f17f3180a9d491b17d9",
    "count_view": 0
  },
  {
    "link_thumb": "https://live.staticflickr.com/65535/50151708597_a2db6d7516_n.jpg",
    "id_album": "-635262135",
    "description": "ANIME_PIC_fcda3d6ba84919867e449b55e7592869,[isGirlAnime],[isCuteAnime],[Colored Girls],[ColoredGirls]",
    "title": "ANIME_PIC_fcda3d6ba84919867e449b55e7592869",
    "link_img": "https://live.staticflickr.com/65535/50151708597_bf6305d898_o.jpg",
    "id_image": "ANIME_PIC_fcda3d6ba84919867e449b55e7592869",
    "count_view": 0
  },
  {
    "link_thumb": "https://live.staticflickr.com/65535/50029439553_edea79ab68_n.jpg",
    "id_album": "-635262135",
    "description": "ANIME_PIC_fd10d0cd87ce7bb79151a118230e48c5,[isGirlAnime],[isCuteAnime],[Colored Girls],[ColoredGirls]",
    "title": "ANIME_PIC_fd10d0cd87ce7bb79151a118230e48c5",
    "link_img": "https://live.staticflickr.com/65535/50029439553_483e8498c5_o.jpg",
    "id_image": "ANIME_PIC_fd10d0cd87ce7bb79151a118230e48c5",
    "count_view": 0
  },
  {
    "link_thumb": "https://live.staticflickr.com/65535/49798229518_279b7c873d_n.jpg",
    "id_album": "-635262135",
    "description": "ANIME_PIC_fd1562ae2dd6c748580c8c892ae5d163,[isGirlAnime],[isCuteAnime],[Colored Girls],[ColoredGirls]",
    "title": "ANIME_PIC_fd1562ae2dd6c748580c8c892ae5d163",
    "link_img": "https://live.staticflickr.com/65535/49798229518_51b1da0023_o.png",
    "id_image": "ANIME_PIC_fd1562ae2dd6c748580c8c892ae5d163",
    "count_view": 0
  },
  {
    "link_thumb": "https://live.staticflickr.com/65535/50154395166_200754d836_n.jpg",
    "id_album": "-635262135",
    "description": "ANIME_PIC_fd161e8539938b69cbe32508069c3df0,[isGirlAnime],[isCuteAnime],[Colored Girls],[ColoredGirls]",
    "title": "ANIME_PIC_fd161e8539938b69cbe32508069c3df0",
    "link_img": "https://live.staticflickr.com/65535/50154395166_1127835cf5_o.jpg",
    "id_image": "ANIME_PIC_fd161e8539938b69cbe32508069c3df0",
    "count_view": 0
  },
  {
    "link_thumb": "https://live.staticflickr.com/65535/49996474221_0c0508e68d_n.jpg",
    "id_album": "-635262135",
    "description": "ANIME_PIC_fd1b7c605b88fa16d7adbd96441c95a2,[isGirlAnime],[isCuteAnime],[Colored Girls],[ColoredGirls]",
    "title": "ANIME_PIC_fd1b7c605b88fa16d7adbd96441c95a2",
    "link_img": "https://live.staticflickr.com/65535/49996474221_40f1268cc0_o.jpg",
    "id_image": "ANIME_PIC_fd1b7c605b88fa16d7adbd96441c95a2",
    "count_view": 0
  },
  {
    "link_thumb": "https://live.staticflickr.com/65535/50240639716_7097901ec9_n.jpg",
    "id_album": "-635262135",
    "description": "ANIME_PIC_fd2107ad5a9ad713a0c07ae517f2e742,[isGirlAnime],[isCuteAnime],[Colored Girls],[ColoredGirls]",
    "title": "ANIME_PIC_fd2107ad5a9ad713a0c07ae517f2e742",
    "link_img": "https://live.staticflickr.com/65535/50240639716_d175427c91_o.jpg",
    "id_image": "ANIME_PIC_fd2107ad5a9ad713a0c07ae517f2e742",
    "count_view": 0
  },
  {
    "link_thumb": "https://live.staticflickr.com/65535/49798782971_d6af92e6e6_n.jpg",
    "id_album": "-635262135",
    "description": "ANIME_PIC_fd323f4ba691f3f1f749b4dec3787349,[isGirlAnime],[isCuteAnime],[Colored Girls],[ColoredGirls]",
    "title": "ANIME_PIC_fd323f4ba691f3f1f749b4dec3787349",
    "link_img": "https://live.staticflickr.com/65535/49798782971_f65f7e0bef_o.png",
    "id_image": "ANIME_PIC_fd323f4ba691f3f1f749b4dec3787349",
    "count_view": 0
  },
  {
    "link_thumb": "https://live.staticflickr.com/65535/49998872472_57d8f56243_n.jpg",
    "id_album": "-635262135",
    "description": "ANIME_PIC_fd4685a2f0e4e90f25d51ecdc0c04606,[isGirlAnime],[isCuteAnime],[Colored Girls],[ColoredGirls]",
    "title": "ANIME_PIC_fd4685a2f0e4e90f25d51ecdc0c04606",
    "link_img": "https://live.staticflickr.com/65535/49998872472_5de762ca04_o.png",
    "id_image": "ANIME_PIC_fd4685a2f0e4e90f25d51ecdc0c04606",
    "count_view": 0
  },
  {
    "link_thumb": "https://live.staticflickr.com/65535/50150922933_f65f8d3ba4_n.jpg",
    "id_album": "-635262135",
    "description": "ANIME_PIC_fd87f7a800d2920134405d83abaec5af,[isGirlAnime],[isCuteAnime],[Colored Girls],[ColoredGirls]",
    "title": "ANIME_PIC_fd87f7a800d2920134405d83abaec5af",
    "link_img": "https://live.staticflickr.com/65535/50150922933_fd3de35da9_o.png",
    "id_image": "ANIME_PIC_fd87f7a800d2920134405d83abaec5af",
    "count_view": 0
  },
  {
    "link_thumb": "https://live.staticflickr.com/65535/50154955706_aeec5a3763_n.jpg",
    "id_album": "-635262135",
    "description": "ANIME_PIC_fd8bbacf337d4893bc28860afac051b2,[isGirlAnime],[isCuteAnime],[Colored Girls],[ColoredGirls],[isKimonoAnime],[isSadAnimeGirl]",
    "title": "ANIME_PIC_fd8bbacf337d4893bc28860afac051b2",
    "link_img": "https://live.staticflickr.com/65535/50154955706_0b8cd9c05e_o.jpg",
    "id_image": "ANIME_PIC_fd8bbacf337d4893bc28860afac051b2",
    "count_view": 0
  },
  {
    "link_thumb": "https://live.staticflickr.com/65535/50240855747_6422cd022d_n.jpg",
    "id_album": "-635262135",
    "description": "ANIME_PIC_fdb8f374f8d1f4dd63150fb21364b1c0,[isGirlAnime],[isCuteAnime],[Colored Girls],[ColoredGirls]",
    "title": "ANIME_PIC_fdb8f374f8d1f4dd63150fb21364b1c0",
    "link_img": "https://live.staticflickr.com/65535/50240855747_b8fe518cb2_o.png",
    "id_image": "ANIME_PIC_fdb8f374f8d1f4dd63150fb21364b1c0",
    "count_view": 0
  },
  {
    "link_thumb": "https://live.staticflickr.com/65535/50151473206_2174de179f_n.jpg",
    "id_album": "-635262135",
    "description": "ANIME_PIC_fdc5e6ec4cd0318d9952db3ec7a953ca,[isGirlAnime],[isCuteAnime],[Colored Girls],[ColoredGirls],[isGirlsSharpCanineToothAnime]",
    "title": "ANIME_PIC_fdc5e6ec4cd0318d9952db3ec7a953ca",
    "link_img": "https://live.staticflickr.com/65535/50151473206_729fd76454_o.png",
    "id_image": "ANIME_PIC_fdc5e6ec4cd0318d9952db3ec7a953ca",
    "count_view": 0
  },
  {
    "link_thumb": "https://live.staticflickr.com/65535/50154258922_bc10f078ed_n.jpg",
    "id_album": "-635262135",
    "description": "ANIME_PIC_fdd72dec1f8b4d1c860ed7f2bedb187b,[isGirlAnime],[isCuteAnime],[Colored Girls],[ColoredGirls],[isGirlsHatsHoodieAnime]",
    "title": "ANIME_PIC_fdd72dec1f8b4d1c860ed7f2bedb187b",
    "link_img": "https://live.staticflickr.com/65535/50154258922_01425cf82d_o.png",
    "id_image": "ANIME_PIC_fdd72dec1f8b4d1c860ed7f2bedb187b",
    "count_view": 0
  },
  {
    "link_thumb": "https://live.staticflickr.com/65535/50153275468_9d500cfa04_n.jpg",
    "id_album": "-635262135",
    "description": "ANIME_PIC_fe48abb0c44c16dd17b783ec4fd19c8d,[isGirlAnime],[isCuteAnime],[Colored Girls],[ColoredGirls],[isKimonoAnime]",
    "title": "ANIME_PIC_fe48abb0c44c16dd17b783ec4fd19c8d",
    "link_img": "https://live.staticflickr.com/65535/50153275468_1946dd0a66_o.jpg",
    "id_image": "ANIME_PIC_fe48abb0c44c16dd17b783ec4fd19c8d",
    "count_view": 0
  },
  {
    "link_thumb": "https://live.staticflickr.com/65535/49878599103_f8f3694878_n.jpg",
    "id_album": "-635262135",
    "description": "ANIME_PIC_fe961b782637f19f1edf815b4cf2f605,[isGirlAnime],[isCuteAnime],[Colored Girls],[ColoredGirls]",
    "title": "ANIME_PIC_fe961b782637f19f1edf815b4cf2f605",
    "link_img": "https://live.staticflickr.com/65535/49878599103_df31aba932_o.png",
    "id_image": "ANIME_PIC_fe961b782637f19f1edf815b4cf2f605",
    "count_view": 0
  },
  {
    "link_thumb": "https://live.staticflickr.com/65535/50154488576_b5ea51aaaf_n.jpg",
    "id_album": "-635262135",
    "description": "ANIME_PIC_fea5e627838fc21e7a696326dad67010,[isGirlAnime],[isCuteAnime],[Colored Girls],[ColoredGirls],[isGirlsLoliAnime]",
    "title": "ANIME_PIC_fea5e627838fc21e7a696326dad67010",
    "link_img": "https://live.staticflickr.com/65535/50154488576_334d1c8169_o.jpg",
    "id_image": "ANIME_PIC_fea5e627838fc21e7a696326dad67010",
    "count_view": 0
  },
  {
    "link_thumb": "https://live.staticflickr.com/65535/50152200867_96622b5946_n.jpg",
    "id_album": "-635262135",
    "description": "ANIME_PIC_febae0ab6d801994ea067731a221be8c,[isGirlAnime],[isCuteAnime],[Colored Girls],[ColoredGirls]",
    "title": "ANIME_PIC_febae0ab6d801994ea067731a221be8c",
    "link_img": "https://live.staticflickr.com/65535/50152200867_5df0fa253a_o.jpg",
    "id_image": "ANIME_PIC_febae0ab6d801994ea067731a221be8c",
    "count_view": 0
  },
  {
    "link_thumb": "https://live.staticflickr.com/65535/50153708727_f4ab48fe91_n.jpg",
    "id_album": "-635262135",
    "description": "ANIME_PIC_fef2d5007424c457a5669206d922a067,[isGirlAnime],[isCuteAnime],[Colored Girls],[ColoredGirls],[isGirlEarsNekoAnime],[isGirlsLoliAnime]",
    "title": "ANIME_PIC_fef2d5007424c457a5669206d922a067",
    "link_img": "https://live.staticflickr.com/65535/50153708727_e4303a19b8_o.jpg",
    "id_image": "ANIME_PIC_fef2d5007424c457a5669206d922a067",
    "count_view": 0
  },
  {
    "link_thumb": "https://live.staticflickr.com/65535/50154394782_78733237d0_n.jpg",
    "id_album": "-635262135",
    "description": "ANIME_PIC_fef4925b9ac72a4c541ae0e725a67eb5,[isGirlAnime],[isCuteAnime],[Colored Girls],[ColoredGirls]",
    "title": "ANIME_PIC_fef4925b9ac72a4c541ae0e725a67eb5",
    "link_img": "https://live.staticflickr.com/65535/50154394782_1dccac6e2b_o.jpg",
    "id_image": "ANIME_PIC_fef4925b9ac72a4c541ae0e725a67eb5",
    "count_view": 0
  },
  {
    "link_thumb": "https://live.staticflickr.com/65535/50240855952_86884e012a_n.jpg",
    "id_album": "-635262135",
    "description": "ANIME_PIC_ff00a2b593f3b1ed0f6034d07a151da0,[isGirlAnime],[isCuteAnime],[Colored Girls],[ColoredGirls]",
    "title": "ANIME_PIC_ff00a2b593f3b1ed0f6034d07a151da0",
    "link_img": "https://live.staticflickr.com/65535/50240855952_94f60c07f5_o.jpg",
    "id_image": "ANIME_PIC_ff00a2b593f3b1ed0f6034d07a151da0",
    "count_view": 0
  },
  {
    "link_thumb": "https://live.staticflickr.com/65535/50153934953_9bef120534_n.jpg",
    "id_album": "-635262135",
    "description": "ANIME_PIC_ff249a6fe372ca7376d483e56bc95e38,[isGirlAnime],[isCuteAnime],[Colored Girls],[ColoredGirls]",
    "title": "ANIME_PIC_ff249a6fe372ca7376d483e56bc95e38",
    "link_img": "https://live.staticflickr.com/65535/50153934953_4ec596444e_o.png",
    "id_image": "ANIME_PIC_ff249a6fe372ca7376d483e56bc95e38",
    "count_view": 0
  },
  {
    "link_thumb": "https://live.staticflickr.com/65535/49798232128_b4de46c44f_n.jpg",
    "id_album": "-635262135",
    "description": "ANIME_PIC_ff2ec6735161395f86abaa48c82b5351,[isGirlAnime],[isCuteAnime],[Colored Girls],[ColoredGirls]",
    "title": "ANIME_PIC_ff2ec6735161395f86abaa48c82b5351",
    "link_img": "https://live.staticflickr.com/65535/49798232128_c2b340a3e2_o.jpg",
    "id_image": "ANIME_PIC_ff2ec6735161395f86abaa48c82b5351",
    "count_view": 0
  },
  {
    "link_thumb": "https://live.staticflickr.com/65535/50150923873_03b0f85aa1_n.jpg",
    "id_album": "-635262135",
    "description": "ANIME_PIC_ff608bce0f774f61a2d0128c39a73e1e,[isGirlAnime],[isCuteAnime],[Colored Girls],[ColoredGirls]",
    "title": "ANIME_PIC_ff608bce0f774f61a2d0128c39a73e1e",
    "link_img": "https://live.staticflickr.com/65535/50150923873_9717bf3620_o.jpg",
    "id_image": "ANIME_PIC_ff608bce0f774f61a2d0128c39a73e1e",
    "count_view": 0
  },
  {
    "link_thumb": "https://live.staticflickr.com/65535/50240640546_740a2290a0_n.jpg",
    "id_album": "-635262135",
    "description": "ANIME_PIC_ff7f1351d842ced2987cf2cbbbc958a9,[isGirlAnime],[isCuteAnime],[Colored Girls],[ColoredGirls],[isGirlsHatsHoodieAnime],[isGirlsLoliAnime],[isGirlsSharpCanineToothAnime]",
    "title": "ANIME_PIC_ff7f1351d842ced2987cf2cbbbc958a9",
    "link_img": "https://live.staticflickr.com/65535/50240640546_1f6c3986cd_o.png",
    "id_image": "ANIME_PIC_ff7f1351d842ced2987cf2cbbbc958a9",
    "count_view": 0
  },
  {
    "link_thumb": "https://live.staticflickr.com/65535/49878599423_f68bb39c98_n.jpg",
    "id_album": "-635262135",
    "description": "ANIME_PIC_ffc608231f63fbed0ccd6798a71ab853,[isGirlAnime],[isCuteAnime],[Colored Girls],[ColoredGirls]",
    "title": "ANIME_PIC_ffc608231f63fbed0ccd6798a71ab853",
    "link_img": "https://live.staticflickr.com/65535/49878599423_0948850bbd_o.jpg",
    "id_image": "ANIME_PIC_ffc608231f63fbed0ccd6798a71ab853",
    "count_view": 0
  },
  {
    "link_thumb": "https://live.staticflickr.com/65535/49798785156_250dbf10da_n.jpg",
    "id_album": "-635262135",
    "description": "ANIME_PIC_ffc80fb79225528a6dd9c6ed2e994aa0,[isGirlAnime],[isCuteAnime],[Colored Girls],[ColoredGirls]",
    "title": "ANIME_PIC_ffc80fb79225528a6dd9c6ed2e994aa0",
    "link_img": "https://live.staticflickr.com/65535/49798785156_c1825be828_o.jpg",
    "id_image": "ANIME_PIC_ffc80fb79225528a6dd9c6ed2e994aa0",
    "count_view": 0
  },
  {
    "link_thumb": "https://live.staticflickr.com/65535/49798233243_a3e18d0f5d_n.jpg",
    "id_album": "-635262135",
    "description": "ANIME_PIC_ffeba6057c0c3f759b5ed08f4839ca55,[isGirlAnime],[isCuteAnime],[Colored Girls],[ColoredGirls]",
    "title": "ANIME_PIC_ffeba6057c0c3f759b5ed08f4839ca55",
    "link_img": "https://live.staticflickr.com/65535/49798233243_07eaa9d6d7_o.jpg",
    "id_image": "ANIME_PIC_ffeba6057c0c3f759b5ed08f4839ca55",
    "count_view": 0
  }
]