[
  {
    "total_img": 23859,
    "number_page": 120,
    "title": "Girls Cute Cool",
    "tag": "Girls Cute Cool,",
    "description": "Girls Cute Cool",
    "link_thumb": "https://live.staticflickr.com/65535/51542199025_2343ce2f5b_n.jpg",
    "id_album": "-89234980",
    "total_view": 23859
  },
  {
    "total_img": 3863,
    "number_page": 20,
    "title": "Girls Ears Neko",
    "tag": "Girls Ears Neko,",
    "description": "Girls Ears Neko",
    "link_thumb": "https://live.staticflickr.com/65535/51542199025_2343ce2f5b_n.jpg",
    "id_album": "-2118541861",
    "total_view": 3863
  },
  {
    "total_img": 6163,
    "number_page": 31,
    "title": "Girls Hats Hoodie",
    "tag": "Girls Hats Hoodie,",
    "description": "Girls Hats Hoodie",
    "link_thumb": "https://live.staticflickr.com/65535/49998137463_3c222b8f53_n.jpg",
    "id_album": "1409782213",
    "total_view": 6163
  },
  {
    "total_img": 589,
    "number_page": 3,
    "title": "Girls Witch",
    "tag": "Girls Witch,",
    "description": "Girls Witch",
    "link_thumb": "https://live.staticflickr.com/65535/50056258208_c6c9e88c56_n.jpg",
    "id_album": "-1322695765",
    "total_view": 589
  }
]