[
  {
    "total_img": 8,
    "number_page": 1,
    "title": "91 Days",
    "tag": "Avilio Bruno, Anime, Angelo Lagusa, Nero Vanetti, Man, 91 Days, Boy",
    "description": "91 Days",
    "link_thumb": "https://live.staticflickr.com/65535/46973660875_762e72b410_n.jpg",
    "id_album": "1896461147",
    "total_view": 8
  }
]