[
  {
    "link_thumb": "https://live.staticflickr.com/65535/51555623299_53f236d981_n.jpg",
    "id_album": "-89234980",
    "description": "ANIME_PIC_ba8abbf7bfd9998f38d96b7381d5b4ff,[GirlsCuteCool],[isGirlAnime],[isCuteAnime],[isGirlsLoliAnime]",
    "title": "ANIME_PIC_ba8abbf7bfd9998f38d96b7381d5b4ff",
    "link_img": "https://live.staticflickr.com/65535/51555623299_7a281f59e5_o.png",
    "id_image": "ANIME_PIC_ba8abbf7bfd9998f38d96b7381d5b4ff",
    "count_view": 0
  },
  {
    "link_thumb": "https://live.staticflickr.com/65535/51555135613_b69bd6aa9b_n.jpg",
    "id_album": "-89234980",
    "description": "ANIME_PIC_ba8b834ee36a87d81921b99f6f738ceb,[GirlsCuteCool],[isGirlAnime],[isCuteAnime],[isGirlsLoliAnime],[isSadAnimeGirl],[isSadAnime]",
    "title": "ANIME_PIC_ba8b834ee36a87d81921b99f6f738ceb",
    "link_img": "https://live.staticflickr.com/65535/51555135613_c76a6d1ccb_o.jpg",
    "id_image": "ANIME_PIC_ba8b834ee36a87d81921b99f6f738ceb",
    "count_view": 0
  },
  {
    "link_thumb": "https://live.staticflickr.com/65535/51555623909_2b5574f5d1_n.jpg",
    "id_album": "-89234980",
    "description": "ANIME_PIC_ba8c43f49d18f88bc7b87b9ae253a571,[GirlsCuteCool],[isBoyAnime],[isGirlAnime],[isCuteAnime]",
    "title": "ANIME_PIC_ba8c43f49d18f88bc7b87b9ae253a571",
    "link_img": "https://live.staticflickr.com/65535/51555623909_00db153242_o.jpg",
    "id_image": "ANIME_PIC_ba8c43f49d18f88bc7b87b9ae253a571",
    "count_view": 0
  },
  {
    "link_thumb": "https://live.staticflickr.com/65535/51554105947_0df8e38a22_n.jpg",
    "id_album": "-89234980",
    "description": "ANIME_PIC_ba8d5f8f572943fb842835e83f9144ec,[GirlsCuteCool],[isGirlAnime],[isCuteAnime],[isGirlsLoliAnime],[isSadAnimeGirl],[isSadAnime]",
    "title": "ANIME_PIC_ba8d5f8f572943fb842835e83f9144ec",
    "link_img": "https://live.staticflickr.com/65535/51554105947_1dac577235_o.png",
    "id_image": "ANIME_PIC_ba8d5f8f572943fb842835e83f9144ec",
    "count_view": 0
  },
  {
    "link_thumb": "https://live.staticflickr.com/65535/51554901271_90d361a065_n.jpg",
    "id_album": "-89234980",
    "description": "ANIME_PIC_ba902826a4e99ff479404e4402bf93c5,[GirlsCuteCool],[isGirlAnime],[isCuteAnime],[isGirlsHatsHoodieAnime],[isSadAnimeGirl],[isSadAnime]",
    "title": "ANIME_PIC_ba902826a4e99ff479404e4402bf93c5",
    "link_img": "https://live.staticflickr.com/65535/51554901271_93d3dd7263_o.jpg",
    "id_image": "ANIME_PIC_ba902826a4e99ff479404e4402bf93c5",
    "count_view": 0
  },
  {
    "link_thumb": "https://live.staticflickr.com/65535/51555625004_c5535d0fd6_n.jpg",
    "id_album": "-89234980",
    "description": "ANIME_PIC_ba9050f95bb0f1a3b3aa702d666259bc,[GirlsCuteCool],[isGirlAnime],[isCuteAnime],[isGirlsLoliAnime],[isSadAnimeGirl],[isSadAnime]",
    "title": "ANIME_PIC_ba9050f95bb0f1a3b3aa702d666259bc",
    "link_img": "https://live.staticflickr.com/65535/51555625004_a7eaea4764_o.jpg",
    "id_image": "ANIME_PIC_ba9050f95bb0f1a3b3aa702d666259bc",
    "count_view": 0
  },
  {
    "link_thumb": "https://live.staticflickr.com/65535/51554107092_2f61b04e8e_n.jpg",
    "id_album": "-89234980",
    "description": "ANIME_PIC_ba9200fbab97987e58f97d6ad4fcd12f,[GirlsCuteCool],[isBoyAnime],[isGirlAnime],[isCuteAnime]",
    "title": "ANIME_PIC_ba9200fbab97987e58f97d6ad4fcd12f",
    "link_img": "https://live.staticflickr.com/65535/51554107092_52e1bf73a4_o.jpg",
    "id_image": "ANIME_PIC_ba9200fbab97987e58f97d6ad4fcd12f",
    "count_view": 0
  },
  {
    "link_thumb": "https://live.staticflickr.com/65535/51555821965_baaedc3674_n.jpg",
    "id_album": "-89234980",
    "description": "ANIME_PIC_ba942cd2961715991a97df35ce342310,[GirlsCuteCool],[isGirlAnime],[isCuteAnime],[isSadAnimeGirl],[isSadAnime]",
    "title": "ANIME_PIC_ba942cd2961715991a97df35ce342310",
    "link_img": "https://live.staticflickr.com/65535/51555821965_8b54dbc839_o.jpg",
    "id_image": "ANIME_PIC_ba942cd2961715991a97df35ce342310",
    "count_view": 0
  },
  {
    "link_thumb": "https://live.staticflickr.com/65535/51554107647_91ec062f87_n.jpg",
    "id_album": "-89234980",
    "description": "ANIME_PIC_ba99a3119f570f9e432c426820e45347,[GirlsCuteCool],[isGirlAnime],[isCuteAnime],[isGirlsLoliAnime],[isSadAnimeGirl],[isSadAnime]",
    "title": "ANIME_PIC_ba99a3119f570f9e432c426820e45347",
    "link_img": "https://live.staticflickr.com/65535/51554107647_0bbbc408c7_o.jpg",
    "id_image": "ANIME_PIC_ba99a3119f570f9e432c426820e45347",
    "count_view": 0
  },
  {
    "link_thumb": "https://live.staticflickr.com/65535/51554902766_dcbf6239dc_n.jpg",
    "id_album": "-89234980",
    "description": "ANIME_PIC_ba9eaf7101807ff0eaf49be48e144199,[GirlsCuteCool],[isGirlAnime],[isCuteAnime],[isGirlsHatsHoodieAnime],[isGirlsHornsAnime],[isGirlsLoliAnime]",
    "title": "ANIME_PIC_ba9eaf7101807ff0eaf49be48e144199",
    "link_img": "https://live.staticflickr.com/65535/51554902766_27bb2d93b4_o.jpg",
    "id_image": "ANIME_PIC_ba9eaf7101807ff0eaf49be48e144199",
    "count_view": 0
  },
  {
    "link_thumb": "https://live.staticflickr.com/65535/51554903016_977241ffa1_n.jpg",
    "id_album": "-89234980",
    "description": "ANIME_PIC_ba9f2e1ab0840bb37528e6ffc9c10673,[GirlsCuteCool],[isGirlAnime],[isCuteAnime]",
    "title": "ANIME_PIC_ba9f2e1ab0840bb37528e6ffc9c10673",
    "link_img": "https://live.staticflickr.com/65535/51554903016_1ca42aa549_o.png",
    "id_image": "ANIME_PIC_ba9f2e1ab0840bb37528e6ffc9c10673",
    "count_view": 0
  },
  {
    "link_thumb": "https://live.staticflickr.com/65535/51555138993_a6b2ec0743_n.jpg",
    "id_album": "-89234980",
    "description": "ANIME_PIC_baa00809fe40cab252fab75e29e4b3bc,[GirlsCuteCool],[isGirlAnime],[isCuteAnime],[isGirlsLoliAnime]",
    "title": "ANIME_PIC_baa00809fe40cab252fab75e29e4b3bc",
    "link_img": "https://live.staticflickr.com/65535/51555138993_da22006394_o.jpg",
    "id_image": "ANIME_PIC_baa00809fe40cab252fab75e29e4b3bc",
    "count_view": 0
  },
  {
    "link_thumb": "https://live.staticflickr.com/65535/51555139263_121cca0b8d_n.jpg",
    "id_album": "-89234980",
    "description": "ANIME_PIC_baa52d9f56594c115c5d7aea94730e80,[GirlsCuteCool],[isGirlAnime],[isCuteAnime]",
    "title": "ANIME_PIC_baa52d9f56594c115c5d7aea94730e80",
    "link_img": "https://live.staticflickr.com/65535/51555139263_ec579b722f_o.jpg",
    "id_image": "ANIME_PIC_baa52d9f56594c115c5d7aea94730e80",
    "count_view": 0
  },
  {
    "link_thumb": "https://live.staticflickr.com/65535/51555139538_f78e9fbf87_n.jpg",
    "id_album": "-89234980",
    "description": "ANIME_PIC_baa8a2cb53b004102ce7e217767276a5,[GirlsCuteCool],[isGirlAnime],[isCuteAnime],[isGirlsLoliAnime],[isSadAnimeGirl],[isSadAnime]",
    "title": "ANIME_PIC_baa8a2cb53b004102ce7e217767276a5",
    "link_img": "https://live.staticflickr.com/65535/51555139538_750df43bf7_o.png",
    "id_image": "ANIME_PIC_baa8a2cb53b004102ce7e217767276a5",
    "count_view": 0
  },
  {
    "link_thumb": "https://live.staticflickr.com/65535/51554109512_069bc03d8f_n.jpg",
    "id_album": "-89234980",
    "description": "ANIME_PIC_baa8cfff6e70879493c132e8c49c963d,[GirlsCuteCool],[isGirlAnime],[isCuteAnime]",
    "title": "ANIME_PIC_baa8cfff6e70879493c132e8c49c963d",
    "link_img": "https://live.staticflickr.com/65535/51554109512_0363335610_o.jpg",
    "id_image": "ANIME_PIC_baa8cfff6e70879493c132e8c49c963d",
    "count_view": 0
  },
  {
    "link_thumb": "https://live.staticflickr.com/65535/51555140383_ccfb82fd69_n.jpg",
    "id_album": "-89234980",
    "description": "ANIME_PIC_baa9de2b46bfea7977396b40e131bc06,[GirlsCuteCool],[isGirlAnime],[isCuteAnime],[isGirlsLoliAnime]",
    "title": "ANIME_PIC_baa9de2b46bfea7977396b40e131bc06",
    "link_img": "https://live.staticflickr.com/65535/51555140383_604e627b05_o.jpg",
    "id_image": "ANIME_PIC_baa9de2b46bfea7977396b40e131bc06",
    "count_view": 0
  },
  {
    "link_thumb": "https://live.staticflickr.com/65535/51555824650_24012735de_n.jpg",
    "id_album": "-89234980",
    "description": "ANIME_PIC_baad405d8d7e681d59d155f127401815,[GirlsCuteCool],[isGirlAnime],[isCuteAnime],[isSadAnimeGirl],[isSadAnime]",
    "title": "ANIME_PIC_baad405d8d7e681d59d155f127401815",
    "link_img": "https://live.staticflickr.com/65535/51555824650_b0be658994_o.jpg",
    "id_image": "ANIME_PIC_baad405d8d7e681d59d155f127401815",
    "count_view": 0
  },
  {
    "link_thumb": "https://live.staticflickr.com/65535/51555628639_0b68482caf_n.jpg",
    "id_album": "-89234980",
    "description": "ANIME_PIC_baae20bcd500bc5fe168684ffee6f6e8,[GirlsCuteCool],[isGirlAnime],[isCuteAnime],[isGirlsLoliAnime]",
    "title": "ANIME_PIC_baae20bcd500bc5fe168684ffee6f6e8",
    "link_img": "https://live.staticflickr.com/65535/51555628639_a4c03be7e8_o.jpg",
    "id_image": "ANIME_PIC_baae20bcd500bc5fe168684ffee6f6e8",
    "count_view": 0
  },
  {
    "link_thumb": "https://live.staticflickr.com/65535/51555825130_c1a790d967_n.jpg",
    "id_album": "-89234980",
    "description": "ANIME_PIC_baafda71afb1d59c5a89e3504d0090a6,[GirlsCuteCool],[isGirlAnime],[isCuteAnime],[isGirlsLoliAnime]",
    "title": "ANIME_PIC_baafda71afb1d59c5a89e3504d0090a6",
    "link_img": "https://live.staticflickr.com/65535/51555825130_1f082879f4_o.jpg",
    "id_image": "ANIME_PIC_baafda71afb1d59c5a89e3504d0090a6",
    "count_view": 0
  },
  {
    "link_thumb": "https://live.staticflickr.com/65535/51554111187_6eb2f3accc_n.jpg",
    "id_album": "-89234980",
    "description": "ANIME_PIC_baaff14489ba4babd9c5fc7b117c6eac,[GirlsCuteCool],[isGirlAnime],[isCuteAnime],[isGirlsLoliAnime],[isGirlsSharpCanineToothAnime]",
    "title": "ANIME_PIC_baaff14489ba4babd9c5fc7b117c6eac",
    "link_img": "https://live.staticflickr.com/65535/51554111187_9c7a088a50_o.jpg",
    "id_image": "ANIME_PIC_baaff14489ba4babd9c5fc7b117c6eac",
    "count_view": 0
  },
  {
    "link_thumb": "https://live.staticflickr.com/65535/51555141688_345a9e37f4_n.jpg",
    "id_album": "-89234980",
    "description": "ANIME_PIC_bab2b72ada866f5d0bdd72b8de9a1e8c,[GirlsCuteCool],[isGirlAnime],[isCuteAnime]",
    "title": "ANIME_PIC_bab2b72ada866f5d0bdd72b8de9a1e8c",
    "link_img": "https://live.staticflickr.com/65535/51555141688_fec03f25d4_o.jpg",
    "id_image": "ANIME_PIC_bab2b72ada866f5d0bdd72b8de9a1e8c",
    "count_view": 0
  },
  {
    "link_thumb": "https://live.staticflickr.com/65535/49995609316_b5cfea4261_n.jpg",
    "id_album": "-89234980",
    "description": "ANIME_PIC_bab4287f3f890fddb906fdb02fa39f9a,[isGirlAnime],[isCuteAnime],[Girls Cute Cool],[GirlsCuteCool],[isKimonoAnime],[isGirlsLoliAnime],[isGirlsSharpCanineToothAnime]",
    "title": "ANIME_PIC_bab4287f3f890fddb906fdb02fa39f9a",
    "link_img": "https://live.staticflickr.com/65535/49995609316_ba6d49f162_o.png",
    "id_image": "ANIME_PIC_bab4287f3f890fddb906fdb02fa39f9a",
    "count_view": 0
  },
  {
    "link_thumb": "https://live.staticflickr.com/65535/51555629809_9744025635_n.jpg",
    "id_album": "-89234980",
    "description": "ANIME_PIC_bab6366274e3c48e6c8fbbea42f94d50,[GirlsCuteCool],[isGirlAnime],[isCuteAnime],[isGirlsHatsHoodieAnime],[isGirlsHornsAnime],[isGirlsLoliAnime],[isSadAnimeGirl],[isSadAnime]",
    "title": "ANIME_PIC_bab6366274e3c48e6c8fbbea42f94d50",
    "link_img": "https://live.staticflickr.com/65535/51555629809_0780fa3272_o.png",
    "id_image": "ANIME_PIC_bab6366274e3c48e6c8fbbea42f94d50",
    "count_view": 0
  },
  {
    "link_thumb": "https://live.staticflickr.com/65535/51555142368_e327256754_n.jpg",
    "id_album": "-89234980",
    "description": "ANIME_PIC_bab6c52065ae125e51a74e7a73eafddc,[GirlsCuteCool],[isGirlAnime],[isCuteAnime],[isGirlEarsNekoAnime],[isGirlsLoliAnime]",
    "title": "ANIME_PIC_bab6c52065ae125e51a74e7a73eafddc",
    "link_img": "https://live.staticflickr.com/65535/51555142368_1ec6dfbe34_o.png",
    "id_image": "ANIME_PIC_bab6c52065ae125e51a74e7a73eafddc",
    "count_view": 0
  },
  {
    "link_thumb": "https://live.staticflickr.com/65535/51555630594_4f967bffb3_n.jpg",
    "id_album": "-89234980",
    "description": "ANIME_PIC_bab760ae6b0ff22e9333c096a8fd6cfc,[GirlsCuteCool],[isGirlAnime],[isCuteAnime],[isGirlsLoliAnime]",
    "title": "ANIME_PIC_bab760ae6b0ff22e9333c096a8fd6cfc",
    "link_img": "https://live.staticflickr.com/65535/51555630594_40d49ee0ff_o.png",
    "id_image": "ANIME_PIC_bab760ae6b0ff22e9333c096a8fd6cfc",
    "count_view": 0
  },
  {
    "link_thumb": "https://live.staticflickr.com/65535/51555630999_6f79c37406_n.jpg",
    "id_album": "-89234980",
    "description": "ANIME_PIC_bab8fd9d858dd6cdb711a3d2632f7ae0,[GirlsCuteCool],[isGirlAnime],[isCuteAnime]",
    "title": "ANIME_PIC_bab8fd9d858dd6cdb711a3d2632f7ae0",
    "link_img": "https://live.staticflickr.com/65535/51555630999_7ed8d511b2_o.jpg",
    "id_image": "ANIME_PIC_bab8fd9d858dd6cdb711a3d2632f7ae0",
    "count_view": 0
  },
  {
    "link_thumb": "https://live.staticflickr.com/65535/51555827785_186e88e5cb_n.jpg",
    "id_album": "-89234980",
    "description": "ANIME_PIC_bac4bed5be411a459db1e55331b032b3,[GirlsCuteCool],[isGirlAnime],[isCuteAnime]",
    "title": "ANIME_PIC_bac4bed5be411a459db1e55331b032b3",
    "link_img": "https://live.staticflickr.com/65535/51555827785_744466a75c_o.jpg",
    "id_image": "ANIME_PIC_bac4bed5be411a459db1e55331b032b3",
    "count_view": 0
  },
  {
    "link_thumb": "https://live.staticflickr.com/65535/51554908356_abc4dee234_n.jpg",
    "id_album": "-89234980",
    "description": "ANIME_PIC_bac96a13f5f16952283dbaaa1abd178d,[GirlsCuteCool],[isGirlAnime],[isCuteAnime],[isGirlsLoliAnime],[isSadAnimeGirl],[isSadAnime]",
    "title": "ANIME_PIC_bac96a13f5f16952283dbaaa1abd178d",
    "link_img": "https://live.staticflickr.com/65535/51554908356_2980df24ee_o.png",
    "id_image": "ANIME_PIC_bac96a13f5f16952283dbaaa1abd178d",
    "count_view": 0
  },
  {
    "link_thumb": "https://live.staticflickr.com/65535/51555631844_08db83d449_n.jpg",
    "id_album": "-89234980",
    "description": "ANIME_PIC_bad16dc6944b1e6dc8b2428eab6b4588,[GirlsCuteCool],[isGirlAnime],[isCuteAnime],[isGirlEarsNekoAnime],[isGirlsLoliAnime]",
    "title": "ANIME_PIC_bad16dc6944b1e6dc8b2428eab6b4588",
    "link_img": "https://live.staticflickr.com/65535/51555631844_d6197ac8db_o.png",
    "id_image": "ANIME_PIC_bad16dc6944b1e6dc8b2428eab6b4588",
    "count_view": 0
  },
  {
    "link_thumb": "https://live.staticflickr.com/65535/51554909136_318bd92242_n.jpg",
    "id_album": "-89234980",
    "description": "ANIME_PIC_bad42c2cfd1b276b7da8cda04baf6592,[GirlsCuteCool],[isGirlAnime],[isCuteAnime],[isGirlEarsNekoAnime],[isGirlsHatsHoodieAnime],[isGirlsLoliAnime]",
    "title": "ANIME_PIC_bad42c2cfd1b276b7da8cda04baf6592",
    "link_img": "https://live.staticflickr.com/65535/51554909136_67c241e128_o.jpg",
    "id_image": "ANIME_PIC_bad42c2cfd1b276b7da8cda04baf6592",
    "count_view": 0
  },
  {
    "link_thumb": "https://live.staticflickr.com/65535/51555144778_25fa1b7b66_n.jpg",
    "id_album": "-89234980",
    "description": "ANIME_PIC_bad46f36d5fe2abbfeffec13b924f792,[GirlsCuteCool],[isGirlAnime],[isCuteAnime],[isGirlsLoliAnime]",
    "title": "ANIME_PIC_bad46f36d5fe2abbfeffec13b924f792",
    "link_img": "https://live.staticflickr.com/65535/51555144778_98a46339db_o.png",
    "id_image": "ANIME_PIC_bad46f36d5fe2abbfeffec13b924f792",
    "count_view": 0
  },
  {
    "link_thumb": "https://live.staticflickr.com/65535/51554115032_1e309a74a6_n.jpg",
    "id_album": "-89234980",
    "description": "ANIME_PIC_bad4c49a2159848c4d927f10e2c1a163,[GirlsCuteCool],[isGirlAnime],[isCuteAnime]",
    "title": "ANIME_PIC_bad4c49a2159848c4d927f10e2c1a163",
    "link_img": "https://live.staticflickr.com/65535/51554115032_499cafd13e_o.jpg",
    "id_image": "ANIME_PIC_bad4c49a2159848c4d927f10e2c1a163",
    "count_view": 0
  },
  {
    "link_thumb": "https://live.staticflickr.com/65535/51555829745_95a8c23242_n.jpg",
    "id_album": "-89234980",
    "description": "ANIME_PIC_bad4eb8ac71d97ce2d1ed4fb6130d872,[GirlsCuteCool],[isGirlAnime],[isCuteAnime],[isBlackAnime],[isSadAnimeGirl],[isSadAnime]",
    "title": "ANIME_PIC_bad4eb8ac71d97ce2d1ed4fb6130d872",
    "link_img": "https://live.staticflickr.com/65535/51555829745_26d87d7b29_o.jpg",
    "id_image": "ANIME_PIC_bad4eb8ac71d97ce2d1ed4fb6130d872",
    "count_view": 0
  },
  {
    "link_thumb": "https://live.staticflickr.com/65535/51555145783_18fa5fe543_n.jpg",
    "id_album": "-89234980",
    "description": "ANIME_PIC_bad65e7d11fba18ebecd072c5a89ff58,[GirlsCuteCool],[isGirlAnime],[isCuteAnime],[isGirlEarsNekoAnime],[isGirlFaceMasksAnime]",
    "title": "ANIME_PIC_bad65e7d11fba18ebecd072c5a89ff58",
    "link_img": "https://live.staticflickr.com/65535/51555145783_09de581ef5_o.jpg",
    "id_image": "ANIME_PIC_bad65e7d11fba18ebecd072c5a89ff58",
    "count_view": 0
  },
  {
    "link_thumb": "https://live.staticflickr.com/65535/51555633889_21146f9bbd_n.jpg",
    "id_album": "-89234980",
    "description": "ANIME_PIC_bad8f67cb0caadf6220e62c9c8426279,[GirlsCuteCool],[isGirlAnime],[isCuteAnime],[isGirlFaceMasksAnime],[isGirlsLoliAnime]",
    "title": "ANIME_PIC_bad8f67cb0caadf6220e62c9c8426279",
    "link_img": "https://live.staticflickr.com/65535/51555633889_0ab3e6fa62_o.jpg",
    "id_image": "ANIME_PIC_bad8f67cb0caadf6220e62c9c8426279",
    "count_view": 0
  },
  {
    "link_thumb": "https://live.staticflickr.com/65535/50151441803_2a1c764bc7_n.jpg",
    "id_album": "-89234980",
    "description": "ANIME_PIC_bada3b2faeba0a8a8ffc6add408d5c5a,[isGirlAnime],[isCuteAnime],[Girls Cute Cool],[GirlsCuteCool]",
    "title": "ANIME_PIC_bada3b2faeba0a8a8ffc6add408d5c5a",
    "link_img": "https://live.staticflickr.com/65535/50151441803_7c7a8f4233_o.png",
    "id_image": "ANIME_PIC_bada3b2faeba0a8a8ffc6add408d5c5a",
    "count_view": 0
  },
  {
    "link_thumb": "https://live.staticflickr.com/65535/51555634174_c0ef255ee4_n.jpg",
    "id_album": "-89234980",
    "description": "ANIME_PIC_bade25dd6cfa223ae36bdc291c7b020c,[GirlsCuteCool],[isGirlAnime],[isCuteAnime],[isSadAnimeGirl],[isSadAnime]",
    "title": "ANIME_PIC_bade25dd6cfa223ae36bdc291c7b020c",
    "link_img": "https://live.staticflickr.com/65535/51555634174_c57deb3ac5_o.jpg",
    "id_image": "ANIME_PIC_bade25dd6cfa223ae36bdc291c7b020c",
    "count_view": 0
  },
  {
    "link_thumb": "https://live.staticflickr.com/65535/51555146953_6ca344260a_n.jpg",
    "id_album": "-89234980",
    "description": "ANIME_PIC_bae030038770b916fdf24d60c5d93bdd,[GirlsCuteCool],[isGirlAnime],[isCuteAnime],[isGirlEarsNekoAnime],[isGirlsLoliAnime]",
    "title": "ANIME_PIC_bae030038770b916fdf24d60c5d93bdd",
    "link_img": "https://live.staticflickr.com/65535/51555146953_856325af16_o.jpg",
    "id_image": "ANIME_PIC_bae030038770b916fdf24d60c5d93bdd",
    "count_view": 0
  },
  {
    "link_thumb": "https://live.staticflickr.com/65535/51554911726_c74b33cc84_n.jpg",
    "id_album": "-89234980",
    "description": "ANIME_PIC_bae1396bb33e704156271fa922bcb514,[GirlsCuteCool],[isGirlAnime],[isCuteAnime],[isGirlsLoliAnime]",
    "title": "ANIME_PIC_bae1396bb33e704156271fa922bcb514",
    "link_img": "https://live.staticflickr.com/65535/51554911726_f880dd9d96_o.jpg",
    "id_image": "ANIME_PIC_bae1396bb33e704156271fa922bcb514",
    "count_view": 0
  },
  {
    "link_thumb": "https://live.staticflickr.com/65535/51554912031_f12541b3c5_n.jpg",
    "id_album": "-89234980",
    "description": "ANIME_PIC_bae41ca11f3974cfa6d0b63998229646,[GirlsCuteCool],[isGirlAnime],[isCuteAnime],[isGirlEarsNekoAnime],[isGirlsHatsHoodieAnime],[isGirlsLoliAnime],[isGirlsSharpCanineToothAnime]",
    "title": "ANIME_PIC_bae41ca11f3974cfa6d0b63998229646",
    "link_img": "https://live.staticflickr.com/65535/51554912031_dec51e899d_o.jpg",
    "id_image": "ANIME_PIC_bae41ca11f3974cfa6d0b63998229646",
    "count_view": 0
  },
  {
    "link_thumb": "https://live.staticflickr.com/65535/51555635599_f7c70564f8_n.jpg",
    "id_album": "-89234980",
    "description": "ANIME_PIC_bae6edb78fb12501f4954c5a7c4b187d,[GirlsCuteCool],[isGirlAnime],[isCuteAnime],[isSadAnimeGirl],[isSadAnime]",
    "title": "ANIME_PIC_bae6edb78fb12501f4954c5a7c4b187d",
    "link_img": "https://live.staticflickr.com/65535/51555635599_2fdd089d1e_o.jpg",
    "id_image": "ANIME_PIC_bae6edb78fb12501f4954c5a7c4b187d",
    "count_view": 0
  },
  {
    "link_thumb": "https://live.staticflickr.com/65535/51555148143_ba58cd80af_n.jpg",
    "id_album": "-89234980",
    "description": "ANIME_PIC_bae7801419527c54ede3a36f072b5921,[GirlsCuteCool],[isGirlAnime],[isCuteAnime]",
    "title": "ANIME_PIC_bae7801419527c54ede3a36f072b5921",
    "link_img": "https://live.staticflickr.com/65535/51555148143_affb44dc38_o.jpg",
    "id_image": "ANIME_PIC_bae7801419527c54ede3a36f072b5921",
    "count_view": 0
  },
  {
    "link_thumb": "https://live.staticflickr.com/65535/51555832760_a061b16e32_n.jpg",
    "id_album": "-89234980",
    "description": "ANIME_PIC_baeacae308931446419fcf6de4b46899,[GirlsCuteCool],[isGirlAnime],[isCuteAnime]",
    "title": "ANIME_PIC_baeacae308931446419fcf6de4b46899",
    "link_img": "https://live.staticflickr.com/65535/51555832760_865c441194_o.jpg",
    "id_image": "ANIME_PIC_baeacae308931446419fcf6de4b46899",
    "count_view": 0
  },
  {
    "link_thumb": "https://live.staticflickr.com/65535/51554118492_7d67ce4c64_n.jpg",
    "id_album": "-89234980",
    "description": "ANIME_PIC_baec3188666b484a8f90f59a9639334a,[GirlsCuteCool],[isGirlAnime],[isCuteAnime],[isGirlEarsNekoAnime],[isGirlsLoliAnime],[isGirlsSharpCanineToothAnime]",
    "title": "ANIME_PIC_baec3188666b484a8f90f59a9639334a",
    "link_img": "https://live.staticflickr.com/65535/51554118492_7bbaa836eb_o.png",
    "id_image": "ANIME_PIC_baec3188666b484a8f90f59a9639334a",
    "count_view": 0
  },
  {
    "link_thumb": "https://live.staticflickr.com/65535/51554914841_d2c42a1779_n.jpg",
    "id_album": "-89234980",
    "description": "ANIME_PIC_baec4d412d95d310212e408158d6a998,[GirlsCuteCool],[isGirlAnime],[isCuteAnime]",
    "title": "ANIME_PIC_baec4d412d95d310212e408158d6a998",
    "link_img": "https://live.staticflickr.com/65535/51554914841_f48ef46038_o.jpg",
    "id_image": "ANIME_PIC_baec4d412d95d310212e408158d6a998",
    "count_view": 0
  },
  {
    "link_thumb": "https://live.staticflickr.com/65535/51555834925_48107ae4f6_n.jpg",
    "id_album": "-89234980",
    "description": "ANIME_PIC_baedd4bec887ee98a1922b25184fe605,[GirlsCuteCool],[isGirlAnime],[isCuteAnime],[isGirlsLoliAnime]",
    "title": "ANIME_PIC_baedd4bec887ee98a1922b25184fe605",
    "link_img": "https://live.staticflickr.com/65535/51555834925_ed7c8ce64d_o.png",
    "id_image": "ANIME_PIC_baedd4bec887ee98a1922b25184fe605",
    "count_view": 0
  },
  {
    "link_thumb": "https://live.staticflickr.com/65535/51555151448_285d0227ed_n.jpg",
    "id_album": "-89234980",
    "description": "ANIME_PIC_baf237ca0334f6751b59cc935ec2658c,[GirlsCuteCool],[isGirlAnime],[isCuteAnime],[isGirlsLoliAnime]",
    "title": "ANIME_PIC_baf237ca0334f6751b59cc935ec2658c",
    "link_img": "https://live.staticflickr.com/65535/51555151448_bd4b11230a_o.jpg",
    "id_image": "ANIME_PIC_baf237ca0334f6751b59cc935ec2658c",
    "count_view": 0
  },
  {
    "link_thumb": "https://live.staticflickr.com/65535/51554916046_5666f86d71_n.jpg",
    "id_album": "-89234980",
    "description": "ANIME_PIC_baf5bf6c19a9ed76dce7c831ba836547,[GirlsCuteCool],[isGirlAnime],[isCuteAnime]",
    "title": "ANIME_PIC_baf5bf6c19a9ed76dce7c831ba836547",
    "link_img": "https://live.staticflickr.com/65535/51554916046_43b67730bf_o.jpg",
    "id_image": "ANIME_PIC_baf5bf6c19a9ed76dce7c831ba836547",
    "count_view": 0
  },
  {
    "link_thumb": "https://live.staticflickr.com/65535/51555836265_a984f84d7f_n.jpg",
    "id_album": "-89234980",
    "description": "ANIME_PIC_baf7277891d00152bd3f582713e5441b,[GirlsCuteCool],[isGirlAnime],[isCuteAnime]",
    "title": "ANIME_PIC_baf7277891d00152bd3f582713e5441b",
    "link_img": "https://live.staticflickr.com/65535/51555836265_ebb36ba1d2_o.jpg",
    "id_image": "ANIME_PIC_baf7277891d00152bd3f582713e5441b",
    "count_view": 0
  },
  {
    "link_thumb": "https://live.staticflickr.com/65535/51554122042_0065ef6ffc_n.jpg",
    "id_album": "-89234980",
    "description": "ANIME_PIC_bafcd93365c18228de5d4fc01b4788ae,[GirlsCuteCool],[isGirlAnime],[isCuteAnime]",
    "title": "ANIME_PIC_bafcd93365c18228de5d4fc01b4788ae",
    "link_img": "https://live.staticflickr.com/65535/51554122042_07fa568bae_o.png",
    "id_image": "ANIME_PIC_bafcd93365c18228de5d4fc01b4788ae",
    "count_view": 0
  },
  {
    "link_thumb": "https://live.staticflickr.com/65535/51554122582_6e587d0c06_n.jpg",
    "id_album": "-89234980",
    "description": "ANIME_PIC_bafda21a01687be035b3419cf6e1aca1,[GirlsCuteCool],[isGirlAnime],[isCuteAnime]",
    "title": "ANIME_PIC_bafda21a01687be035b3419cf6e1aca1",
    "link_img": "https://live.staticflickr.com/65535/51554122582_d8c4eddf75_o.jpg",
    "id_image": "ANIME_PIC_bafda21a01687be035b3419cf6e1aca1",
    "count_view": 0
  },
  {
    "link_thumb": "https://live.staticflickr.com/65535/51555837385_377851af82_n.jpg",
    "id_album": "-89234980",
    "description": "ANIME_PIC_bafe265a166fa549e744c9496ea3b6db,[GirlsCuteCool],[isGirlAnime],[isCuteAnime]",
    "title": "ANIME_PIC_bafe265a166fa549e744c9496ea3b6db",
    "link_img": "https://live.staticflickr.com/65535/51555837385_01b87035c3_o.jpg",
    "id_image": "ANIME_PIC_bafe265a166fa549e744c9496ea3b6db",
    "count_view": 0
  },
  {
    "link_thumb": "https://live.staticflickr.com/65535/51555837675_b8d90bb03d_n.jpg",
    "id_album": "-89234980",
    "description": "ANIME_PIC_bb05ab7180516e16de3964d6677adb9b,[GirlsCuteCool],[isGirlAnime],[isCuteAnime],[isGirlsLoliAnime]",
    "title": "ANIME_PIC_bb05ab7180516e16de3964d6677adb9b",
    "link_img": "https://live.staticflickr.com/65535/51555837675_ed657459c1_o.jpg",
    "id_image": "ANIME_PIC_bb05ab7180516e16de3964d6677adb9b",
    "count_view": 0
  },
  {
    "link_thumb": "https://live.staticflickr.com/65535/51554918281_2fdd43b710_n.jpg",
    "id_album": "-89234980",
    "description": "ANIME_PIC_bb063996fc4c341a6a6ecbb2347658ed,[GirlsCuteCool],[isGirlAnime],[isCuteAnime]",
    "title": "ANIME_PIC_bb063996fc4c341a6a6ecbb2347658ed",
    "link_img": "https://live.staticflickr.com/65535/51554918281_684b421f1e_o.jpg",
    "id_image": "ANIME_PIC_bb063996fc4c341a6a6ecbb2347658ed",
    "count_view": 0
  },
  {
    "link_thumb": "https://live.staticflickr.com/65535/51554918591_106fe996b2_n.jpg",
    "id_album": "-89234980",
    "description": "ANIME_PIC_bb079704530d9dc4331b3ebb070ff201,[GirlsCuteCool],[isGirlAnime],[isCuteAnime],[isGirlsLoliAnime]",
    "title": "ANIME_PIC_bb079704530d9dc4331b3ebb070ff201",
    "link_img": "https://live.staticflickr.com/65535/51554918591_87d6bc93b9_o.jpg",
    "id_image": "ANIME_PIC_bb079704530d9dc4331b3ebb070ff201",
    "count_view": 0
  },
  {
    "link_thumb": "https://live.staticflickr.com/65535/51555154408_e038055df6_n.jpg",
    "id_album": "-89234980",
    "description": "ANIME_PIC_bb0e763f344cc8728cd0c3a8d6bd2706,[GirlsCuteCool],[isGirlAnime],[isCuteAnime],[isGirlsHatsHoodieAnime],[isGirlsLoliAnime],[isSadAnimeGirl],[isSadAnime]",
    "title": "ANIME_PIC_bb0e763f344cc8728cd0c3a8d6bd2706",
    "link_img": "https://live.staticflickr.com/65535/51555154408_c77145427c_o.jpg",
    "id_image": "ANIME_PIC_bb0e763f344cc8728cd0c3a8d6bd2706",
    "count_view": 0
  },
  {
    "link_thumb": "https://live.staticflickr.com/65535/51554919221_23532fe350_n.jpg",
    "id_album": "-89234980",
    "description": "ANIME_PIC_bb1afb7eede70cbc5c041fec4e122e2d,[GirlsCuteCool],[isGirlAnime],[isCuteAnime]",
    "title": "ANIME_PIC_bb1afb7eede70cbc5c041fec4e122e2d",
    "link_img": "https://live.staticflickr.com/65535/51554919221_4211fe994b_o.jpg",
    "id_image": "ANIME_PIC_bb1afb7eede70cbc5c041fec4e122e2d",
    "count_view": 0
  },
  {
    "link_thumb": "https://live.staticflickr.com/65535/51554124802_bb4d15e2fb_n.jpg",
    "id_album": "-89234980",
    "description": "ANIME_PIC_bb1afc4abdc1a115e7a74c15e4642300,[GirlsCuteCool],[isGirlAnime],[isCuteAnime],[isGirlsLoliAnime]",
    "title": "ANIME_PIC_bb1afc4abdc1a115e7a74c15e4642300",
    "link_img": "https://live.staticflickr.com/65535/51554124802_6c17aa2af0_o.jpg",
    "id_image": "ANIME_PIC_bb1afc4abdc1a115e7a74c15e4642300",
    "count_view": 0
  },
  {
    "link_thumb": "https://live.staticflickr.com/65535/51555839815_ec48739ca9_n.jpg",
    "id_album": "-89234980",
    "description": "ANIME_PIC_bb1dd3cc0b5e4c0bebc520019ed4dd04,[GirlsCuteCool],[isGirlAnime],[isCuteAnime],[isGirlsHatsHoodieAnime],[isGirlsLoliAnime],[isGirlsSharpCanineToothAnime]",
    "title": "ANIME_PIC_bb1dd3cc0b5e4c0bebc520019ed4dd04",
    "link_img": "https://live.staticflickr.com/65535/51555839815_935aa8c520_o.jpg",
    "id_image": "ANIME_PIC_bb1dd3cc0b5e4c0bebc520019ed4dd04",
    "count_view": 0
  },
  {
    "link_thumb": "https://live.staticflickr.com/65535/51555643444_d557a99205_n.jpg",
    "id_album": "-89234980",
    "description": "ANIME_PIC_bb24a14dc39ae0f1202a1c42a69f2fde,[GirlsCuteCool],[isGirlAnime],[isCuteAnime],[isSadAnimeGirl],[isSadAnime]",
    "title": "ANIME_PIC_bb24a14dc39ae0f1202a1c42a69f2fde",
    "link_img": "https://live.staticflickr.com/65535/51555643444_ac7b4534d8_o.jpg",
    "id_image": "ANIME_PIC_bb24a14dc39ae0f1202a1c42a69f2fde",
    "count_view": 0
  },
  {
    "link_thumb": "https://live.staticflickr.com/65535/51555840535_2f9bd55607_n.jpg",
    "id_album": "-89234980",
    "description": "ANIME_PIC_bb285fa54121120ee5c9535c08e09850,[GirlsCuteCool],[isGirlAnime],[isCuteAnime],[isGirlsLoliAnime],[isSadAnimeGirl],[isSadAnime]",
    "title": "ANIME_PIC_bb285fa54121120ee5c9535c08e09850",
    "link_img": "https://live.staticflickr.com/65535/51555840535_793f74844c_o.jpg",
    "id_image": "ANIME_PIC_bb285fa54121120ee5c9535c08e09850",
    "count_view": 0
  },
  {
    "link_thumb": "https://live.staticflickr.com/65535/51554920946_d4712207c1_n.jpg",
    "id_album": "-89234980",
    "description": "ANIME_PIC_bb293745465496624f5848438c5ceee2,[GirlsCuteCool],[isGirlAnime],[isCuteAnime],[isGirlsLoliAnime]",
    "title": "ANIME_PIC_bb293745465496624f5848438c5ceee2",
    "link_img": "https://live.staticflickr.com/65535/51554920946_159a882a4f_o.jpg",
    "id_image": "ANIME_PIC_bb293745465496624f5848438c5ceee2",
    "count_view": 0
  },
  {
    "link_thumb": "https://live.staticflickr.com/65535/51555644384_cd49e8a312_n.jpg",
    "id_album": "-89234980",
    "description": "ANIME_PIC_bb29685fc1ca30084ff7f52bf36eb99a,[GirlsCuteCool],[isGirlAnime],[isCuteAnime],[isGirlsLoliAnime],[isSadAnimeGirl],[isSadAnime]",
    "title": "ANIME_PIC_bb29685fc1ca30084ff7f52bf36eb99a",
    "link_img": "https://live.staticflickr.com/65535/51555644384_c4cab7da06_o.jpg",
    "id_image": "ANIME_PIC_bb29685fc1ca30084ff7f52bf36eb99a",
    "count_view": 0
  },
  {
    "link_thumb": "https://live.staticflickr.com/65535/51555841370_9555e54bcb_n.jpg",
    "id_album": "-89234980",
    "description": "ANIME_PIC_bb299e639bcf9cad739c8588752c9c26,[GirlsCuteCool],[isGirlAnime],[isCuteAnime]",
    "title": "ANIME_PIC_bb299e639bcf9cad739c8588752c9c26",
    "link_img": "https://live.staticflickr.com/65535/51555841370_1f45bfe47e_o.jpg",
    "id_image": "ANIME_PIC_bb299e639bcf9cad739c8588752c9c26",
    "count_view": 0
  },
  {
    "link_thumb": "https://live.staticflickr.com/65535/51555157233_0dfcc9c80a_n.jpg",
    "id_album": "-89234980",
    "description": "ANIME_PIC_bb29c6cf1dbd5037ae5ba34dbe7cf4d5,[GirlsCuteCool],[isGirlAnime],[isCuteAnime],[isGirlsLoliAnime]",
    "title": "ANIME_PIC_bb29c6cf1dbd5037ae5ba34dbe7cf4d5",
    "link_img": "https://live.staticflickr.com/65535/51555157233_2e95cd0537_o.jpg",
    "id_image": "ANIME_PIC_bb29c6cf1dbd5037ae5ba34dbe7cf4d5",
    "count_view": 0
  },
  {
    "link_thumb": "https://live.staticflickr.com/65535/51555157533_88dfc5a6a5_n.jpg",
    "id_album": "-89234980",
    "description": "ANIME_PIC_bb2ac780dfad9ea3dec935da5cd6c486,[GirlsCuteCool],[isGirlAnime],[isCuteAnime],[isGirlsLoliAnime],[isSadAnimeGirl],[isSadAnime]",
    "title": "ANIME_PIC_bb2ac780dfad9ea3dec935da5cd6c486",
    "link_img": "https://live.staticflickr.com/65535/51555157533_a0c0bfaa49_o.jpg",
    "id_image": "ANIME_PIC_bb2ac780dfad9ea3dec935da5cd6c486",
    "count_view": 0
  },
  {
    "link_thumb": "https://live.staticflickr.com/65535/51555157773_e2024d8b07_n.jpg",
    "id_album": "-89234980",
    "description": "ANIME_PIC_bb2b4803008d54f040f03894ffe2e336,[GirlsCuteCool],[isGirlAnime],[isCuteAnime],[isGirlEarsNekoAnime],[isSadAnimeGirl],[isSadAnime]",
    "title": "ANIME_PIC_bb2b4803008d54f040f03894ffe2e336",
    "link_img": "https://live.staticflickr.com/65535/51555157773_8970c1f055_o.jpg",
    "id_image": "ANIME_PIC_bb2b4803008d54f040f03894ffe2e336",
    "count_view": 0
  },
  {
    "link_thumb": "https://live.staticflickr.com/65535/51555645649_2b1fca47d2_n.jpg",
    "id_album": "-89234980",
    "description": "ANIME_PIC_bb2bf475bd4d99ad6695b9b8964c21ab,[GirlsCuteCool],[isGirlAnime],[isCuteAnime],[isGirlFaceMasksAnime],[isGirlsLoliAnime]",
    "title": "ANIME_PIC_bb2bf475bd4d99ad6695b9b8964c21ab",
    "link_img": "https://live.staticflickr.com/65535/51555645649_b4dfdd9026_o.jpg",
    "id_image": "ANIME_PIC_bb2bf475bd4d99ad6695b9b8964c21ab",
    "count_view": 0
  },
  {
    "link_thumb": "https://live.staticflickr.com/65535/51554128442_43766f5289_n.jpg",
    "id_album": "-89234980",
    "description": "ANIME_PIC_bb2c87380b5d4155e12a6863fa3a388b,[GirlsCuteCool],[isGirlAnime],[isCuteAnime],[isSadAnimeGirl],[isSadAnime]",
    "title": "ANIME_PIC_bb2c87380b5d4155e12a6863fa3a388b",
    "link_img": "https://live.staticflickr.com/65535/51554128442_b6e58e5029_o.jpg",
    "id_image": "ANIME_PIC_bb2c87380b5d4155e12a6863fa3a388b",
    "count_view": 0
  },
  {
    "link_thumb": "https://live.staticflickr.com/65535/51554923246_41c3102dc8_n.jpg",
    "id_album": "-89234980",
    "description": "ANIME_PIC_bb2d349c64a94f2af31aa24addd789b9,[GirlsCuteCool],[isGirlAnime],[isCuteAnime],[isSadAnimeGirl],[isSadAnime]",
    "title": "ANIME_PIC_bb2d349c64a94f2af31aa24addd789b9",
    "link_img": "https://live.staticflickr.com/65535/51554923246_a27326103f_o.jpg",
    "id_image": "ANIME_PIC_bb2d349c64a94f2af31aa24addd789b9",
    "count_view": 0
  },
  {
    "link_thumb": "https://live.staticflickr.com/65535/51555843290_547d32a566_n.jpg",
    "id_album": "-89234980",
    "description": "ANIME_PIC_bb371179a4940499d669f7ed8049bb3f,[GirlsCuteCool],[isGirlAnime],[isCuteAnime],[isGirlsHatsHoodieAnime],[isGirlsLoliAnime]",
    "title": "ANIME_PIC_bb371179a4940499d669f7ed8049bb3f",
    "link_img": "https://live.staticflickr.com/65535/51555843290_f43d172d9d_o.jpg",
    "id_image": "ANIME_PIC_bb371179a4940499d669f7ed8049bb3f",
    "count_view": 0
  },
  {
    "link_thumb": "https://live.staticflickr.com/65535/51555646789_51a50a2b6a_n.jpg",
    "id_album": "-89234980",
    "description": "ANIME_PIC_bb418f0636c6798ea4458a46d52dd100,[GirlsCuteCool],[isGirlAnime],[isCuteAnime]",
    "title": "ANIME_PIC_bb418f0636c6798ea4458a46d52dd100",
    "link_img": "https://live.staticflickr.com/65535/51555646789_bcb909ea19_o.jpg",
    "id_image": "ANIME_PIC_bb418f0636c6798ea4458a46d52dd100",
    "count_view": 0
  },
  {
    "link_thumb": "https://live.staticflickr.com/65535/51554924101_aff3d4b51d_n.jpg",
    "id_album": "-89234980",
    "description": "ANIME_PIC_bb428bdd365ae349e8868e23e6627fe5,[GirlsCuteCool],[isGirlAnime],[isCuteAnime],[isGirlsLoliAnime]",
    "title": "ANIME_PIC_bb428bdd365ae349e8868e23e6627fe5",
    "link_img": "https://live.staticflickr.com/65535/51554924101_40a6d00bdb_o.jpg",
    "id_image": "ANIME_PIC_bb428bdd365ae349e8868e23e6627fe5",
    "count_view": 0
  },
  {
    "link_thumb": "https://live.staticflickr.com/65535/51564554214_82ceba06b4_n.jpg",
    "id_album": "-89234980",
    "description": "ANIME_PIC_bb43ec54eb9323f8c84759f20c09fcf5,[GirlsCuteCool],[isGirlAnime],[isCuteAnime]",
    "title": "ANIME_PIC_bb43ec54eb9323f8c84759f20c09fcf5",
    "link_img": "https://live.staticflickr.com/65535/51564554214_0eff3192aa_o.jpg",
    "id_image": "ANIME_PIC_bb43ec54eb9323f8c84759f20c09fcf5",
    "count_view": 0
  },
  {
    "link_thumb": "https://live.staticflickr.com/65535/51564554404_e9110b1a2e_n.jpg",
    "id_album": "-89234980",
    "description": "ANIME_PIC_bb476a98e1aced91ba8ad36161f684d3,[GirlsCuteCool],[isGirlAnime],[isCuteAnime],[isGirlsHatsHoodieAnime],[isGirlsLoliAnime]",
    "title": "ANIME_PIC_bb476a98e1aced91ba8ad36161f684d3",
    "link_img": "https://live.staticflickr.com/65535/51564554404_885d3367e1_o.jpg",
    "id_image": "ANIME_PIC_bb476a98e1aced91ba8ad36161f684d3",
    "count_view": 0
  },
  {
    "link_thumb": "https://live.staticflickr.com/65535/51564554654_c1ea18c264_n.jpg",
    "id_album": "-89234980",
    "description": "ANIME_PIC_bb49dc6eb825a99f05f6fdbc1c8fb4f6,[GirlsCuteCool],[isGirlAnime],[isCuteAnime]",
    "title": "ANIME_PIC_bb49dc6eb825a99f05f6fdbc1c8fb4f6",
    "link_img": "https://live.staticflickr.com/65535/51564554654_4058eb837b_o.jpg",
    "id_image": "ANIME_PIC_bb49dc6eb825a99f05f6fdbc1c8fb4f6",
    "count_view": 0
  },
  {
    "link_thumb": "https://live.staticflickr.com/65535/51563865566_b9e03d68ca_n.jpg",
    "id_album": "-89234980",
    "description": "ANIME_PIC_bb4a8620e1f8b778595e9dc81d774cdc,[GirlsCuteCool],[isGirlAnime],[isCuteAnime]",
    "title": "ANIME_PIC_bb4a8620e1f8b778595e9dc81d774cdc",
    "link_img": "https://live.staticflickr.com/65535/51563865566_929170eaa1_o.png",
    "id_image": "ANIME_PIC_bb4a8620e1f8b778595e9dc81d774cdc",
    "count_view": 0
  },
  {
    "link_thumb": "https://live.staticflickr.com/65535/51564798845_3babec4eb7_n.jpg",
    "id_album": "-89234980",
    "description": "ANIME_PIC_bb50b7f88621f37e4b05d317133ca5ae,[GirlsCuteCool],[isGirlAnime],[isCuteAnime],[isGirlsLoliAnime],[isSadAnimeGirl],[isSadAnime]",
    "title": "ANIME_PIC_bb50b7f88621f37e4b05d317133ca5ae",
    "link_img": "https://live.staticflickr.com/65535/51564798845_cd067f23cd_o.jpg",
    "id_image": "ANIME_PIC_bb50b7f88621f37e4b05d317133ca5ae",
    "count_view": 0
  },
  {
    "link_thumb": "https://live.staticflickr.com/65535/51564112658_4a2b040196_n.jpg",
    "id_album": "-89234980",
    "description": "ANIME_PIC_bb50f5aef566bd168ec45fd2ceb6b169,[GirlsCuteCool],[isGirlAnime],[isCuteAnime],[isGirlsLoliAnime]",
    "title": "ANIME_PIC_bb50f5aef566bd168ec45fd2ceb6b169",
    "link_img": "https://live.staticflickr.com/65535/51564112658_fe25488ff1_o.jpg",
    "id_image": "ANIME_PIC_bb50f5aef566bd168ec45fd2ceb6b169",
    "count_view": 0
  },
  {
    "link_thumb": "https://live.staticflickr.com/65535/51564555874_eb30d05c0a_n.jpg",
    "id_album": "-89234980",
    "description": "ANIME_PIC_bb5a84d6fc93b5d08e9297e20a016ef2,[GirlsCuteCool],[isGirlAnime],[isCuteAnime],[isGirlsHatsHoodieAnime],[isGirlsLoliAnime]",
    "title": "ANIME_PIC_bb5a84d6fc93b5d08e9297e20a016ef2",
    "link_img": "https://live.staticflickr.com/65535/51564555874_6cd3184c8c_o.jpg",
    "id_image": "ANIME_PIC_bb5a84d6fc93b5d08e9297e20a016ef2",
    "count_view": 0
  },
  {
    "link_thumb": "https://live.staticflickr.com/65535/49879552962_48873c4bc1_n.jpg",
    "id_album": "-89234980",
    "description": "ANIME_PIC_bb5e2281c695d57cb3c571989f35d80c,[isGirlAnime],[isCuteAnime],[Girls Cute Cool],[GirlsCuteCool]",
    "title": "ANIME_PIC_bb5e2281c695d57cb3c571989f35d80c",
    "link_img": "https://live.staticflickr.com/65535/49879552962_2cc0e31cd6_o.jpg",
    "id_image": "ANIME_PIC_bb5e2281c695d57cb3c571989f35d80c",
    "count_view": 0
  },
  {
    "link_thumb": "https://live.staticflickr.com/65535/51563075882_4f921fe548_n.jpg",
    "id_album": "-89234980",
    "description": "ANIME_PIC_bb62d12a525d7d0a268902b5347ae1de,[GirlsCuteCool],[isGirlAnime],[isCuteAnime]",
    "title": "ANIME_PIC_bb62d12a525d7d0a268902b5347ae1de",
    "link_img": "https://live.staticflickr.com/65535/51563075882_03dfb57310_o.jpg",
    "id_image": "ANIME_PIC_bb62d12a525d7d0a268902b5347ae1de",
    "count_view": 0
  },
  {
    "link_thumb": "https://live.staticflickr.com/65535/51563076142_7c4ede7278_n.jpg",
    "id_album": "-89234980",
    "description": "ANIME_PIC_bb66a8f4cb0e42729750c93c22f3f067,[GirlsCuteCool],[isGirlAnime],[isCuteAnime],[isGirlsHatsHoodieAnime],[isGirlsLoliAnime]",
    "title": "ANIME_PIC_bb66a8f4cb0e42729750c93c22f3f067",
    "link_img": "https://live.staticflickr.com/65535/51563076142_d59c452fea_o.jpg",
    "id_image": "ANIME_PIC_bb66a8f4cb0e42729750c93c22f3f067",
    "count_view": 0
  },
  {
    "link_thumb": "https://live.staticflickr.com/65535/51564799950_92fe88ddc4_n.jpg",
    "id_album": "-89234980",
    "description": "ANIME_PIC_bb6a12ada341c8940a406f18d85083d9,[GirlsCuteCool],[isGirlAnime],[isCuteAnime],[isGirlsLoliAnime]",
    "title": "ANIME_PIC_bb6a12ada341c8940a406f18d85083d9",
    "link_img": "https://live.staticflickr.com/65535/51564799950_a5e8e639f6_o.jpg",
    "id_image": "ANIME_PIC_bb6a12ada341c8940a406f18d85083d9",
    "count_view": 0
  },
  {
    "link_thumb": "https://live.staticflickr.com/65535/51563076662_cb7996e73a_n.jpg",
    "id_album": "-89234980",
    "description": "ANIME_PIC_bb6a2b8d8f15ddf761655b59a1d1a4d3,[GirlsCuteCool],[isBoyAnime],[isGirlAnime],[isCuteAnime]",
    "title": "ANIME_PIC_bb6a2b8d8f15ddf761655b59a1d1a4d3",
    "link_img": "https://live.staticflickr.com/65535/51563076662_ae96d9b35a_o.png",
    "id_image": "ANIME_PIC_bb6a2b8d8f15ddf761655b59a1d1a4d3",
    "count_view": 0
  },
  {
    "link_thumb": "https://live.staticflickr.com/65535/51564114138_3aafb2d4f4_n.jpg",
    "id_album": "-89234980",
    "description": "ANIME_PIC_bb6bc4e2f96287b7c9ad88d53a96b4fa,[GirlsCuteCool],[isGirlAnime],[isCuteAnime],[isGirlsHatsHoodieAnime],[isGirlsLoliAnime]",
    "title": "ANIME_PIC_bb6bc4e2f96287b7c9ad88d53a96b4fa",
    "link_img": "https://live.staticflickr.com/65535/51564114138_9d87799942_o.jpg",
    "id_image": "ANIME_PIC_bb6bc4e2f96287b7c9ad88d53a96b4fa",
    "count_view": 0
  },
  {
    "link_thumb": "https://live.staticflickr.com/65535/51564115113_0a6c18fea1_n.jpg",
    "id_album": "-89234980",
    "description": "ANIME_PIC_bb6d02129069220624c2463465100baf,[GirlsCuteCool],[isGirlAnime],[isCuteAnime],[isGirlsLoliAnime]",
    "title": "ANIME_PIC_bb6d02129069220624c2463465100baf",
    "link_img": "https://live.staticflickr.com/65535/51564115113_ea433e80bf_o.jpg",
    "id_image": "ANIME_PIC_bb6d02129069220624c2463465100baf",
    "count_view": 0
  },
  {
    "link_thumb": "https://live.staticflickr.com/65535/51564801770_ee5e305f9f_n.jpg",
    "id_album": "-89234980",
    "description": "ANIME_PIC_bb6e7dcb34746280fe1ba7d35b91fe2c,[GirlsCuteCool],[isGirlAnime],[isCuteAnime],[isGirlsLoliAnime]",
    "title": "ANIME_PIC_bb6e7dcb34746280fe1ba7d35b91fe2c",
    "link_img": "https://live.staticflickr.com/65535/51564801770_b1071ebddc_o.jpg",
    "id_image": "ANIME_PIC_bb6e7dcb34746280fe1ba7d35b91fe2c",
    "count_view": 0
  },
  {
    "link_thumb": "https://live.staticflickr.com/65535/51564558684_72f94b3f0b_n.jpg",
    "id_album": "-89234980",
    "description": "ANIME_PIC_bb722ec5e751033edfcc0311095562c2,[GirlsCuteCool],[isGirlAnime],[isCuteAnime],[isGirlEarsNekoAnime],[isGirlsLoliAnime]",
    "title": "ANIME_PIC_bb722ec5e751033edfcc0311095562c2",
    "link_img": "https://live.staticflickr.com/65535/51564558684_edae03680f_o.jpg",
    "id_image": "ANIME_PIC_bb722ec5e751033edfcc0311095562c2",
    "count_view": 0
  },
  {
    "link_thumb": "https://live.staticflickr.com/65535/51564115553_dff479932c_n.jpg",
    "id_album": "-89234980",
    "description": "ANIME_PIC_bb7523ad2aaea18580961b2aaa327f52,[GirlsCuteCool],[isGirlAnime],[isCuteAnime],[isGirlsLoliAnime]",
    "title": "ANIME_PIC_bb7523ad2aaea18580961b2aaa327f52",
    "link_img": "https://live.staticflickr.com/65535/51564115553_e72c71b05b_o.jpg",
    "id_image": "ANIME_PIC_bb7523ad2aaea18580961b2aaa327f52",
    "count_view": 0
  },
  {
    "link_thumb": "https://live.staticflickr.com/65535/51564802250_2bc53f8e19_n.jpg",
    "id_album": "-89234980",
    "description": "ANIME_PIC_bb7630c5ced05a33787ff9cc5f2d3958,[GirlsCuteCool],[isGirlAnime],[isCuteAnime]",
    "title": "ANIME_PIC_bb7630c5ced05a33787ff9cc5f2d3958",
    "link_img": "https://live.staticflickr.com/65535/51564802250_72034d2792_o.jpg",
    "id_image": "ANIME_PIC_bb7630c5ced05a33787ff9cc5f2d3958",
    "count_view": 0
  },
  {
    "link_thumb": "https://live.staticflickr.com/65535/51564559259_91613e9cfd_n.jpg",
    "id_album": "-89234980",
    "description": "ANIME_PIC_bb76b8a329406963c537404768c6df6c,[GirlsCuteCool],[isGirlAnime],[isCuteAnime],[isGirlsHatsHoodieAnime],[isGirlsLoliAnime],[isSadAnimeGirl],[isSadAnime]",
    "title": "ANIME_PIC_bb76b8a329406963c537404768c6df6c",
    "link_img": "https://live.staticflickr.com/65535/51564559259_f58c99fb50_o.png",
    "id_image": "ANIME_PIC_bb76b8a329406963c537404768c6df6c",
    "count_view": 0
  },
  {
    "link_thumb": "https://live.staticflickr.com/65535/51563079372_b7f05ac85f_n.jpg",
    "id_album": "-89234980",
    "description": "ANIME_PIC_bb78de0aaf1b4af335043dab61ad6287,[GirlsCuteCool],[isGirlAnime],[isCuteAnime],[isGirlsLoliAnime]",
    "title": "ANIME_PIC_bb78de0aaf1b4af335043dab61ad6287",
    "link_img": "https://live.staticflickr.com/65535/51563079372_56b1ecfc1c_o.png",
    "id_image": "ANIME_PIC_bb78de0aaf1b4af335043dab61ad6287",
    "count_view": 0
  },
  {
    "link_thumb": "https://live.staticflickr.com/65535/51563870621_d2a39207eb_n.jpg",
    "id_album": "-89234980",
    "description": "ANIME_PIC_bb790a1d1b8ef5f81bf543ebd0c3071e,[GirlsCuteCool],[isGirlAnime],[isCuteAnime]",
    "title": "ANIME_PIC_bb790a1d1b8ef5f81bf543ebd0c3071e",
    "link_img": "https://live.staticflickr.com/65535/51563870621_148b2bd099_o.png",
    "id_image": "ANIME_PIC_bb790a1d1b8ef5f81bf543ebd0c3071e",
    "count_view": 0
  },
  {
    "link_thumb": "https://live.staticflickr.com/65535/51564803800_ea412fe41e_n.jpg",
    "id_album": "-89234980",
    "description": "ANIME_PIC_bb7f3f85d3deb9ef09ee032ee5f5be2b,[GirlsCuteCool],[isGirlAnime],[isCuteAnime]",
    "title": "ANIME_PIC_bb7f3f85d3deb9ef09ee032ee5f5be2b",
    "link_img": "https://live.staticflickr.com/65535/51564803800_e91aeef74a_o.jpg",
    "id_image": "ANIME_PIC_bb7f3f85d3deb9ef09ee032ee5f5be2b",
    "count_view": 0
  },
  {
    "link_thumb": "https://live.staticflickr.com/65535/51563080372_e846335104_n.jpg",
    "id_album": "-89234980",
    "description": "ANIME_PIC_bb8179cfd46a01efa4cb699542729432,[GirlsCuteCool],[isGirlAnime],[isCuteAnime]",
    "title": "ANIME_PIC_bb8179cfd46a01efa4cb699542729432",
    "link_img": "https://live.staticflickr.com/65535/51563080372_c737306d09_o.jpg",
    "id_image": "ANIME_PIC_bb8179cfd46a01efa4cb699542729432",
    "count_view": 0
  },
  {
    "link_thumb": "https://live.staticflickr.com/65535/51563080512_675314ed74_n.jpg",
    "id_album": "-89234980",
    "description": "ANIME_PIC_bb886e9b9d460b99977faed09262a7f4,[GirlsCuteCool],[isGirlAnime],[isCuteAnime],[isGirlsLoliAnime],[isSadAnimeGirl],[isSadAnime]",
    "title": "ANIME_PIC_bb886e9b9d460b99977faed09262a7f4",
    "link_img": "https://live.staticflickr.com/65535/51563080512_61e5f6bc00_o.jpg",
    "id_image": "ANIME_PIC_bb886e9b9d460b99977faed09262a7f4",
    "count_view": 0
  },
  {
    "link_thumb": "https://live.staticflickr.com/65535/51563080767_cd5215eb78_n.jpg",
    "id_album": "-89234980",
    "description": "ANIME_PIC_bb8b4b98ad86178f31603f5da189c316,[GirlsCuteCool],[isGirlAnime],[isCuteAnime],[isGirlsLoliAnime]",
    "title": "ANIME_PIC_bb8b4b98ad86178f31603f5da189c316",
    "link_img": "https://live.staticflickr.com/65535/51563080767_bbb78371d7_o.jpg",
    "id_image": "ANIME_PIC_bb8b4b98ad86178f31603f5da189c316",
    "count_view": 0
  },
  {
    "link_thumb": "https://live.staticflickr.com/65535/51563871881_b8556450df_n.jpg",
    "id_album": "-89234980",
    "description": "ANIME_PIC_bb9208a26ae66fad4dc12687e700da95,[GirlsCuteCool],[isGirlAnime],[isCuteAnime],[isGirlsLoliAnime]",
    "title": "ANIME_PIC_bb9208a26ae66fad4dc12687e700da95",
    "link_img": "https://live.staticflickr.com/65535/51563871881_d96eebd5b7_o.jpg",
    "id_image": "ANIME_PIC_bb9208a26ae66fad4dc12687e700da95",
    "count_view": 0
  },
  {
    "link_thumb": "https://live.staticflickr.com/65535/51563872056_a168e4c869_n.jpg",
    "id_album": "-89234980",
    "description": "ANIME_PIC_bb932a853ffae559a1c93fb8ba31b08d,[GirlsCuteCool],[isGirlAnime],[isCuteAnime]",
    "title": "ANIME_PIC_bb932a853ffae559a1c93fb8ba31b08d",
    "link_img": "https://live.staticflickr.com/65535/51563872056_e81b4bd061_o.jpg",
    "id_image": "ANIME_PIC_bb932a853ffae559a1c93fb8ba31b08d",
    "count_view": 0
  },
  {
    "link_thumb": "https://live.staticflickr.com/65535/51564118263_c82f50d0a9_n.jpg",
    "id_album": "-89234980",
    "description": "ANIME_PIC_bb9738137d1d034521b0db2d36bcef95,[GirlsCuteCool],[isGirlAnime],[isCuteAnime],[isGirlEarsNekoAnime],[isGirlsLoliAnime]",
    "title": "ANIME_PIC_bb9738137d1d034521b0db2d36bcef95",
    "link_img": "https://live.staticflickr.com/65535/51564118263_9c5f4f66f3_o.jpg",
    "id_image": "ANIME_PIC_bb9738137d1d034521b0db2d36bcef95",
    "count_view": 0
  },
  {
    "link_thumb": "https://live.staticflickr.com/65535/51564805085_d4f708b156_n.jpg",
    "id_album": "-89234980",
    "description": "ANIME_PIC_bb9983eae5d292e9bf2890cd2e45f375,[GirlsCuteCool],[isGirlAnime],[isCuteAnime],[isGirlsLoliAnime]",
    "title": "ANIME_PIC_bb9983eae5d292e9bf2890cd2e45f375",
    "link_img": "https://live.staticflickr.com/65535/51564805085_4ffe56d09e_o.png",
    "id_image": "ANIME_PIC_bb9983eae5d292e9bf2890cd2e45f375",
    "count_view": 0
  },
  {
    "link_thumb": "https://live.staticflickr.com/65535/51568333183_34d7f40d12_n.jpg",
    "id_album": "-89234980",
    "description": "ANIME_PIC_bb9a4bdc5e3d49092389d26311270e93,[GirlsCuteCool],[isGirlAnime],[isCuteAnime]",
    "title": "ANIME_PIC_bb9a4bdc5e3d49092389d26311270e93",
    "link_img": "https://live.staticflickr.com/65535/51568333183_c104773b6d_o.png",
    "id_image": "ANIME_PIC_bb9a4bdc5e3d49092389d26311270e93",
    "count_view": 0
  },
  {
    "link_thumb": "https://live.staticflickr.com/65535/51564118803_65f228c4fc_n.jpg",
    "id_album": "-89234980",
    "description": "ANIME_PIC_bb9aad169b2769127236a8a67c3f43ed,[GirlsCuteCool],[isGirlAnime],[isCuteAnime],[isGirlsLoliAnime],[isSadAnimeGirl],[isSadAnime]",
    "title": "ANIME_PIC_bb9aad169b2769127236a8a67c3f43ed",
    "link_img": "https://live.staticflickr.com/65535/51564118803_3d1c7e9c7f_o.png",
    "id_image": "ANIME_PIC_bb9aad169b2769127236a8a67c3f43ed",
    "count_view": 0
  },
  {
    "link_thumb": "https://live.staticflickr.com/65535/51563873131_c1d2fcbcdc_n.jpg",
    "id_album": "-89234980",
    "description": "ANIME_PIC_bb9eb77e7175de3aa5acefd6779a7f52,[GirlsCuteCool],[isGirlAnime],[isCuteAnime],[isSadAnimeGirl],[isSadAnime]",
    "title": "ANIME_PIC_bb9eb77e7175de3aa5acefd6779a7f52",
    "link_img": "https://live.staticflickr.com/65535/51563873131_7664ab8642_o.jpg",
    "id_image": "ANIME_PIC_bb9eb77e7175de3aa5acefd6779a7f52",
    "count_view": 0
  },
  {
    "link_thumb": "https://live.staticflickr.com/65535/51563873366_3e1e921e92_n.jpg",
    "id_album": "-89234980",
    "description": "ANIME_PIC_bba13fe3359e36c2365514b97de1bc9d,[GirlsCuteCool],[isGirlAnime],[isCuteAnime],[isGirlEarsNekoAnime],[isGirlsHatsHoodieAnime],[isGirlsLoliAnime]",
    "title": "ANIME_PIC_bba13fe3359e36c2365514b97de1bc9d",
    "link_img": "https://live.staticflickr.com/65535/51563873366_8c894469ab_o.png",
    "id_image": "ANIME_PIC_bba13fe3359e36c2365514b97de1bc9d",
    "count_view": 0
  },
  {
    "link_thumb": "https://live.staticflickr.com/65535/51563873686_ba668716c6_n.jpg",
    "id_album": "-89234980",
    "description": "ANIME_PIC_bba236c467628763c881ec87867d7d18,[GirlsCuteCool],[isGirlAnime],[isCuteAnime],[isGirlsHatsHoodieAnime],[isGirlsLoliAnime]",
    "title": "ANIME_PIC_bba236c467628763c881ec87867d7d18",
    "link_img": "https://live.staticflickr.com/65535/51563873686_ff56dd138b_o.jpg",
    "id_image": "ANIME_PIC_bba236c467628763c881ec87867d7d18",
    "count_view": 0
  },
  {
    "link_thumb": "https://live.staticflickr.com/65535/51564119933_a0daf73581_n.jpg",
    "id_album": "-89234980",
    "description": "ANIME_PIC_bba261f632f00a2e219b5017c2f610c8,[GirlsCuteCool],[isGirlAnime],[isCuteAnime],[isGirlsLoliAnime]",
    "title": "ANIME_PIC_bba261f632f00a2e219b5017c2f610c8",
    "link_img": "https://live.staticflickr.com/65535/51564119933_8f43e5afaf_o.jpg",
    "id_image": "ANIME_PIC_bba261f632f00a2e219b5017c2f610c8",
    "count_view": 0
  },
  {
    "link_thumb": "https://live.staticflickr.com/65535/51564120148_7e2d108083_n.jpg",
    "id_album": "-89234980",
    "description": "ANIME_PIC_bba3f5c0985ec14e60f0019f640fe56c,[GirlsCuteCool],[isGirlAnime],[isCuteAnime],[isGirlsLoliAnime]",
    "title": "ANIME_PIC_bba3f5c0985ec14e60f0019f640fe56c",
    "link_img": "https://live.staticflickr.com/65535/51564120148_8fd3a477e8_o.jpg",
    "id_image": "ANIME_PIC_bba3f5c0985ec14e60f0019f640fe56c",
    "count_view": 0
  },
  {
    "link_thumb": "https://live.staticflickr.com/65535/51564807160_0ceb5abe59_n.jpg",
    "id_album": "-89234980",
    "description": "ANIME_PIC_bba4dfa1f439512db944f6d8f4314470,[GirlsCuteCool],[isGirlAnime],[isCuteAnime]",
    "title": "ANIME_PIC_bba4dfa1f439512db944f6d8f4314470",
    "link_img": "https://live.staticflickr.com/65535/51564807160_031982b725_o.jpg",
    "id_image": "ANIME_PIC_bba4dfa1f439512db944f6d8f4314470",
    "count_view": 0
  },
  {
    "link_thumb": "https://live.staticflickr.com/65535/51564120768_0e0cef8251_n.jpg",
    "id_album": "-89234980",
    "description": "ANIME_PIC_bbacc1748f319d7781c7621a28cb1d09,[GirlsCuteCool],[isGirlAnime],[isCuteAnime]",
    "title": "ANIME_PIC_bbacc1748f319d7781c7621a28cb1d09",
    "link_img": "https://live.staticflickr.com/65535/51564120768_4e27c00102_o.png",
    "id_image": "ANIME_PIC_bbacc1748f319d7781c7621a28cb1d09",
    "count_view": 0
  },
  {
    "link_thumb": "https://live.staticflickr.com/65535/51564808110_6e13ae449e_n.jpg",
    "id_album": "-89234980",
    "description": "ANIME_PIC_bbae4a1d4b649aad335d5be71d890ed7,[GirlsCuteCool],[isGirlAnime],[isCuteAnime],[isBlackAnime]",
    "title": "ANIME_PIC_bbae4a1d4b649aad335d5be71d890ed7",
    "link_img": "https://live.staticflickr.com/65535/51564808110_2c5e33c01c_o.jpg",
    "id_image": "ANIME_PIC_bbae4a1d4b649aad335d5be71d890ed7",
    "count_view": 0
  },
  {
    "link_thumb": "https://live.staticflickr.com/65535/51564121493_2e3c283022_n.jpg",
    "id_album": "-89234980",
    "description": "ANIME_PIC_bbafa8c033ebabe1c456e37e6e4d51c1,[GirlsCuteCool],[isGirlAnime],[isCuteAnime],[isSadAnimeGirl],[isSadAnime]",
    "title": "ANIME_PIC_bbafa8c033ebabe1c456e37e6e4d51c1",
    "link_img": "https://live.staticflickr.com/65535/51564121493_a376fd232d_o.png",
    "id_image": "ANIME_PIC_bbafa8c033ebabe1c456e37e6e4d51c1",
    "count_view": 0
  },
  {
    "link_thumb": "https://live.staticflickr.com/65535/51564121758_21aeb22022_n.jpg",
    "id_album": "-89234980",
    "description": "ANIME_PIC_bbb12c368ac395f9cc69a5f1d7317a20,[GirlsCuteCool],[isGirlAnime],[isCuteAnime],[isSadAnimeGirl],[isSadAnime]",
    "title": "ANIME_PIC_bbb12c368ac395f9cc69a5f1d7317a20",
    "link_img": "https://live.staticflickr.com/65535/51564121758_091625335e_o.jpg",
    "id_image": "ANIME_PIC_bbb12c368ac395f9cc69a5f1d7317a20",
    "count_view": 0
  },
  {
    "link_thumb": "https://live.staticflickr.com/65535/51564565389_956d261092_n.jpg",
    "id_album": "-89234980",
    "description": "ANIME_PIC_bbb21806aa2e80f2efb251b9fb4bebed,[GirlsCuteCool],[isGirlAnime],[isCuteAnime]",
    "title": "ANIME_PIC_bbb21806aa2e80f2efb251b9fb4bebed",
    "link_img": "https://live.staticflickr.com/65535/51564565389_c54df4d073_o.png",
    "id_image": "ANIME_PIC_bbb21806aa2e80f2efb251b9fb4bebed",
    "count_view": 0
  },
  {
    "link_thumb": "https://live.staticflickr.com/65535/51563085772_5612119d0e_n.jpg",
    "id_album": "-89234980",
    "description": "ANIME_PIC_bbb7b24bac492e144d3cdfdf9f75d70d,[GirlsCuteCool],[isGirlAnime],[isCuteAnime],[isGirlEarsNekoAnime],[isGirlsLoliAnime],[isSadAnimeGirl],[isSadAnime]",
    "title": "ANIME_PIC_bbb7b24bac492e144d3cdfdf9f75d70d",
    "link_img": "https://live.staticflickr.com/65535/51563085772_42ef5c1f96_o.jpg",
    "id_image": "ANIME_PIC_bbb7b24bac492e144d3cdfdf9f75d70d",
    "count_view": 0
  },
  {
    "link_thumb": "https://live.staticflickr.com/65535/51564565919_c24f8168c6_n.jpg",
    "id_album": "-89234980",
    "description": "ANIME_PIC_bbb7d985024358b5220c43d1b09d71ea,[GirlsCuteCool],[isGirlAnime],[isCuteAnime],[isGirlsLoliAnime]",
    "title": "ANIME_PIC_bbb7d985024358b5220c43d1b09d71ea",
    "link_img": "https://live.staticflickr.com/65535/51564565919_bc94770b2b_o.png",
    "id_image": "ANIME_PIC_bbb7d985024358b5220c43d1b09d71ea",
    "count_view": 0
  },
  {
    "link_thumb": "https://live.staticflickr.com/65535/51564123023_bfb3e1c1ed_n.jpg",
    "id_album": "-89234980",
    "description": "ANIME_PIC_bbb9dbb3017f6f0a4d49cafd0899deeb,[GirlsCuteCool],[isGirlAnime],[isCuteAnime],[isGirlsHatsHoodieAnime]",
    "title": "ANIME_PIC_bbb9dbb3017f6f0a4d49cafd0899deeb",
    "link_img": "https://live.staticflickr.com/65535/51564123023_206437e6ef_o.jpg",
    "id_image": "ANIME_PIC_bbb9dbb3017f6f0a4d49cafd0899deeb",
    "count_view": 0
  },
  {
    "link_thumb": "https://live.staticflickr.com/65535/51564809965_e16ebc9cef_n.jpg",
    "id_album": "-89234980",
    "description": "ANIME_PIC_bbbb80d2e814750361cb796d3d48f6b7,[GirlsCuteCool],[isGirlAnime],[isCuteAnime],[isGirlsHatsHoodieAnime]",
    "title": "ANIME_PIC_bbbb80d2e814750361cb796d3d48f6b7",
    "link_img": "https://live.staticflickr.com/65535/51564809965_b10c42425f_o.jpg",
    "id_image": "ANIME_PIC_bbbb80d2e814750361cb796d3d48f6b7",
    "count_view": 0
  },
  {
    "link_thumb": "https://live.staticflickr.com/65535/51564810305_e385499b39_n.jpg",
    "id_album": "-89234980",
    "description": "ANIME_PIC_bbbd93c61a36239c390150c86a36267f,[GirlsCuteCool],[isGirlAnime],[isCuteAnime],[isGirlsLoliAnime],[isSadAnimeGirl],[isSadAnime]",
    "title": "ANIME_PIC_bbbd93c61a36239c390150c86a36267f",
    "link_img": "https://live.staticflickr.com/65535/51564810305_7bb89a9f97_o.png",
    "id_image": "ANIME_PIC_bbbd93c61a36239c390150c86a36267f",
    "count_view": 0
  },
  {
    "link_thumb": "https://live.staticflickr.com/65535/51564567204_aaa4a0abe4_n.jpg",
    "id_album": "-89234980",
    "description": "ANIME_PIC_bbbffb39d139cbf7a06ffeceac366524,[GirlsCuteCool],[isGirlAnime],[isCuteAnime]",
    "title": "ANIME_PIC_bbbffb39d139cbf7a06ffeceac366524",
    "link_img": "https://live.staticflickr.com/65535/51564567204_c185c47400_o.jpg",
    "id_image": "ANIME_PIC_bbbffb39d139cbf7a06ffeceac366524",
    "count_view": 0
  },
  {
    "link_thumb": "https://live.staticflickr.com/65535/51564811110_ee4f1d52d4_n.jpg",
    "id_album": "-89234980",
    "description": "ANIME_PIC_bbc524b39e4ff2b7779b783ef6d9aac7,[GirlsCuteCool],[isGirlAnime],[isCuteAnime],[isGirlsLoliAnime]",
    "title": "ANIME_PIC_bbc524b39e4ff2b7779b783ef6d9aac7",
    "link_img": "https://live.staticflickr.com/65535/51564811110_5d99fcb13a_o.jpg",
    "id_image": "ANIME_PIC_bbc524b39e4ff2b7779b783ef6d9aac7",
    "count_view": 0
  },
  {
    "link_thumb": "https://live.staticflickr.com/65535/51563878431_aa3a3ca871_n.jpg",
    "id_album": "-89234980",
    "description": "ANIME_PIC_bbc5c9a4d2c2e855229ee1dd15d141f8,[GirlsCuteCool],[isGirlAnime],[isCuteAnime],[isGirlEarsNekoAnime]",
    "title": "ANIME_PIC_bbc5c9a4d2c2e855229ee1dd15d141f8",
    "link_img": "https://live.staticflickr.com/65535/51563878431_382807049b_o.jpg",
    "id_image": "ANIME_PIC_bbc5c9a4d2c2e855229ee1dd15d141f8",
    "count_view": 0
  },
  {
    "link_thumb": "https://live.staticflickr.com/65535/51563087922_cd61a41bb5_n.jpg",
    "id_album": "-89234980",
    "description": "ANIME_PIC_bbc72564262ea0d8b7c60251f8bf644e,[GirlsCuteCool],[isGirlAnime],[isCuteAnime],[isGirlsLoliAnime],[isSadAnimeGirl],[isSadAnime]",
    "title": "ANIME_PIC_bbc72564262ea0d8b7c60251f8bf644e",
    "link_img": "https://live.staticflickr.com/65535/51563087922_83eba2a78c_o.jpg",
    "id_image": "ANIME_PIC_bbc72564262ea0d8b7c60251f8bf644e",
    "count_view": 0
  },
  {
    "link_thumb": "https://live.staticflickr.com/65535/51564811900_d86429eeb7_n.jpg",
    "id_album": "-89234980",
    "description": "ANIME_PIC_bbc93f27830483ba6d846f219a79ebcf,[GirlsCuteCool],[isGirlAnime],[isCuteAnime]",
    "title": "ANIME_PIC_bbc93f27830483ba6d846f219a79ebcf",
    "link_img": "https://live.staticflickr.com/65535/51564811900_292674db09_o.png",
    "id_image": "ANIME_PIC_bbc93f27830483ba6d846f219a79ebcf",
    "count_view": 0
  },
  {
    "link_thumb": "https://live.staticflickr.com/65535/51564812520_281aa96ca1_n.jpg",
    "id_album": "-89234980",
    "description": "ANIME_PIC_bbcbd623a3cb287e48ace6e6ba6e68ff,[GirlsCuteCool],[isGirlAnime],[isCuteAnime],[isGirlsLoliAnime]",
    "title": "ANIME_PIC_bbcbd623a3cb287e48ace6e6ba6e68ff",
    "link_img": "https://live.staticflickr.com/65535/51564812520_de01a2056e_o.jpg",
    "id_image": "ANIME_PIC_bbcbd623a3cb287e48ace6e6ba6e68ff",
    "count_view": 0
  },
  {
    "link_thumb": "https://live.staticflickr.com/65535/51564125908_d3b3eee8e1_n.jpg",
    "id_album": "-89234980",
    "description": "ANIME_PIC_bbd633c033ac64a443b83b4e569f1131,[GirlsCuteCool],[isGirlAnime],[isCuteAnime],[isGirlsHatsHoodieAnime],[isSadAnimeGirl],[isSadAnime]",
    "title": "ANIME_PIC_bbd633c033ac64a443b83b4e569f1131",
    "link_img": "https://live.staticflickr.com/65535/51564125908_327290c4ce_o.png",
    "id_image": "ANIME_PIC_bbd633c033ac64a443b83b4e569f1131",
    "count_view": 0
  },
  {
    "link_thumb": "https://live.staticflickr.com/65535/51564126333_3a7b395327_n.jpg",
    "id_album": "-89234980",
    "description": "ANIME_PIC_bbd8b1a828f6fc20550d7644ef631590,[GirlsCuteCool],[isGirlAnime],[isCuteAnime],[isGirlsLoliAnime]",
    "title": "ANIME_PIC_bbd8b1a828f6fc20550d7644ef631590",
    "link_img": "https://live.staticflickr.com/65535/51564126333_ede09fabe7_o.jpg",
    "id_image": "ANIME_PIC_bbd8b1a828f6fc20550d7644ef631590",
    "count_view": 0
  },
  {
    "link_thumb": "https://live.staticflickr.com/65535/51563880071_012de36cf2_n.jpg",
    "id_album": "-89234980",
    "description": "ANIME_PIC_bbdc3e90858f697125cc4e8e7f22abab,[GirlsCuteCool],[isGirlAnime],[isCuteAnime],[isGirlsLoliAnime]",
    "title": "ANIME_PIC_bbdc3e90858f697125cc4e8e7f22abab",
    "link_img": "https://live.staticflickr.com/65535/51563880071_d39ea5520d_o.jpg",
    "id_image": "ANIME_PIC_bbdc3e90858f697125cc4e8e7f22abab",
    "count_view": 0
  },
  {
    "link_thumb": "https://live.staticflickr.com/65535/51564569529_5456d74a4b_n.jpg",
    "id_album": "-89234980",
    "description": "ANIME_PIC_bbe70824e7d554c3f78b2813cb4a6901,[GirlsCuteCool],[isGirlAnime],[isCuteAnime],[isGirlsLoliAnime]",
    "title": "ANIME_PIC_bbe70824e7d554c3f78b2813cb4a6901",
    "link_img": "https://live.staticflickr.com/65535/51564569529_130464de70_o.png",
    "id_image": "ANIME_PIC_bbe70824e7d554c3f78b2813cb4a6901",
    "count_view": 0
  },
  {
    "link_thumb": "https://live.staticflickr.com/65535/51564569809_1a532ff7cd_n.jpg",
    "id_album": "-89234980",
    "description": "ANIME_PIC_bbea5f1215c2eb4406f304e7dcfa1bff,[GirlsCuteCool],[isGirlAnime],[isCuteAnime],[isGirlsLoliAnime],[isSadAnimeGirl],[isSadAnime]",
    "title": "ANIME_PIC_bbea5f1215c2eb4406f304e7dcfa1bff",
    "link_img": "https://live.staticflickr.com/65535/51564569809_1a1a6198e0_o.jpg",
    "id_image": "ANIME_PIC_bbea5f1215c2eb4406f304e7dcfa1bff",
    "count_view": 0
  },
  {
    "link_thumb": "https://live.staticflickr.com/65535/51564814085_dd1a566f7d_n.jpg",
    "id_album": "-89234980",
    "description": "ANIME_PIC_bbeaf7e7d27b03957c3924b8135a1a0c,[GirlsCuteCool],[isGirlAnime],[isCuteAnime],[isSadAnimeGirl],[isSadAnime]",
    "title": "ANIME_PIC_bbeaf7e7d27b03957c3924b8135a1a0c",
    "link_img": "https://live.staticflickr.com/65535/51564814085_13ffd678c8_o.jpg",
    "id_image": "ANIME_PIC_bbeaf7e7d27b03957c3924b8135a1a0c",
    "count_view": 0
  },
  {
    "link_thumb": "https://live.staticflickr.com/65535/51564570244_c16f6321e6_n.jpg",
    "id_album": "-89234980",
    "description": "ANIME_PIC_bbeb3ee1b2eaa4ef2724d6ad4aa4556d,[GirlsCuteCool],[isGirlAnime],[isCuteAnime]",
    "title": "ANIME_PIC_bbeb3ee1b2eaa4ef2724d6ad4aa4556d",
    "link_img": "https://live.staticflickr.com/65535/51564570244_45fdd3dbc0_o.jpg",
    "id_image": "ANIME_PIC_bbeb3ee1b2eaa4ef2724d6ad4aa4556d",
    "count_view": 0
  },
  {
    "link_thumb": "https://live.staticflickr.com/65535/51564570519_4ae7005ffb_n.jpg",
    "id_album": "-89234980",
    "description": "ANIME_PIC_bbebd8095f591de05704faeda0c2bb77,[GirlsCuteCool],[isGirlAnime],[isCuteAnime],[isGirlsHatsHoodieAnime],[isGirlsLoliAnime],[isSadAnimeGirl],[isSadAnime]",
    "title": "ANIME_PIC_bbebd8095f591de05704faeda0c2bb77",
    "link_img": "https://live.staticflickr.com/65535/51564570519_1b860f4cc9_o.jpg",
    "id_image": "ANIME_PIC_bbebd8095f591de05704faeda0c2bb77",
    "count_view": 0
  },
  {
    "link_thumb": "https://live.staticflickr.com/65535/51564127833_5a13ce329c_n.jpg",
    "id_album": "-89234980",
    "description": "ANIME_PIC_bbef93725bdb19d82fefc8e1d17c88e3,[GirlsCuteCool],[isGirlAnime],[isCuteAnime],[isGirlsLoliAnime]",
    "title": "ANIME_PIC_bbef93725bdb19d82fefc8e1d17c88e3",
    "link_img": "https://live.staticflickr.com/65535/51564127833_fd8e9feaed_o.jpg",
    "id_image": "ANIME_PIC_bbef93725bdb19d82fefc8e1d17c88e3",
    "count_view": 0
  },
  {
    "link_thumb": "https://live.staticflickr.com/65535/51564815015_a179e743aa_n.jpg",
    "id_album": "-89234980",
    "description": "ANIME_PIC_bbf67bca1c7c16afc2345661fb5e3d33,[GirlsCuteCool],[isGirlAnime],[isCuteAnime],[isSadAnimeGirl],[isSadAnime]",
    "title": "ANIME_PIC_bbf67bca1c7c16afc2345661fb5e3d33",
    "link_img": "https://live.staticflickr.com/65535/51564815015_f2bf140929_o.jpg",
    "id_image": "ANIME_PIC_bbf67bca1c7c16afc2345661fb5e3d33",
    "count_view": 0
  },
  {
    "link_thumb": "https://live.staticflickr.com/65535/51564128268_90dec1360a_n.jpg",
    "id_album": "-89234980",
    "description": "ANIME_PIC_bbf72fbc96977b92f8161abdef818397,[GirlsCuteCool],[isGirlAnime],[isCuteAnime],[isGirlsLoliAnime]",
    "title": "ANIME_PIC_bbf72fbc96977b92f8161abdef818397",
    "link_img": "https://live.staticflickr.com/65535/51564128268_c42690f6a2_o.jpg",
    "id_image": "ANIME_PIC_bbf72fbc96977b92f8161abdef818397",
    "count_view": 0
  },
  {
    "link_thumb": "https://live.staticflickr.com/65535/51563881901_65a6215c4b_n.jpg",
    "id_album": "-89234980",
    "description": "ANIME_PIC_bbf7eb9c6590e190176277892c3da9f4,[GirlsCuteCool],[isGirlAnime],[isCuteAnime],[isGirlsLoliAnime]",
    "title": "ANIME_PIC_bbf7eb9c6590e190176277892c3da9f4",
    "link_img": "https://live.staticflickr.com/65535/51563881901_482d366c2b_o.png",
    "id_image": "ANIME_PIC_bbf7eb9c6590e190176277892c3da9f4",
    "count_view": 0
  },
  {
    "link_thumb": "https://live.staticflickr.com/65535/51563091867_4b0ed229df_n.jpg",
    "id_album": "-89234980",
    "description": "ANIME_PIC_bbf8384399735a0815511cf5eb2db840,[GirlsCuteCool],[isGirlAnime],[isCuteAnime],[isSadAnimeGirl],[isSadAnime]",
    "title": "ANIME_PIC_bbf8384399735a0815511cf5eb2db840",
    "link_img": "https://live.staticflickr.com/65535/51563091867_daacc3cab8_o.jpg",
    "id_image": "ANIME_PIC_bbf8384399735a0815511cf5eb2db840",
    "count_view": 0
  },
  {
    "link_thumb": "https://live.staticflickr.com/65535/51564571769_b3fbeec9ab_n.jpg",
    "id_album": "-89234980",
    "description": "ANIME_PIC_bbfa81c9d59e3af3729894b3b2609ceb,[GirlsCuteCool],[isGirlAnime],[isCuteAnime],[isGirlsLoliAnime]",
    "title": "ANIME_PIC_bbfa81c9d59e3af3729894b3b2609ceb",
    "link_img": "https://live.staticflickr.com/65535/51564571769_44416987e8_o.jpg",
    "id_image": "ANIME_PIC_bbfa81c9d59e3af3729894b3b2609ceb",
    "count_view": 0
  },
  {
    "link_thumb": "https://live.staticflickr.com/65535/51563882506_ebf3f214fa_n.jpg",
    "id_album": "-89234980",
    "description": "ANIME_PIC_bbfe2f05578b5400e6ef8298e7e6ee49,[GirlsCuteCool],[isGirlAnime],[isCuteAnime]",
    "title": "ANIME_PIC_bbfe2f05578b5400e6ef8298e7e6ee49",
    "link_img": "https://live.staticflickr.com/65535/51563882506_80068b5cee_o.jpg",
    "id_image": "ANIME_PIC_bbfe2f05578b5400e6ef8298e7e6ee49",
    "count_view": 0
  },
  {
    "link_thumb": "https://live.staticflickr.com/65535/51563092512_f31298f123_n.jpg",
    "id_album": "-89234980",
    "description": "ANIME_PIC_bbfed246dfb4e818c5872328a36d9e5b,[GirlsCuteCool],[isGirlAnime],[isCuteAnime]",
    "title": "ANIME_PIC_bbfed246dfb4e818c5872328a36d9e5b",
    "link_img": "https://live.staticflickr.com/65535/51563092512_b2d8f05200_o.jpg",
    "id_image": "ANIME_PIC_bbfed246dfb4e818c5872328a36d9e5b",
    "count_view": 0
  },
  {
    "link_thumb": "https://live.staticflickr.com/65535/51563092722_608457e8eb_n.jpg",
    "id_album": "-89234980",
    "description": "ANIME_PIC_bbff8e4f544905ab442056a5cdf25b3e,[GirlsCuteCool],[isGirlAnime],[isCuteAnime],[isGirlsHatsHoodieAnime],[isGirlsLoliAnime]",
    "title": "ANIME_PIC_bbff8e4f544905ab442056a5cdf25b3e",
    "link_img": "https://live.staticflickr.com/65535/51563092722_81136065a8_o.jpg",
    "id_image": "ANIME_PIC_bbff8e4f544905ab442056a5cdf25b3e",
    "count_view": 0
  },
  {
    "link_thumb": "https://live.staticflickr.com/65535/51563092947_1dbc389b01_n.jpg",
    "id_album": "-89234980",
    "description": "ANIME_PIC_bc03fa34b6992da181d16ef9f65e859b,[GirlsCuteCool],[isGirlAnime],[isCuteAnime],[isGirlsLoliAnime]",
    "title": "ANIME_PIC_bc03fa34b6992da181d16ef9f65e859b",
    "link_img": "https://live.staticflickr.com/65535/51563092947_4a22929c16_o.png",
    "id_image": "ANIME_PIC_bc03fa34b6992da181d16ef9f65e859b",
    "count_view": 0
  },
  {
    "link_thumb": "https://live.staticflickr.com/65535/51563093192_21486b2f55_n.jpg",
    "id_album": "-89234980",
    "description": "ANIME_PIC_bc0a532ab9e7b66dd2055461b6523c26,[GirlsCuteCool],[isGirlAnime],[isCuteAnime],[isGirlsLoliAnime],[isSadAnimeGirl],[isSadAnime]",
    "title": "ANIME_PIC_bc0a532ab9e7b66dd2055461b6523c26",
    "link_img": "https://live.staticflickr.com/65535/51563093192_ae66ace67a_o.png",
    "id_image": "ANIME_PIC_bc0a532ab9e7b66dd2055461b6523c26",
    "count_view": 0
  },
  {
    "link_thumb": "https://live.staticflickr.com/65535/51564130188_92e801075e_n.jpg",
    "id_album": "-89234980",
    "description": "ANIME_PIC_bc0b1badf169748e4361165c104e82ce,[GirlsCuteCool],[isGirlAnime],[isCuteAnime],[isGirlsHatsHoodieAnime],[isGirlsLoliAnime]",
    "title": "ANIME_PIC_bc0b1badf169748e4361165c104e82ce",
    "link_img": "https://live.staticflickr.com/65535/51564130188_f90acb27e8_o.jpg",
    "id_image": "ANIME_PIC_bc0b1badf169748e4361165c104e82ce",
    "count_view": 0
  },
  {
    "link_thumb": "https://live.staticflickr.com/65535/51564817415_a84a3234cb_n.jpg",
    "id_album": "-89234980",
    "description": "ANIME_PIC_bc0b5e9454e7f95dc9e625fc031c2a26,[GirlsCuteCool],[isGirlAnime],[isCuteAnime]",
    "title": "ANIME_PIC_bc0b5e9454e7f95dc9e625fc031c2a26",
    "link_img": "https://live.staticflickr.com/65535/51564817415_3f246c3f27_o.jpg",
    "id_image": "ANIME_PIC_bc0b5e9454e7f95dc9e625fc031c2a26",
    "count_view": 0
  },
  {
    "link_thumb": "https://live.staticflickr.com/65535/51564817650_42e36e3649_n.jpg",
    "id_album": "-89234980",
    "description": "ANIME_PIC_bc0cb598196e2aa7e179e7dc49f61fbd,[GirlsCuteCool],[isGirlAnime],[isCuteAnime],[isGirlsLoliAnime]",
    "title": "ANIME_PIC_bc0cb598196e2aa7e179e7dc49f61fbd",
    "link_img": "https://live.staticflickr.com/65535/51564817650_93d42bc6b6_o.jpg",
    "id_image": "ANIME_PIC_bc0cb598196e2aa7e179e7dc49f61fbd",
    "count_view": 0
  },
  {
    "link_thumb": "https://live.staticflickr.com/65535/51563094117_0fb32b5d18_n.jpg",
    "id_album": "-89234980",
    "description": "ANIME_PIC_bc0f171f6057c6369823afce18a6b0a2,[GirlsCuteCool],[isGirlAnime],[isCuteAnime],[isGirlEarsNekoAnime],[isGirlsLoliAnime]",
    "title": "ANIME_PIC_bc0f171f6057c6369823afce18a6b0a2",
    "link_img": "https://live.staticflickr.com/65535/51563094117_b12567e0fc_o.jpg",
    "id_image": "ANIME_PIC_bc0f171f6057c6369823afce18a6b0a2",
    "count_view": 0
  },
  {
    "link_thumb": "https://live.staticflickr.com/65535/51563094422_d1fb69dfbe_n.jpg",
    "id_album": "-89234980",
    "description": "ANIME_PIC_bc10525638e262e82063aa387078e8de,[GirlsCuteCool],[isGirlAnime],[isCuteAnime],[isGirlsLoliAnime]",
    "title": "ANIME_PIC_bc10525638e262e82063aa387078e8de",
    "link_img": "https://live.staticflickr.com/65535/51563094422_8c6b506cef_o.jpg",
    "id_image": "ANIME_PIC_bc10525638e262e82063aa387078e8de",
    "count_view": 0
  },
  {
    "link_thumb": "https://live.staticflickr.com/65535/51564574284_abb0ed7839_n.jpg",
    "id_album": "-89234980",
    "description": "ANIME_PIC_bc11f334c50ae014e66aa849f9a02278,[GirlsCuteCool],[isGirlAnime],[isCuteAnime],[isSadAnimeGirl],[isSadAnime]",
    "title": "ANIME_PIC_bc11f334c50ae014e66aa849f9a02278",
    "link_img": "https://live.staticflickr.com/65535/51564574284_e03d7ea19a_o.jpg",
    "id_image": "ANIME_PIC_bc11f334c50ae014e66aa849f9a02278",
    "count_view": 0
  },
  {
    "link_thumb": "https://live.staticflickr.com/65535/51564574609_f44ccc15f5_n.jpg",
    "id_album": "-89234980",
    "description": "ANIME_PIC_bc25073f94cde3ec8d42fc18e9de9bed,[GirlsCuteCool],[isGirlAnime],[isCuteAnime]",
    "title": "ANIME_PIC_bc25073f94cde3ec8d42fc18e9de9bed",
    "link_img": "https://live.staticflickr.com/65535/51564574609_55ea560197_o.png",
    "id_image": "ANIME_PIC_bc25073f94cde3ec8d42fc18e9de9bed",
    "count_view": 0
  },
  {
    "link_thumb": "https://live.staticflickr.com/65535/51564132258_91832a47c8_n.jpg",
    "id_album": "-89234980",
    "description": "ANIME_PIC_bc26309933783a2677575fbe6b794a7e,[GirlsCuteCool],[isGirlAnime],[isCuteAnime],[isGirlsLoliAnime]",
    "title": "ANIME_PIC_bc26309933783a2677575fbe6b794a7e",
    "link_img": "https://live.staticflickr.com/65535/51564132258_2f2c8b11f5_o.jpg",
    "id_image": "ANIME_PIC_bc26309933783a2677575fbe6b794a7e",
    "count_view": 0
  },
  {
    "link_thumb": "https://live.staticflickr.com/65535/51564819485_480fd9c423_n.jpg",
    "id_album": "-89234980",
    "description": "ANIME_PIC_bc29176a4171969d20d97911d32e23cd,[GirlsCuteCool],[isGirlAnime],[isCuteAnime],[isGirlsHatsHoodieAnime],[isGirlsLoliAnime],[isSadAnimeGirl],[isSadAnime]",
    "title": "ANIME_PIC_bc29176a4171969d20d97911d32e23cd",
    "link_img": "https://live.staticflickr.com/65535/51564819485_22ac586999_o.jpg",
    "id_image": "ANIME_PIC_bc29176a4171969d20d97911d32e23cd",
    "count_view": 0
  },
  {
    "link_thumb": "https://live.staticflickr.com/65535/49798879651_330793402e_n.jpg",
    "id_album": "-89234980",
    "description": "ANIME_PIC_bc2ccde0374eb0dd9f020e4a5f201233,[isGirlAnime],[isCuteAnime],[Girls Cute Cool],[GirlsCuteCool]",
    "title": "ANIME_PIC_bc2ccde0374eb0dd9f020e4a5f201233",
    "link_img": "https://live.staticflickr.com/65535/49798879651_163ace6f28_o.jpg",
    "id_image": "ANIME_PIC_bc2ccde0374eb0dd9f020e4a5f201233",
    "count_view": 0
  },
  {
    "link_thumb": "https://live.staticflickr.com/65535/51564819720_8ca0061460_n.jpg",
    "id_album": "-89234980",
    "description": "ANIME_PIC_bc33020072460e6b174af9e9148f9d3a,[GirlsCuteCool],[isGirlAnime],[isCuteAnime],[isGirlsHatsHoodieAnime],[isGirlsLoliAnime]",
    "title": "ANIME_PIC_bc33020072460e6b174af9e9148f9d3a",
    "link_img": "https://live.staticflickr.com/65535/51564819720_82efe68baa_o.jpg",
    "id_image": "ANIME_PIC_bc33020072460e6b174af9e9148f9d3a",
    "count_view": 0
  },
  {
    "link_thumb": "https://live.staticflickr.com/65535/51564132788_db5af7c7d8_n.jpg",
    "id_album": "-89234980",
    "description": "ANIME_PIC_bc369af9ffb1bb7365061ae2e3a751d7,[GirlsCuteCool],[isGirlAnime],[isCuteAnime],[isGirlEarsNekoAnime]",
    "title": "ANIME_PIC_bc369af9ffb1bb7365061ae2e3a751d7",
    "link_img": "https://live.staticflickr.com/65535/51564132788_7df375b490_o.jpg",
    "id_image": "ANIME_PIC_bc369af9ffb1bb7365061ae2e3a751d7",
    "count_view": 0
  },
  {
    "link_thumb": "https://live.staticflickr.com/65535/51564133018_d2933971e2_n.jpg",
    "id_album": "-89234980",
    "description": "ANIME_PIC_bc3c385777e47ee7799bbfb9429a355a,[GirlsCuteCool],[isGirlAnime],[isCuteAnime],[isGirlsLoliAnime],[isSceneryArts]",
    "title": "ANIME_PIC_bc3c385777e47ee7799bbfb9429a355a",
    "link_img": "https://live.staticflickr.com/65535/51564133018_0307b242eb_o.jpg",
    "id_image": "ANIME_PIC_bc3c385777e47ee7799bbfb9429a355a",
    "count_view": 0
  },
  {
    "link_thumb": "https://live.staticflickr.com/65535/51564820245_5a823cd9e0_n.jpg",
    "id_album": "-89234980",
    "description": "ANIME_PIC_bc3e9f6eabb10818fbd0641cd065d439,[GirlsCuteCool],[isGirlAnime],[isCuteAnime],[isGirlsLoliAnime]",
    "title": "ANIME_PIC_bc3e9f6eabb10818fbd0641cd065d439",
    "link_img": "https://live.staticflickr.com/65535/51564820245_eee5985a71_o.jpg",
    "id_image": "ANIME_PIC_bc3e9f6eabb10818fbd0641cd065d439",
    "count_view": 0
  },
  {
    "link_thumb": "https://live.staticflickr.com/65535/51564133503_a0468c6e7e_n.jpg",
    "id_album": "-89234980",
    "description": "ANIME_PIC_bc3f672f97a4ba10c25a3e17ae54b76c,[GirlsCuteCool],[isGirlAnime],[isCuteAnime],[isGirlsHatsHoodieAnime],[isGirlsLoliAnime]",
    "title": "ANIME_PIC_bc3f672f97a4ba10c25a3e17ae54b76c",
    "link_img": "https://live.staticflickr.com/65535/51564133503_d0ba9511a8_o.png",
    "id_image": "ANIME_PIC_bc3f672f97a4ba10c25a3e17ae54b76c",
    "count_view": 0
  },
  {
    "link_thumb": "https://live.staticflickr.com/65535/51564576714_6e532230ea_n.jpg",
    "id_album": "-89234980",
    "description": "ANIME_PIC_bc4cb3d036b5dbba4be72a6bcb88d6ea,[GirlsCuteCool],[isGirlAnime],[isCuteAnime]",
    "title": "ANIME_PIC_bc4cb3d036b5dbba4be72a6bcb88d6ea",
    "link_img": "https://live.staticflickr.com/65535/51564576714_f425363a88_o.png",
    "id_image": "ANIME_PIC_bc4cb3d036b5dbba4be72a6bcb88d6ea",
    "count_view": 0
  },
  {
    "link_thumb": "https://live.staticflickr.com/65535/51564134033_79bf1b69cf_n.jpg",
    "id_album": "-89234980",
    "description": "ANIME_PIC_bc4cf367e359530e43d4042010a7ba62,[GirlsCuteCool],[isGirlAnime],[isCuteAnime]",
    "title": "ANIME_PIC_bc4cf367e359530e43d4042010a7ba62",
    "link_img": "https://live.staticflickr.com/65535/51564134033_d4105ea831_o.jpg",
    "id_image": "ANIME_PIC_bc4cf367e359530e43d4042010a7ba62",
    "count_view": 0
  },
  {
    "link_thumb": "https://live.staticflickr.com/65535/51564821320_8ec73452bb_n.jpg",
    "id_album": "-89234980",
    "description": "ANIME_PIC_bc5954520567b5f3cb37283d2b3be94a,[GirlsCuteCool],[isGirlAnime],[isCuteAnime],[isGirlsHatsHoodieAnime],[isGirlsLoliAnime],[isSadAnimeGirl],[isSadAnime]",
    "title": "ANIME_PIC_bc5954520567b5f3cb37283d2b3be94a",
    "link_img": "https://live.staticflickr.com/65535/51564821320_c7e66e224e_o.jpg",
    "id_image": "ANIME_PIC_bc5954520567b5f3cb37283d2b3be94a",
    "count_view": 0
  },
  {
    "link_thumb": "https://live.staticflickr.com/65535/51563097677_2398ca468e_n.jpg",
    "id_album": "-89234980",
    "description": "ANIME_PIC_bc598bced42df2c20e36b482f42d0671,[GirlsCuteCool],[isGirlAnime],[isCuteAnime],[isGirlsLoliAnime]",
    "title": "ANIME_PIC_bc598bced42df2c20e36b482f42d0671",
    "link_img": "https://live.staticflickr.com/65535/51563097677_3e998f2f13_o.jpg",
    "id_image": "ANIME_PIC_bc598bced42df2c20e36b482f42d0671",
    "count_view": 0
  },
  {
    "link_thumb": "https://live.staticflickr.com/65535/51564577579_f8667f7c2f_n.jpg",
    "id_album": "-89234980",
    "description": "ANIME_PIC_bc5a2172303b3c508538e1a56ad04a07,[GirlsCuteCool],[isGirlAnime],[isCuteAnime],[isSadAnimeGirl],[isSadAnime]",
    "title": "ANIME_PIC_bc5a2172303b3c508538e1a56ad04a07",
    "link_img": "https://live.staticflickr.com/65535/51564577579_3220a49514_o.jpg",
    "id_image": "ANIME_PIC_bc5a2172303b3c508538e1a56ad04a07",
    "count_view": 0
  },
  {
    "link_thumb": "https://live.staticflickr.com/65535/51564821920_947ffe72bc_n.jpg",
    "id_album": "-89234980",
    "description": "ANIME_PIC_bc66aee34a3e543421f257202a0d3fb9,[GirlsCuteCool],[isGirlAnime],[isCuteAnime],[isGirlsLoliAnime]",
    "title": "ANIME_PIC_bc66aee34a3e543421f257202a0d3fb9",
    "link_img": "https://live.staticflickr.com/65535/51564821920_b9514db288_o.jpg",
    "id_image": "ANIME_PIC_bc66aee34a3e543421f257202a0d3fb9",
    "count_view": 0
  },
  {
    "link_thumb": "https://live.staticflickr.com/65535/51564135063_814000144e_n.jpg",
    "id_album": "-89234980",
    "description": "ANIME_PIC_bc6cd1c75cb78f518df19ba0b7280829,[GirlsCuteCool],[isGirlAnime],[isCuteAnime],[isGirlsLoliAnime],[isSadAnimeGirl],[isSadAnime]",
    "title": "ANIME_PIC_bc6cd1c75cb78f518df19ba0b7280829",
    "link_img": "https://live.staticflickr.com/65535/51564135063_7b24deb34a_o.png",
    "id_image": "ANIME_PIC_bc6cd1c75cb78f518df19ba0b7280829",
    "count_view": 0
  },
  {
    "link_thumb": "https://live.staticflickr.com/65535/51564822540_325c97e1aa_n.jpg",
    "id_album": "-89234980",
    "description": "ANIME_PIC_bc6d9f1059f6d3dd19bd685415efda30,[GirlsCuteCool],[isGirlAnime],[isCuteAnime],[isGirlsLoliAnime]",
    "title": "ANIME_PIC_bc6d9f1059f6d3dd19bd685415efda30",
    "link_img": "https://live.staticflickr.com/65535/51564822540_9543640699_o.png",
    "id_image": "ANIME_PIC_bc6d9f1059f6d3dd19bd685415efda30",
    "count_view": 0
  },
  {
    "link_thumb": "https://live.staticflickr.com/65535/51564822840_fc329c6059_n.jpg",
    "id_album": "-89234980",
    "description": "ANIME_PIC_bc6f7381891b8bfcc9ad842f925cb207,[GirlsCuteCool],[isGirlAnime],[isCuteAnime],[isGirlsHatsHoodieAnime]",
    "title": "ANIME_PIC_bc6f7381891b8bfcc9ad842f925cb207",
    "link_img": "https://live.staticflickr.com/65535/51564822840_79449e9733_o.jpg",
    "id_image": "ANIME_PIC_bc6f7381891b8bfcc9ad842f925cb207",
    "count_view": 0
  },
  {
    "link_thumb": "https://live.staticflickr.com/65535/51563099082_d5455c952a_n.jpg",
    "id_album": "-89234980",
    "description": "ANIME_PIC_bc72c230ddd10efa389f9eec3e832539,[GirlsCuteCool],[isGirlAnime],[isCuteAnime],[isGirlsLoliAnime],[isSadAnimeGirl],[isSadAnime]",
    "title": "ANIME_PIC_bc72c230ddd10efa389f9eec3e832539",
    "link_img": "https://live.staticflickr.com/65535/51563099082_58aacf9aff_o.png",
    "id_image": "ANIME_PIC_bc72c230ddd10efa389f9eec3e832539",
    "count_view": 0
  },
  {
    "link_thumb": "https://live.staticflickr.com/65535/51563099412_a594b6ab20_n.jpg",
    "id_album": "-89234980",
    "description": "ANIME_PIC_bc75a3dfae09967d7d084e62b073bd46,[GirlsCuteCool],[isGirlAnime],[isCuteAnime],[isSadAnimeGirl],[isSadAnime]",
    "title": "ANIME_PIC_bc75a3dfae09967d7d084e62b073bd46",
    "link_img": "https://live.staticflickr.com/65535/51563099412_8a3226966d_o.png",
    "id_image": "ANIME_PIC_bc75a3dfae09967d7d084e62b073bd46",
    "count_view": 0
  },
  {
    "link_thumb": "https://live.staticflickr.com/65535/51564579309_31b477ff62_n.jpg",
    "id_album": "-89234980",
    "description": "ANIME_PIC_bc76cc148feff7c220a2184375918ac1,[GirlsCuteCool],[isGirlAnime],[isCuteAnime],[isGirlsHatsHoodieAnime],[isGirlsLoliAnime],[isSadAnimeGirl],[isSadAnime]",
    "title": "ANIME_PIC_bc76cc148feff7c220a2184375918ac1",
    "link_img": "https://live.staticflickr.com/65535/51564579309_9c24dba527_o.jpg",
    "id_image": "ANIME_PIC_bc76cc148feff7c220a2184375918ac1",
    "count_view": 0
  },
  {
    "link_thumb": "https://live.staticflickr.com/65535/51564579629_46ec6a27c8_n.jpg",
    "id_album": "-89234980",
    "description": "ANIME_PIC_bc7a4acbef28993de25f8f2ba99906ea,[GirlsCuteCool],[isGirlAnime],[isCuteAnime],[isGirlsLoliAnime],[isSadAnimeGirl],[isSadAnime]",
    "title": "ANIME_PIC_bc7a4acbef28993de25f8f2ba99906ea",
    "link_img": "https://live.staticflickr.com/65535/51564579629_d888f8be65_o.jpg",
    "id_image": "ANIME_PIC_bc7a4acbef28993de25f8f2ba99906ea",
    "count_view": 0
  },
  {
    "link_thumb": "https://live.staticflickr.com/65535/51564136963_9d7ca2e84c_n.jpg",
    "id_album": "-89234980",
    "description": "ANIME_PIC_bc7a9a7eb9c0692ac62b0daf7cac7854,[GirlsCuteCool],[isGirlAnime],[isCuteAnime]",
    "title": "ANIME_PIC_bc7a9a7eb9c0692ac62b0daf7cac7854",
    "link_img": "https://live.staticflickr.com/65535/51564136963_e4009f7b7c_o.jpg",
    "id_image": "ANIME_PIC_bc7a9a7eb9c0692ac62b0daf7cac7854",
    "count_view": 0
  },
  {
    "link_thumb": "https://live.staticflickr.com/65535/51564137203_52dfaaa877_n.jpg",
    "id_album": "-89234980",
    "description": "ANIME_PIC_bc83e1a1c50f7dcd8d5fe185c54ec3b4,[GirlsCuteCool],[isGirlAnime],[isCuteAnime]",
    "title": "ANIME_PIC_bc83e1a1c50f7dcd8d5fe185c54ec3b4",
    "link_img": "https://live.staticflickr.com/65535/51564137203_d2d4c4b7e3_o.jpg",
    "id_image": "ANIME_PIC_bc83e1a1c50f7dcd8d5fe185c54ec3b4",
    "count_view": 0
  },
  {
    "link_thumb": "https://live.staticflickr.com/65535/51563890826_3120f63ace_n.jpg",
    "id_album": "-89234980",
    "description": "ANIME_PIC_bc846bd757aea10ef41a1c6674030c70,[GirlsCuteCool],[isGirlAnime],[isCuteAnime]",
    "title": "ANIME_PIC_bc846bd757aea10ef41a1c6674030c70",
    "link_img": "https://live.staticflickr.com/65535/51563890826_a0624363de_o.jpg",
    "id_image": "ANIME_PIC_bc846bd757aea10ef41a1c6674030c70",
    "count_view": 0
  },
  {
    "link_thumb": "https://live.staticflickr.com/65535/51563891056_faff7fd28c_n.jpg",
    "id_album": "-89234980",
    "description": "ANIME_PIC_bc84b79cb86d952b2c0bcdcc98052367,[GirlsCuteCool],[isGirlAnime],[isCuteAnime],[isGirlsHatsHoodieAnime],[isGirlsLoliAnime]",
    "title": "ANIME_PIC_bc84b79cb86d952b2c0bcdcc98052367",
    "link_img": "https://live.staticflickr.com/65535/51563891056_9e8f591d81_o.png",
    "id_image": "ANIME_PIC_bc84b79cb86d952b2c0bcdcc98052367",
    "count_view": 0
  },
  {
    "link_thumb": "https://live.staticflickr.com/65535/51563101202_2742a1b316_n.jpg",
    "id_album": "-89234980",
    "description": "ANIME_PIC_bc86f2fc9e1e93618b22a9dfd6d829df,[GirlsCuteCool],[isGirlAnime],[isCuteAnime],[isGirlsLoliAnime]",
    "title": "ANIME_PIC_bc86f2fc9e1e93618b22a9dfd6d829df",
    "link_img": "https://live.staticflickr.com/65535/51563101202_c096bfa087_o.png",
    "id_image": "ANIME_PIC_bc86f2fc9e1e93618b22a9dfd6d829df",
    "count_view": 0
  },
  {
    "link_thumb": "https://live.staticflickr.com/65535/51563891621_3d650acdd0_n.jpg",
    "id_album": "-89234980",
    "description": "ANIME_PIC_bc8912f0a3cfddbb4e9264da04a7665e,[GirlsCuteCool],[isGirlAnime],[isCuteAnime],[isGirlsLoliAnime]",
    "title": "ANIME_PIC_bc8912f0a3cfddbb4e9264da04a7665e",
    "link_img": "https://live.staticflickr.com/65535/51563891621_9c1eb73346_o.jpg",
    "id_image": "ANIME_PIC_bc8912f0a3cfddbb4e9264da04a7665e",
    "count_view": 0
  },
  {
    "link_thumb": "https://live.staticflickr.com/65535/51564138373_d8e0dd8fa4_n.jpg",
    "id_album": "-89234980",
    "description": "ANIME_PIC_bc8cede656b1c743b668374c3f37abd8,[GirlsCuteCool],[isGirlAnime],[isCuteAnime],[isGirlEarsNekoAnime]",
    "title": "ANIME_PIC_bc8cede656b1c743b668374c3f37abd8",
    "link_img": "https://live.staticflickr.com/65535/51564138373_305690b260_o.jpg",
    "id_image": "ANIME_PIC_bc8cede656b1c743b668374c3f37abd8",
    "count_view": 0
  },
  {
    "link_thumb": "https://live.staticflickr.com/65535/51564138608_cb366b6f84_n.jpg",
    "id_album": "-89234980",
    "description": "ANIME_PIC_bc8f9ef0409be8917f2afc0e4e935d49,[GirlsCuteCool],[isGirlAnime],[isCuteAnime],[isSadAnimeGirl],[isSadAnime]",
    "title": "ANIME_PIC_bc8f9ef0409be8917f2afc0e4e935d49",
    "link_img": "https://live.staticflickr.com/65535/51564138608_295967e39b_o.png",
    "id_image": "ANIME_PIC_bc8f9ef0409be8917f2afc0e4e935d49",
    "count_view": 0
  },
  {
    "link_thumb": "https://live.staticflickr.com/65535/51564582074_d82680a65d_n.jpg",
    "id_album": "-89234980",
    "description": "ANIME_PIC_bc91f57f476023301e2a47581c4b8a1d,[GirlsCuteCool],[isGirlAnime],[isCuteAnime],[isGirlEarsNekoAnime]",
    "title": "ANIME_PIC_bc91f57f476023301e2a47581c4b8a1d",
    "link_img": "https://live.staticflickr.com/65535/51564582074_540b446a86_o.jpg",
    "id_image": "ANIME_PIC_bc91f57f476023301e2a47581c4b8a1d",
    "count_view": 0
  },
  {
    "link_thumb": "https://live.staticflickr.com/65535/51564826320_519e9220ec_n.jpg",
    "id_album": "-89234980",
    "description": "ANIME_PIC_bc92a314e03afc6a18a0435d2bacbf2a,[GirlsCuteCool],[isGirlAnime],[isCuteAnime],[isGirlsHatsHoodieAnime],[isGirlsLoliAnime]",
    "title": "ANIME_PIC_bc92a314e03afc6a18a0435d2bacbf2a",
    "link_img": "https://live.staticflickr.com/65535/51564826320_9f8b8ba16c_o.jpg",
    "id_image": "ANIME_PIC_bc92a314e03afc6a18a0435d2bacbf2a",
    "count_view": 0
  },
  {
    "link_thumb": "https://live.staticflickr.com/65535/51564582569_82050a8beb_n.jpg",
    "id_album": "-89234980",
    "description": "ANIME_PIC_bc962e5012cb79abc0eef379ca8ebb51,[GirlsCuteCool],[isGirlAnime],[isCuteAnime],[isGirlsLoliAnime]",
    "title": "ANIME_PIC_bc962e5012cb79abc0eef379ca8ebb51",
    "link_img": "https://live.staticflickr.com/65535/51564582569_358020df73_o.jpg",
    "id_image": "ANIME_PIC_bc962e5012cb79abc0eef379ca8ebb51",
    "count_view": 0
  },
  {
    "link_thumb": "https://live.staticflickr.com/65535/51563893241_83ba3418b5_n.jpg",
    "id_album": "-89234980",
    "description": "ANIME_PIC_bc964b28e0487eb1de1729aebc1bdcdc,[GirlsCuteCool],[isGirlAnime],[isCuteAnime]",
    "title": "ANIME_PIC_bc964b28e0487eb1de1729aebc1bdcdc",
    "link_img": "https://live.staticflickr.com/65535/51563893241_6110c66ec0_o.png",
    "id_image": "ANIME_PIC_bc964b28e0487eb1de1729aebc1bdcdc",
    "count_view": 0
  },
  {
    "link_thumb": "https://live.staticflickr.com/65535/51564826850_cecd8de298_n.jpg",
    "id_album": "-89234980",
    "description": "ANIME_PIC_bc9984d5db23c9d6d7327fe215d619a5,[GirlsCuteCool],[isGirlAnime],[isCuteAnime],[isGirlsLoliAnime]",
    "title": "ANIME_PIC_bc9984d5db23c9d6d7327fe215d619a5",
    "link_img": "https://live.staticflickr.com/65535/51564826850_24065fcf03_o.jpg",
    "id_image": "ANIME_PIC_bc9984d5db23c9d6d7327fe215d619a5",
    "count_view": 0
  },
  {
    "link_thumb": "https://live.staticflickr.com/65535/51564827065_da5a300457_n.jpg",
    "id_album": "-89234980",
    "description": "ANIME_PIC_bc99d3f14418021aa3d390a546801ab0,[GirlsCuteCool],[isGirlAnime],[isCuteAnime],[isSadAnimeGirl],[isSadAnime]",
    "title": "ANIME_PIC_bc99d3f14418021aa3d390a546801ab0",
    "link_img": "https://live.staticflickr.com/65535/51564827065_c5edeef2a3_o.png",
    "id_image": "ANIME_PIC_bc99d3f14418021aa3d390a546801ab0",
    "count_view": 0
  },
  {
    "link_thumb": "https://live.staticflickr.com/65535/51563894031_cbf6baed52_n.jpg",
    "id_album": "-89234980",
    "description": "ANIME_PIC_bc9bb0cf5dce4affd66f46be69c0dcfe,[GirlsCuteCool],[isGirlAnime],[isCuteAnime]",
    "title": "ANIME_PIC_bc9bb0cf5dce4affd66f46be69c0dcfe",
    "link_img": "https://live.staticflickr.com/65535/51563894031_86af4388d2_o.jpg",
    "id_image": "ANIME_PIC_bc9bb0cf5dce4affd66f46be69c0dcfe",
    "count_view": 0
  },
  {
    "link_thumb": "https://live.staticflickr.com/65535/51563104102_1ea751714c_n.jpg",
    "id_album": "-89234980",
    "description": "ANIME_PIC_bc9c12c22c4846d111ec070dbd4b2c16,[GirlsCuteCool],[isGirlAnime],[isCuteAnime]",
    "title": "ANIME_PIC_bc9c12c22c4846d111ec070dbd4b2c16",
    "link_img": "https://live.staticflickr.com/65535/51563104102_036ecdba13_o.png",
    "id_image": "ANIME_PIC_bc9c12c22c4846d111ec070dbd4b2c16",
    "count_view": 0
  },
  {
    "link_thumb": "https://live.staticflickr.com/65535/51563894661_9f2b65027a_n.jpg",
    "id_album": "-89234980",
    "description": "ANIME_PIC_bc9d65c4400c9f2e6bdd5caae0877af2,[GirlsCuteCool],[isGirlAnime],[isCuteAnime],[isGirlsLoliAnime],[isSadAnimeGirl],[isSadAnime]",
    "title": "ANIME_PIC_bc9d65c4400c9f2e6bdd5caae0877af2",
    "link_img": "https://live.staticflickr.com/65535/51563894661_4a56797445_o.jpg",
    "id_image": "ANIME_PIC_bc9d65c4400c9f2e6bdd5caae0877af2",
    "count_view": 0
  },
  {
    "link_thumb": "https://live.staticflickr.com/65535/51563894911_3e7d244ef1_n.jpg",
    "id_album": "-89234980",
    "description": "ANIME_PIC_bc9e1b13dbb9ca29da7e64f28d30bb6a,[GirlsCuteCool],[isGirlAnime],[isCuteAnime],[isGirlsHatsHoodieAnime],[isGirlsLoliAnime]",
    "title": "ANIME_PIC_bc9e1b13dbb9ca29da7e64f28d30bb6a",
    "link_img": "https://live.staticflickr.com/65535/51563894911_2561313c6e_o.png",
    "id_image": "ANIME_PIC_bc9e1b13dbb9ca29da7e64f28d30bb6a",
    "count_view": 0
  },
  {
    "link_thumb": "https://live.staticflickr.com/65535/51564828765_a1513d8c56_n.jpg",
    "id_album": "-89234980",
    "description": "ANIME_PIC_bc9e88f65ca535c0f2b8b370d6328611,[GirlsCuteCool],[isGirlAnime],[isCuteAnime],[isGirlEarsNekoAnime]",
    "title": "ANIME_PIC_bc9e88f65ca535c0f2b8b370d6328611",
    "link_img": "https://live.staticflickr.com/65535/51564828765_3e831ab1b9_o.png",
    "id_image": "ANIME_PIC_bc9e88f65ca535c0f2b8b370d6328611",
    "count_view": 0
  },
  {
    "link_thumb": "https://live.staticflickr.com/65535/51564829130_dac7144b16_n.jpg",
    "id_album": "-89234980",
    "description": "ANIME_PIC_bca1b1a9422a85db2c71044e083a432c,[GirlsCuteCool],[isGirlAnime],[isCuteAnime],[isGirlsLoliAnime]",
    "title": "ANIME_PIC_bca1b1a9422a85db2c71044e083a432c",
    "link_img": "https://live.staticflickr.com/65535/51564829130_d49c5b9aef_o.jpg",
    "id_image": "ANIME_PIC_bca1b1a9422a85db2c71044e083a432c",
    "count_view": 0
  },
  {
    "link_thumb": "https://live.staticflickr.com/65535/51564585354_587bd11357_n.jpg",
    "id_album": "-89234980",
    "description": "ANIME_PIC_bca2998eaf8c1c1876592c6fe61faa09,[GirlsCuteCool],[isGirlAnime],[isCuteAnime],[isGirlsLoliAnime]",
    "title": "ANIME_PIC_bca2998eaf8c1c1876592c6fe61faa09",
    "link_img": "https://live.staticflickr.com/65535/51564585354_89c7ff4a6f_o.jpg",
    "id_image": "ANIME_PIC_bca2998eaf8c1c1876592c6fe61faa09",
    "count_view": 0
  },
  {
    "link_thumb": "https://live.staticflickr.com/65535/51564829550_51d0e2c165_n.jpg",
    "id_album": "-89234980",
    "description": "ANIME_PIC_bca47aa71cff49c3bb8cdfca12026f4a,[GirlsCuteCool],[isGirlAnime],[isCuteAnime],[isGirlsHatsHoodieAnime],[isGirlsLoliAnime],[isSadAnimeGirl],[isSadAnime]",
    "title": "ANIME_PIC_bca47aa71cff49c3bb8cdfca12026f4a",
    "link_img": "https://live.staticflickr.com/65535/51564829550_76bc822e6b_o.jpg",
    "id_image": "ANIME_PIC_bca47aa71cff49c3bb8cdfca12026f4a",
    "count_view": 0
  },
  {
    "link_thumb": "https://live.staticflickr.com/65535/51563106237_c83b5ac324_n.jpg",
    "id_album": "-89234980",
    "description": "ANIME_PIC_bca8688dddc774f8ed44a097129aa216,[GirlsCuteCool],[isGirlAnime],[isCuteAnime],[isGirlsLoliAnime]",
    "title": "ANIME_PIC_bca8688dddc774f8ed44a097129aa216",
    "link_img": "https://live.staticflickr.com/65535/51563106237_9d10d1c71c_o.jpg",
    "id_image": "ANIME_PIC_bca8688dddc774f8ed44a097129aa216",
    "count_view": 0
  },
  {
    "link_thumb": "https://live.staticflickr.com/65535/51564142753_f67b94928f_n.jpg",
    "id_album": "-89234980",
    "description": "ANIME_PIC_bcabf89748f8e50c94044447c09a283a,[GirlsCuteCool],[isGirlAnime],[isCuteAnime],[isSceneryArts]",
    "title": "ANIME_PIC_bcabf89748f8e50c94044447c09a283a",
    "link_img": "https://live.staticflickr.com/65535/51564142753_26672fbdd8_o.png",
    "id_image": "ANIME_PIC_bcabf89748f8e50c94044447c09a283a",
    "count_view": 0
  },
  {
    "link_thumb": "https://live.staticflickr.com/65535/51563106847_b204ed4672_n.jpg",
    "id_album": "-89234980",
    "description": "ANIME_PIC_bcae3010c09c1b31b8cb8ea24338afec,[GirlsCuteCool],[isGirlAnime],[isCuteAnime],[isGirlsLoliAnime]",
    "title": "ANIME_PIC_bcae3010c09c1b31b8cb8ea24338afec",
    "link_img": "https://live.staticflickr.com/65535/51563106847_aa3570c608_o.jpg",
    "id_image": "ANIME_PIC_bcae3010c09c1b31b8cb8ea24338afec",
    "count_view": 0
  },
  {
    "link_thumb": "https://live.staticflickr.com/65535/51564586554_0b1032d24c_n.jpg",
    "id_album": "-89234980",
    "description": "ANIME_PIC_bcaecd2fd0d7c369dafbf948daf8fea7,[GirlsCuteCool],[isGirlAnime],[isCuteAnime],[isGirlsLoliAnime],[isSadAnimeGirl],[isSadAnime]",
    "title": "ANIME_PIC_bcaecd2fd0d7c369dafbf948daf8fea7",
    "link_img": "https://live.staticflickr.com/65535/51564586554_a8cbe33d56_o.png",
    "id_image": "ANIME_PIC_bcaecd2fd0d7c369dafbf948daf8fea7",
    "count_view": 0
  },
  {
    "link_thumb": "https://live.staticflickr.com/65535/51564143563_503d87200e_n.jpg",
    "id_album": "-89234980",
    "description": "ANIME_PIC_bcb8883f011faa89f3100ad46f6cda0a,[GirlsCuteCool],[isGirlAnime],[isCuteAnime],[isGirlEarsNekoAnime],[isGirlsLoliAnime],[isSadAnimeGirl],[isSadAnime]",
    "title": "ANIME_PIC_bcb8883f011faa89f3100ad46f6cda0a",
    "link_img": "https://live.staticflickr.com/65535/51564143563_84dfdd0648_o.png",
    "id_image": "ANIME_PIC_bcb8883f011faa89f3100ad46f6cda0a",
    "count_view": 0
  }
]