[
  {
    "total_img": 82,
    "number_page": 1,
    "title": "Yuru Yuri",
    "tag": "Himawari Furutani, Ayano Sugiura, Akari Akaza, School Uniform, Pink Hair, Yellow Eyes, Swimwear, Blonde, Long Hair, Sakurako Omuro, Hanako Omuro, Rise Matsumoto, Blue Eyes, Anime, Blue Hair, Chitose Ikeda, Yui Funami, Yuri, Yuru Yuri, Fall, YuriYuri, Kyoko Toshino, Chinatsu Yoshikawa",
    "description": "Yuru Yuri",
    "link_thumb": "https://live.staticflickr.com/65535/48066905523_9b41a839c4_n.jpg",
    "id_album": "-389894623",
    "total_view": 82
  },
  {
    "total_img": 15,
    "number_page": 1,
    "title": "Akari Akaza",
    "tag": "Akari Akaza,",
    "description": "Akari Akaza",
    "link_thumb": "https://live.staticflickr.com/65535/48066948908_bc1f5a5914_n.jpg",
    "id_album": "-1704206539",
    "total_view": 15
  },
  {
    "total_img": 12,
    "number_page": 1,
    "title": "Ayano Sugiura",
    "tag": "Ayano Sugiura,",
    "description": "Ayano Sugiura",
    "link_thumb": "https://live.staticflickr.com/65535/48066947108_885f311165_n.jpg",
    "id_album": "-1608801720",
    "total_view": 12
  },
  {
    "total_img": 16,
    "number_page": 1,
    "title": "Chinatsu Yoshikawa",
    "tag": "Chinatsu Yoshikawa,",
    "description": "Chinatsu Yoshikawa",
    "link_thumb": "https://live.staticflickr.com/65535/48066948413_2c79b59d7f_n.jpg",
    "id_album": "-1865637146",
    "total_view": 16
  },
  {
    "total_img": 8,
    "number_page": 1,
    "title": "Chitose Ikeda",
    "tag": "Chitose Ikeda,",
    "description": "Chitose Ikeda",
    "link_thumb": "https://live.staticflickr.com/65535/48066999462_38dc934c32_n.jpg",
    "id_album": "1147413064",
    "total_view": 8
  },
  {
    "total_img": 5,
    "number_page": 1,
    "title": "Himawari Furutani",
    "tag": "Himawari Furutani,",
    "description": "Himawari Furutani",
    "link_thumb": "https://live.staticflickr.com/65535/48066894366_6e57fa9144_n.jpg",
    "id_album": "538509961",
    "total_view": 5
  },
  {
    "total_img": 25,
    "number_page": 1,
    "title": "Kyoko Toshino",
    "tag": "Kyoko Toshino,",
    "description": "Kyoko Toshino",
    "link_thumb": "https://live.staticflickr.com/65535/48066950008_5f62b5e82c_n.jpg",
    "id_album": "634362089",
    "total_view": 25
  },
  {
    "total_img": 7,
    "number_page": 1,
    "title": "Sakurako Omuro",
    "tag": "Sakurako Omuro,",
    "description": "Sakurako Omuro",
    "link_thumb": "https://live.staticflickr.com/65535/48066893901_a98b4d45b5_n.jpg",
    "id_album": "-369258306",
    "total_view": 7
  },
  {
    "total_img": 16,
    "number_page": 1,
    "title": "Yui Funami",
    "tag": "Yui Funami,",
    "description": "Yui Funami",
    "link_thumb": "https://live.staticflickr.com/65535/48066950008_5f62b5e82c_n.jpg",
    "id_album": "1377659263",
    "total_view": 16
  }
]